M48
; DRILL file {KiCad 5.1.6} date Wed Aug  5 19:10:18 2020
; FORMAT={3:3/ absolute / metric / suppress leading zeros}
; #@! TF.CreationDate,2020-08-05T19:10:18+02:00
; #@! TF.GenerationSoftware,Kicad,Pcbnew,5.1.6
FMAT,2
METRIC,TZ
T1C0.400
T2C0.600
T3C0.850
%
G90
G05
T1
X28702Y-57658
X31496Y-48006
X33020Y-50800
X33528Y-53340
X33801Y-57131
X35306Y-57404
X36830Y-56896
X37084Y-46228
X38100Y-57150
X40513Y-57023
X41656Y-60706
X42164Y-58674
X43180Y-45212
X43180Y-46228
X43180Y-47244
X43688Y-65278
X45212Y-66548
X47752Y-58928
X48260Y-49530
X49530Y-45974
X49530Y-51816
X50800Y-46228
X52070Y-44450
X53340Y-64262
X55118Y-43180
X57404Y-59690
X59182Y-49022
X59182Y-66294
X60198Y-43942
X61214Y-49022
X65024Y-66040
X67310Y-65278
X69342Y-64262
X73152Y-63246
X80010Y-44958
X82550Y-48260
X90678Y-48768
X90678Y-60198
X94488Y-43942
X96520Y-43942
T3
X29911Y-50332
X29911Y-55332
T2
G00X26860Y-49332
M15
G01X27560Y-49332
M16
G05
G00X27560Y-56332
M15
G01X26860Y-56332
M16
G05
T0
M30
