EESchema Schematic File Version 4
EELAYER 30 0
EELAYER END
$Descr A4 11693 8268
encoding utf-8
Sheet 1 1
Title "LoRaWAN server with ESP-12F"
Date "2020-08-04"
Rev "2"
Comp ""
Comment1 ""
Comment2 ""
Comment3 ""
Comment4 ""
$EndDescr
$Comp
L RF_Module:RFM95W-868S2 U2
U 1 1 5E5A9F92
P 7050 1750
F 0 "U2" H 6700 2200 50  0000 C CNN
F 1 "RFM95W-868S2" H 7550 1150 50  0000 C CNN
F 2 "RF_Module:HOPERF_RFM9XW_SMD" H 3750 3400 50  0001 C CNN
F 3 "http://www.hoperf.com/upload/rf/RFM95_96_97_98W.pdf" H 3750 3400 50  0001 C CNN
F 4 "RF Solutions" H -2650 -750 50  0001 C CNN "MFR"
F 5 "RFM95W-868S2" H -2650 -750 50  0001 C CNN "MPN"
F 6 "DigiKey" H -2650 -750 50  0001 C CNN "SPR"
F 7 "RFM95W-868S2-ND" H -2650 -750 50  0001 C CNN "SPN"
F 8 "-" H -2650 -750 50  0001 C CNN "SPURL"
	1    7050 1750
	1    0    0    -1  
$EndComp
$Comp
L power:GND #PWR08
U 1 1 5E65F974
P 7850 1700
F 0 "#PWR08" H 7850 1450 50  0001 C CNN
F 1 "GND" H 7855 1527 50  0000 C CNN
F 2 "" H 7850 1700 50  0001 C CNN
F 3 "" H 7850 1700 50  0001 C CNN
	1    7850 1700
	1    0    0    -1  
$EndComp
$Comp
L power:+3V3 #PWR04
U 1 1 5E78DFA7
P 7050 1200
F 0 "#PWR04" H 7050 1050 50  0001 C CNN
F 1 "+3V3" H 7065 1373 50  0000 C CNN
F 2 "" H 7050 1200 50  0001 C CNN
F 3 "" H 7050 1200 50  0001 C CNN
	1    7050 1200
	1    0    0    -1  
$EndComp
$Comp
L Device:C_Small C1
U 1 1 5E78DFB3
P 5950 1150
F 0 "C1" H 5835 1104 50  0000 R CNN
F 1 "100n" H 5835 1195 50  0000 R CNN
F 2 "Capacitor_SMD:C_0603_1608Metric" H 5988 1000 50  0001 C CNN
F 3 "~" H 5950 1150 50  0001 C CNN
F 4 "YAGEO" H -4000 -500 50  0001 C CNN "MFR"
F 5 "CC0603KRX7R9BB104" H -4000 -500 50  0001 C CNN "MPN"
F 6 "Mouser" H -4000 -500 50  0001 C CNN "SPR"
F 7 "80-C0805C104J4R " H -4000 -500 50  0001 C CNN "SPN"
F 8 "-" H -4000 -500 50  0001 C CNN "SPURL"
F 9 "C14663" H 5950 1150 50  0001 C CNN "LCSC"
	1    5950 1150
	-1   0    0    1   
$EndComp
$Comp
L power:GND #PWR05
U 1 1 5E78DFD3
P 5950 1350
F 0 "#PWR05" H 5950 1100 50  0001 C CNN
F 1 "GND" H 5955 1177 50  0000 C CNN
F 2 "" H 5950 1350 50  0001 C CNN
F 3 "" H 5950 1350 50  0001 C CNN
	1    5950 1350
	1    0    0    -1  
$EndComp
$Comp
L power:GND #PWR014
U 1 1 5E852723
P 7050 2500
F 0 "#PWR014" H 7050 2250 50  0001 C CNN
F 1 "GND" H 7055 2327 50  0000 C CNN
F 2 "" H 7050 2500 50  0001 C CNN
F 3 "" H 7050 2500 50  0001 C CNN
	1    7050 2500
	1    0    0    -1  
$EndComp
$Comp
L power:+3V3 #PWR011
U 1 1 5E948BF7
P 5950 1800
F 0 "#PWR011" H 5950 1650 50  0001 C CNN
F 1 "+3V3" H 5965 1973 50  0000 C CNN
F 2 "" H 5950 1800 50  0001 C CNN
F 3 "" H 5950 1800 50  0001 C CNN
	1    5950 1800
	1    0    0    -1  
$EndComp
$Comp
L thesis_components:LT1763 U1
U 1 1 5EB22ABB
P 3350 1300
F 0 "U1" H 3350 1715 50  0000 C CNN
F 1 "LT1763" H 3350 1624 50  0000 C CNN
F 2 "thesis_components:LT1763" H 3350 800 50  0001 C CNN
F 3 "http://cds.linear.com/docs/en/datasheet/1962fb.pdf" H 3350 600 50  0001 C CNN
F 4 "Linear Tech" H 550 -3800 50  0001 C CNN "MFR"
F 5 "LT1763CS8-3.3#TRPBF" H 550 -3800 50  0001 C CNN "MPN"
F 6 "Mouser" H 550 -3800 50  0001 C CNN "SPR"
F 7 "584-LT1763CS8-3.3PBF" H 550 -3800 50  0001 C CNN "SPN"
F 8 "-" H 550 -3800 50  0001 C CNN "SPURL"
F 9 "C31066" H 3350 1300 50  0001 C CNN "LCSC"
	1    3350 1300
	1    0    0    -1  
$EndComp
$Comp
L Device:C_Small C3
U 1 1 5EB244EA
P 4150 1350
F 0 "C3" H 4265 1396 50  0000 L CNN
F 1 "10n" H 4265 1305 50  0000 L CNN
F 2 "Capacitor_SMD:C_0603_1608Metric" H 4188 1200 50  0001 C CNN
F 3 "~" H 4150 1350 50  0001 C CNN
F 4 "Guangdong Fenghua Advanced Tech" H 550 -3850 50  0001 C CNN "MFR"
F 5 "0603B103K500NT" H 550 -3850 50  0001 C CNN "MPN"
F 6 "Mouser" H 550 -3850 50  0001 C CNN "SPR"
F 7 "80-C0805C103J4R " H 550 -3850 50  0001 C CNN "SPN"
F 8 "-" H 550 -3850 50  0001 C CNN "SPURL"
F 9 "C57112" H 4150 1350 50  0001 C CNN "LCSC"
	1    4150 1350
	1    0    0    -1  
$EndComp
$Comp
L Device:CP_Small C4
U 1 1 5EB3796B
P 4450 1350
F 0 "C4" H 4568 1396 50  0000 L CNN
F 1 "10u" H 4568 1305 50  0000 L CNN
F 2 "Capacitor_Tantalum_SMD:CP_EIA-3216-18_Kemet-A" H 4488 1200 50  0001 C CNN
F 3 "~" H 4450 1350 50  0001 C CNN
F 4 "AVX" H 300 -3800 50  0001 C CNN "MFR"
F 5 "TAJA106K016RNJ" H 300 -3800 50  0001 C CNN "MPN"
F 6 "Mouser" H 300 -3800 50  0001 C CNN "SPR"
F 7 "667-EEE-HBE100UAR" H 300 -3800 50  0001 C CNN "SPN"
F 8 "-" H 300 -3800 50  0001 C CNN "SPURL"
F 9 "C7171" H 4450 1350 50  0001 C CNN "LCSC"
	1    4450 1350
	1    0    0    -1  
$EndComp
$Comp
L power:+3V3 #PWR03
U 1 1 5EB4436C
P 4850 1050
F 0 "#PWR03" H 4850 900 50  0001 C CNN
F 1 "+3V3" H 4865 1223 50  0000 C CNN
F 2 "" H 4850 1050 50  0001 C CNN
F 3 "" H 4850 1050 50  0001 C CNN
	1    4850 1050
	1    0    0    -1  
$EndComp
$Comp
L power:+5V #PWR01
U 1 1 5EB4A7AB
P 2200 950
F 0 "#PWR01" H 2200 800 50  0001 C CNN
F 1 "+5V" H 2215 1123 50  0000 C CNN
F 2 "" H 2200 950 50  0001 C CNN
F 3 "" H 2200 950 50  0001 C CNN
	1    2200 950 
	1    0    0    -1  
$EndComp
$Comp
L power:GND #PWR09
U 1 1 5EB5B5A2
P 3350 1800
F 0 "#PWR09" H 3350 1550 50  0001 C CNN
F 1 "GND" H 3355 1627 50  0000 C CNN
F 2 "" H 3350 1800 50  0001 C CNN
F 3 "" H 3350 1800 50  0001 C CNN
	1    3350 1800
	1    0    0    -1  
$EndComp
$Comp
L power:GND #PWR010
U 1 1 5EB5C22D
P 4450 1800
F 0 "#PWR010" H 4450 1550 50  0001 C CNN
F 1 "GND" H 4455 1627 50  0000 C CNN
F 2 "" H 4450 1800 50  0001 C CNN
F 3 "" H 4450 1800 50  0001 C CNN
	1    4450 1800
	1    0    0    -1  
$EndComp
$Comp
L Device:C_Small C2
U 1 1 5EB9AE57
P 2400 1350
F 0 "C2" H 2515 1396 50  0000 L CNN
F 1 "1u" H 2515 1305 50  0000 L CNN
F 2 "Capacitor_SMD:C_0603_1608Metric" H 2438 1200 50  0001 C CNN
F 3 "~" H 2400 1350 50  0001 C CNN
F 4 "C15849" H 2400 1350 50  0001 C CNN "LCSC"
F 5 "Samsung Electro-Mechanics" H 550 -3800 50  0001 C CNN "MFR"
F 6 "CL10A105KB8NNNC" H 550 -3800 50  0001 C CNN "MPN"
F 7 "Mouser" H 550 -3800 50  0001 C CNN "SPR"
F 8 "80-C0805C105J4R" H 550 -3800 50  0001 C CNN "SPN"
F 9 "-" H 550 -3800 50  0001 C CNN "SPURL"
	1    2400 1350
	1    0    0    -1  
$EndComp
$Comp
L power:GND #PWR06
U 1 1 5EBA1E73
P 2400 1600
F 0 "#PWR06" H 2400 1350 50  0001 C CNN
F 1 "GND" H 2405 1427 50  0000 C CNN
F 2 "" H 2400 1600 50  0001 C CNN
F 3 "" H 2400 1600 50  0001 C CNN
	1    2400 1600
	1    0    0    -1  
$EndComp
$Comp
L Connector:USB_B_Micro J1
U 1 1 5EBF41B8
P 750 1350
F 0 "J1" H 807 1817 50  0000 C CNN
F 1 "USB_B_Micro" H 807 1726 50  0000 C CNN
F 2 "Connector_USB:USB_Micro-B_Molex-105017-0001" H 900 1300 50  0001 C CNN
F 3 "~" H 900 1300 50  0001 C CNN
F 4 "Molex" H -200 -2950 50  0001 C CNN "MFR"
F 5 "105017-0001" H -200 -2950 50  0001 C CNN "MPN"
F 6 "Mouser" H -200 -2950 50  0001 C CNN "SPR"
F 7 "538-105017-0001" H -200 -2950 50  0001 C CNN "SPN"
F 8 "-" H -200 -2950 50  0001 C CNN "SPURL"
	1    750  1350
	1    0    0    -1  
$EndComp
$Comp
L power:GND #PWR013
U 1 1 5EC21F03
P 750 1950
F 0 "#PWR013" H 750 1700 50  0001 C CNN
F 1 "GND" H 755 1777 50  0000 C CNN
F 2 "" H 750 1950 50  0001 C CNN
F 3 "" H 750 1950 50  0001 C CNN
	1    750  1950
	1    0    0    -1  
$EndComp
$Comp
L Device:R_Small R2
U 1 1 5ECEA1DB
P 6100 1950
F 0 "R2" V 5893 1950 50  0000 C CNN
F 1 "10k" V 5984 1950 50  0000 C CNN
F 2 "Resistor_SMD:R_0805_2012Metric" V 6030 1950 50  0001 C CNN
F 3 "~" H 6100 1950 50  0001 C CNN
F 4 "Uniroyal Elec" H -2500 -750 50  0001 C CNN "MFR"
F 5 "0805W8F1002T5E" H -2500 -750 50  0001 C CNN "MPN"
F 6 "Mouser" H -2500 -750 50  0001 C CNN "SPR"
F 7 "660-RK73H2ATTD1002F" H -2500 -750 50  0001 C CNN "SPN"
F 8 "-" H -2500 -750 50  0001 C CNN "SPURL"
F 9 "C17414" H 6100 1950 50  0001 C CNN "LCSC"
	1    6100 1950
	0    1    1    0   
$EndComp
$Comp
L RF_Module:ESP-12F U4
U 1 1 5E6B5170
P 5700 3900
F 0 "U4" H 5250 4650 50  0000 C CNN
F 1 "ESP-12F" H 6050 3250 50  0000 C CNN
F 2 "RF_Module:ESP-12E" H 5700 3900 50  0001 C CNN
F 3 "http://wiki.ai-thinker.com/_media/esp8266/esp8266_series_modules_user_manual_v1.1.pdf" H 5350 4000 50  0001 C CNN
F 4 "Adafruit" H -650 -450 50  0001 C CNN "MFR"
F 5 "2491" H -650 -450 50  0001 C CNN "MPN"
F 6 "Mouser" H -650 -450 50  0001 C CNN "SPR"
F 7 "85-2491" H -650 -450 50  0001 C CNN "SPN"
F 8 "-" H -650 -450 50  0001 C CNN "SPURL"
	1    5700 3900
	1    0    0    -1  
$EndComp
$Comp
L power:+3V3 #PWR018
U 1 1 5E6C4EA7
P 5700 3050
F 0 "#PWR018" H 5700 2900 50  0001 C CNN
F 1 "+3V3" H 5715 3223 50  0000 C CNN
F 2 "" H 5700 3050 50  0001 C CNN
F 3 "" H 5700 3050 50  0001 C CNN
	1    5700 3050
	1    0    0    -1  
$EndComp
$Comp
L Device:C_Small C5
U 1 1 5E6C4EB3
P 5050 2850
F 0 "C5" H 4935 2804 50  0000 R CNN
F 1 "100n" H 4935 2895 50  0000 R CNN
F 2 "Capacitor_SMD:C_0603_1608Metric" H 5088 2700 50  0001 C CNN
F 3 "~" H 5050 2850 50  0001 C CNN
F 4 "YAGEO" H -1550 -400 50  0001 C CNN "MFR"
F 5 "CC0603KRX7R9BB104" H -1550 -400 50  0001 C CNN "MPN"
F 6 "Mouser" H -1550 -400 50  0001 C CNN "SPR"
F 7 "80-C0805C104J4R " H -1550 -400 50  0001 C CNN "SPN"
F 8 "-" H -1550 -400 50  0001 C CNN "SPURL"
F 9 "C14663" H 5050 2850 50  0001 C CNN "LCSC"
	1    5050 2850
	1    0    0    -1  
$EndComp
$Comp
L power:GND #PWR017
U 1 1 5E6C4ECD
P 5050 3000
F 0 "#PWR017" H 5050 2750 50  0001 C CNN
F 1 "GND" H 5055 2827 50  0000 C CNN
F 2 "" H 5050 3000 50  0001 C CNN
F 3 "" H 5050 3000 50  0001 C CNN
	1    5050 3000
	1    0    0    -1  
$EndComp
$Comp
L Device:R_Small R3
U 1 1 5E706533
P 4600 3350
F 0 "R3" H 4670 3396 50  0000 L CNN
F 1 "10k" H 4670 3305 50  0000 L CNN
F 2 "Resistor_SMD:R_0805_2012Metric" V 4530 3350 50  0001 C CNN
F 3 "~" H 4600 3350 50  0001 C CNN
F 4 "Uniroyal Elec" H -700 -350 50  0001 C CNN "MFR"
F 5 "0805W8F1002T5E" H -700 -350 50  0001 C CNN "MPN"
F 6 "Mouser" H -700 -350 50  0001 C CNN "SPR"
F 7 "660-RK73H2ATTD1002F" H -700 -350 50  0001 C CNN "SPN"
F 8 "-" H -700 -350 50  0001 C CNN "SPURL"
F 9 "C17414" H 4600 3350 50  0001 C CNN "LCSC"
	1    4600 3350
	1    0    0    -1  
$EndComp
$Comp
L Device:R_Small R6
U 1 1 5E728D2F
P 6400 4350
F 0 "R6" H 6470 4396 50  0000 L CNN
F 1 "10k" H 6470 4305 50  0000 L CNN
F 2 "Resistor_SMD:R_0805_2012Metric" V 6330 4350 50  0001 C CNN
F 3 "~" H 6400 4350 50  0001 C CNN
F 4 "Uniroyal Elec" H -800 -500 50  0001 C CNN "MFR"
F 5 "0805W8F1002T5E" H -800 -500 50  0001 C CNN "MPN"
F 6 "Mouser" H -800 -500 50  0001 C CNN "SPR"
F 7 "660-RK73H2ATTD1002F" H -800 -500 50  0001 C CNN "SPN"
F 8 "-" H -800 -500 50  0001 C CNN "SPURL"
F 9 "C17414" H 6400 4350 50  0001 C CNN "LCSC"
	1    6400 4350
	1    0    0    -1  
$EndComp
$Comp
L power:GND #PWR024
U 1 1 5E72D3E4
P 6400 4450
F 0 "#PWR024" H 6400 4200 50  0001 C CNN
F 1 "GND" H 6405 4277 50  0000 C CNN
F 2 "" H 6400 4450 50  0001 C CNN
F 3 "" H 6400 4450 50  0001 C CNN
	1    6400 4450
	1    0    0    -1  
$EndComp
$Comp
L power:+3V3 #PWR020
U 1 1 5E794866
P 4600 3200
F 0 "#PWR020" H 4600 3050 50  0001 C CNN
F 1 "+3V3" H 4615 3373 50  0000 C CNN
F 2 "" H 4600 3200 50  0001 C CNN
F 3 "" H 4600 3200 50  0001 C CNN
	1    4600 3200
	1    0    0    -1  
$EndComp
$Comp
L power:GND #PWR025
U 1 1 5E7BBC81
P 5700 4700
F 0 "#PWR025" H 5700 4450 50  0001 C CNN
F 1 "GND" H 5705 4527 50  0000 C CNN
F 2 "" H 5700 4700 50  0001 C CNN
F 3 "" H 5700 4700 50  0001 C CNN
	1    5700 4700
	1    0    0    -1  
$EndComp
$Comp
L Device:R_Small R8
U 1 1 5E8DDC00
P 6550 5350
F 0 "R8" H 6620 5396 50  0000 L CNN
F 1 "10k" H 6620 5305 50  0000 L CNN
F 2 "Resistor_SMD:R_0805_2012Metric" V 6480 5350 50  0001 C CNN
F 3 "~" H 6550 5350 50  0001 C CNN
F 4 "Uniroyal Elec" H -1750 1250 50  0001 C CNN "MFR"
F 5 "0805W8F1002T5E" H -1750 1250 50  0001 C CNN "MPN"
F 6 "Mouser" H -1750 1250 50  0001 C CNN "SPR"
F 7 "660-RK73H2ATTD1002F" H -1750 1250 50  0001 C CNN "SPN"
F 8 "-" H -1750 1250 50  0001 C CNN "SPURL"
F 9 "C17414" H 6550 5350 50  0001 C CNN "LCSC"
	1    6550 5350
	1    0    0    -1  
$EndComp
$Comp
L power:+3V3 #PWR027
U 1 1 5E8DDC0A
P 6550 5200
F 0 "#PWR027" H 6550 5050 50  0001 C CNN
F 1 "+3V3" H 6565 5373 50  0000 C CNN
F 2 "" H 6550 5200 50  0001 C CNN
F 3 "" H 6550 5200 50  0001 C CNN
	1    6550 5200
	1    0    0    -1  
$EndComp
$Comp
L Switch:SW_Push_Dual SW_RELOAD1
U 1 1 5E92CA46
P 7050 5500
F 0 "SW_RELOAD1" H 7050 5785 50  0000 C CNN
F 1 "SW_Push_Dual" H 7050 5694 50  0000 C CNN
F 2 "thesis_components:PTS647_Switch" H 7050 5700 50  0001 C CNN
F 3 "https://dznh3ojzb2azq.cloudfront.net/products/Tactile/PTS647/documents/datasheet.pdf" H 7050 5700 50  0001 C CNN
F 4 "C&K" H -1850 1200 50  0001 C CNN "MFR"
F 5 "PTS647SN50SMTR2LFS" H -1850 1200 50  0001 C CNN "MPN"
F 6 "Mouser" H -1850 1200 50  0001 C CNN "SPR"
F 7 "611-PTS647SN50SMTR2L" H -1850 1200 50  0001 C CNN "SPN"
F 8 "-" H -1850 1200 50  0001 C CNN "SPURL"
	1    7050 5500
	1    0    0    -1  
$EndComp
$Comp
L Connector:Conn_Coaxial J2
U 1 1 5EA1C977
P 7850 1450
F 0 "J2" H 7950 1425 50  0000 L CNN
F 1 "Conn_Coaxial" H 7950 1334 50  0000 L CNN
F 2 "Connector_Coaxial:U.FL_Hirose_U.FL-R-SMT-1_Vertical" H 7850 1450 50  0001 C CNN
F 3 " ~" H 7850 1450 50  0001 C CNN
F 4 "Hirose Connector" H -2850 -750 50  0001 C CNN "MFR"
F 5 "U.FL-R-SMT-1(10)" H -2850 -750 50  0001 C CNN "MPN"
F 6 "Mouser" H -2850 -750 50  0001 C CNN "SPR"
F 7 "798-U.FL-R-SMT-110" H -2850 -750 50  0001 C CNN "SPN"
F 8 "-" H -2850 -750 50  0001 C CNN "SPURL"
	1    7850 1450
	1    0    0    -1  
$EndComp
Wire Wire Line
	7550 1450 7650 1450
Wire Wire Line
	7850 1650 7850 1700
Wire Wire Line
	6550 1450 6400 1450
Wire Wire Line
	6550 1550 6400 1550
Wire Wire Line
	6550 1650 6400 1650
Wire Wire Line
	6550 1750 6400 1750
Wire Wire Line
	7550 2150 7600 2150
Wire Wire Line
	6950 2350 6950 2450
Wire Wire Line
	6950 2450 7050 2450
Wire Wire Line
	7150 2450 7150 2350
Wire Wire Line
	7050 2350 7050 2450
Wire Wire Line
	7050 2450 7150 2450
Wire Wire Line
	7050 2500 7050 2450
Wire Wire Line
	5950 1800 5950 1950
Wire Wire Line
	5950 1950 6000 1950
Wire Wire Line
	6200 1950 6550 1950
Wire Wire Line
	3850 1250 4150 1250
Wire Wire Line
	3850 1150 4150 1150
Wire Wire Line
	4150 1250 4150 1150
Wire Wire Line
	4150 1150 4450 1150
Wire Wire Line
	4450 1250 4450 1150
Wire Wire Line
	2850 1150 2700 1150
Wire Wire Line
	2200 1150 2200 950 
Wire Wire Line
	4850 1150 4850 1050
Wire Wire Line
	3350 1800 3350 1750
Wire Wire Line
	3350 1750 3250 1750
Wire Wire Line
	3250 1750 3250 1700
Wire Wire Line
	3350 1750 3350 1700
Wire Wire Line
	3350 1750 3450 1750
Wire Wire Line
	3450 1750 3450 1700
Wire Wire Line
	2700 1500 2700 1150
Wire Wire Line
	2700 1150 2400 1150
Wire Wire Line
	2700 1500 2850 1500
Wire Wire Line
	2400 1150 2200 1150
Wire Wire Line
	6300 4100 6500 4100
Wire Wire Line
	6300 4200 6400 4200
Wire Wire Line
	6300 4000 6500 4000
Wire Wire Line
	6300 3900 6500 3900
Wire Wire Line
	5100 3500 4600 3500
Wire Wire Line
	4600 3500 4600 3450
Wire Wire Line
	6400 4250 6400 4200
Wire Wire Line
	6400 4200 6500 4200
Wire Wire Line
	6300 3800 6500 3800
Wire Wire Line
	4600 3200 4600 3250
Wire Wire Line
	5700 4700 5700 4600
Wire Wire Line
	6300 3300 6500 3300
Wire Wire Line
	6300 3700 6500 3700
Wire Wire Line
	6350 5500 6550 5500
Wire Wire Line
	6550 5450 6550 5500
Wire Wire Line
	6550 5250 6550 5200
Wire Wire Line
	6800 5500 6800 5700
Wire Wire Line
	6800 5700 6850 5700
Wire Wire Line
	6550 5500 6800 5500
Wire Wire Line
	750  1750 750  1950
Connection ~ 7050 2450
Connection ~ 4150 1150
Connection ~ 3350 1750
Connection ~ 2700 1150
Connection ~ 2400 1150
Connection ~ 6400 4200
Connection ~ 6550 5500
NoConn ~ 7550 1650
NoConn ~ 7550 1750
NoConn ~ 7550 1850
NoConn ~ 7550 1950
NoConn ~ 7550 2050
NoConn ~ 1050 1550
NoConn ~ 6300 3500
NoConn ~ 5100 3700
NoConn ~ 5100 3900
NoConn ~ 5100 4000
NoConn ~ 5100 4100
NoConn ~ 5100 4200
NoConn ~ 5100 4300
NoConn ~ 5100 4400
NoConn ~ 6300 4300
NoConn ~ 650  1750
Wire Wire Line
	2400 1150 2400 1250
Wire Wire Line
	2400 1450 2400 1600
Connection ~ 4150 1250
Wire Wire Line
	3850 1500 4150 1500
Wire Wire Line
	4150 1500 4150 1450
Wire Wire Line
	4450 1450 4450 1800
Wire Wire Line
	7050 1250 7050 1200
$Comp
L power:+3V3 #PWR02
U 1 1 5EFD491A
P 5950 1000
F 0 "#PWR02" H 5950 850 50  0001 C CNN
F 1 "+3V3" H 5965 1173 50  0000 C CNN
F 2 "" H 5950 1000 50  0001 C CNN
F 3 "" H 5950 1000 50  0001 C CNN
	1    5950 1000
	1    0    0    -1  
$EndComp
Wire Wire Line
	5950 1000 5950 1050
Wire Wire Line
	5950 1250 5950 1350
$Comp
L Device:Fuse_Small F1
U 1 1 5F004775
P 1350 1150
F 0 "F1" H 1350 1335 50  0000 C CNN
F 1 "375mA" H 1350 1244 50  0000 C CNN
F 2 "Fuse:Fuse_1206_3216Metric" H 1350 1150 50  0001 C CNN
F 3 "~" H 1350 1150 50  0001 C CNN
	1    1350 1150
	1    0    0    -1  
$EndComp
$Comp
L Device:Ferrite_Bead_Small FB1
U 1 1 5F0052E8
P 1850 1150
F 0 "FB1" V 1613 1150 50  0000 C CNN
F 1 "100 @ 100 MHz" V 1704 1150 50  0000 C CNN
F 2 "Inductor_SMD:L_0805_2012Metric" V 1780 1150 50  0001 C CNN
F 3 "~" H 1850 1150 50  0001 C CNN
F 4 "C1015" H 1850 1150 50  0001 C CNN "LCSC"
F 5 "Sunlord" H 1850 1150 50  0001 C CNN "MFR"
F 6 "GZ2012D101TF" H 1850 1150 50  0001 C CNN "MPN"
	1    1850 1150
	0    1    1    0   
$EndComp
Wire Wire Line
	1050 1150 1250 1150
Wire Wire Line
	1450 1150 1750 1150
Wire Wire Line
	1950 1150 2200 1150
Connection ~ 2200 1150
Connection ~ 4450 1150
Wire Wire Line
	4450 1150 4850 1150
$Comp
L Device:R_Small R1
U 1 1 5F024E55
P 4850 1350
F 0 "R1" H 4909 1396 50  0000 L CNN
F 1 "1k" H 4909 1305 50  0000 L CNN
F 2 "Resistor_SMD:R_0805_2012Metric" H 4850 1350 50  0001 C CNN
F 3 "~" H 4850 1350 50  0001 C CNN
F 4 "C17414" H 4850 1350 50  0001 C CNN "LCSC"
F 5 "Uniroyal Elec" H 4850 1350 50  0001 C CNN "MFR"
F 6 "0805W8F1002T5E" H 4850 1350 50  0001 C CNN "MPN"
	1    4850 1350
	1    0    0    -1  
$EndComp
Wire Wire Line
	4850 1250 4850 1150
Connection ~ 4850 1150
$Comp
L power:GND #PWR012
U 1 1 5F02FA12
P 4850 1850
F 0 "#PWR012" H 4850 1600 50  0001 C CNN
F 1 "GND" H 4855 1677 50  0000 C CNN
F 2 "" H 4850 1850 50  0001 C CNN
F 3 "" H 4850 1850 50  0001 C CNN
	1    4850 1850
	1    0    0    -1  
$EndComp
$Comp
L Device:LED_Small D1
U 1 1 5F033F5F
P 4850 1650
F 0 "D1" V 4896 1580 50  0000 R CNN
F 1 "3V3" V 4805 1580 50  0000 R CNN
F 2 "LED_SMD:LED_0805_2012Metric" V 4850 1650 50  0001 C CNN
F 3 "~" V 4850 1650 50  0001 C CNN
F 4 "C2296" H 4850 1650 50  0001 C CNN "LCSC"
F 5 "Hubei KENTO Elec" H 4850 1650 50  0001 C CNN "MFR"
F 6 "17-21SUYC/TR8" H 4850 1650 50  0001 C CNN "MPN"
	1    4850 1650
	0    -1   -1   0   
$EndComp
Wire Wire Line
	4850 1550 4850 1450
Wire Wire Line
	4850 1750 4850 1850
Wire Wire Line
	1050 1350 1450 1350
Text GLabel 1450 1350 2    50   Input ~ 0
D+
Text GLabel 1450 1450 2    50   Input ~ 0
D-
$Comp
L power:PWR_FLAG #FLG01
U 1 1 5F05DB7C
P 2050 1950
F 0 "#FLG01" H 2050 2025 50  0001 C CNN
F 1 "PWR_FLAG" H 2050 2123 50  0000 C CNN
F 2 "" H 2050 1950 50  0001 C CNN
F 3 "~" H 2050 1950 50  0001 C CNN
	1    2050 1950
	-1   0    0    1   
$EndComp
$Comp
L power:+5V #PWR07
U 1 1 5F05E874
P 2050 1650
F 0 "#PWR07" H 2050 1500 50  0001 C CNN
F 1 "+5V" H 2065 1823 50  0000 C CNN
F 2 "" H 2050 1650 50  0001 C CNN
F 3 "" H 2050 1650 50  0001 C CNN
	1    2050 1650
	1    0    0    -1  
$EndComp
Wire Wire Line
	2050 1650 2050 1950
Text GLabel 6500 3600 2    50   Input ~ 0
TX
Text GLabel 6500 3400 2    50   Input ~ 0
RX
Wire Wire Line
	6500 3400 6300 3400
Wire Wire Line
	6300 3600 6500 3600
Text GLabel 3050 3000 2    50   Input ~ 0
TX
Text GLabel 3050 3100 2    50   Input ~ 0
RX
$Comp
L power:+5V #PWR015
U 1 1 5F08AC08
P 2250 2550
F 0 "#PWR015" H 2250 2400 50  0001 C CNN
F 1 "+5V" H 2265 2723 50  0000 C CNN
F 2 "" H 2250 2550 50  0001 C CNN
F 3 "" H 2250 2550 50  0001 C CNN
	1    2250 2550
	1    0    0    -1  
$EndComp
$Comp
L Device:R_Small R5
U 1 1 5F0B4E9C
P 3550 3900
F 0 "R5" V 3354 3900 50  0000 C CNN
F 1 "1k" V 3445 3900 50  0000 C CNN
F 2 "Resistor_SMD:R_0805_2012Metric" H 3550 3900 50  0001 C CNN
F 3 "~" H 3550 3900 50  0001 C CNN
F 4 "C17414" H 3550 3900 50  0001 C CNN "LCSC"
F 5 "Uniroyal Elec" H 3550 3900 50  0001 C CNN "MFR"
F 6 "0805W8F1002T5E" H 3550 3900 50  0001 C CNN "MPN"
	1    3550 3900
	-1   0    0    1   
$EndComp
$Comp
L power:GND #PWR026
U 1 1 5F0F90F8
P 1950 4900
F 0 "#PWR026" H 1950 4650 50  0001 C CNN
F 1 "GND" H 1955 4727 50  0000 C CNN
F 2 "" H 1950 4900 50  0001 C CNN
F 3 "" H 1950 4900 50  0001 C CNN
	1    1950 4900
	1    0    0    -1  
$EndComp
$Comp
L Device:LED_Small D3
U 1 1 5F1228B2
P 3550 3650
F 0 "D3" V 3596 3580 50  0000 R CNN
F 1 "TX" V 3505 3580 50  0000 R CNN
F 2 "LED_SMD:LED_0805_2012Metric" V 3550 3650 50  0001 C CNN
F 3 "~" V 3550 3650 50  0001 C CNN
F 4 "C2293" H 3550 3650 50  0001 C CNN "LCSC"
F 5 "Hubei KENTO Elec" H 3550 3650 50  0001 C CNN "MFR"
	1    3550 3650
	0    -1   -1   0   
$EndComp
$Comp
L Device:LED_Small D2
U 1 1 5F12B313
P 3300 3650
F 0 "D2" V 3346 3580 50  0000 R CNN
F 1 "RX" V 3255 3580 50  0000 R CNN
F 2 "LED_SMD:LED_0805_2012Metric" V 3300 3650 50  0001 C CNN
F 3 "~" V 3300 3650 50  0001 C CNN
F 4 "C2297" H 3300 3650 50  0001 C CNN "LCSC"
F 5 "Hubei KENTO Elec" H 3300 3650 50  0001 C CNN "MFR"
	1    3300 3650
	0    -1   -1   0   
$EndComp
$Comp
L power:+5V #PWR022
U 1 1 5F1681A7
P 1350 3700
F 0 "#PWR022" H 1350 3550 50  0001 C CNN
F 1 "+5V" H 1365 3873 50  0000 C CNN
F 2 "" H 1350 3700 50  0001 C CNN
F 3 "" H 1350 3700 50  0001 C CNN
	1    1350 3700
	1    0    0    -1  
$EndComp
Text GLabel 1250 3400 0    50   Input ~ 0
D-
Text GLabel 1250 3300 0    50   Input ~ 0
D+
Text GLabel 3050 3200 2    50   Input ~ 0
RTS
Text GLabel 3050 3400 2    50   Input ~ 0
DTR
$Comp
L Transistor_BJT:S8050 Q1
U 1 1 5F1A0110
P 5150 5300
F 0 "Q1" H 5340 5346 50  0000 L CNN
F 1 "S8050" H 5340 5255 50  0000 L CNN
F 2 "Package_TO_SOT_SMD:SOT-23" H 5350 5225 50  0001 L CIN
F 3 "http://www.unisonic.com.tw/datasheet/S8050.pdf" H 5150 5300 50  0001 L CNN
F 4 "C2146" H 5150 5300 50  0001 C CNN "LCSC"
F 5 "Changjiang Electronics Tech (CJ)" H 5150 5300 50  0001 C CNN "MFR"
F 6 "S8050" H 5150 5300 50  0001 C CNN "MPN"
	1    5150 5300
	1    0    0    -1  
$EndComp
$Comp
L Transistor_BJT:S8050 Q2
U 1 1 5F1A1790
P 5150 6000
F 0 "Q2" H 5340 5954 50  0000 L CNN
F 1 "S8050" H 5340 6045 50  0000 L CNN
F 2 "Package_TO_SOT_SMD:SOT-23" H 5350 5925 50  0001 L CIN
F 3 "http://www.unisonic.com.tw/datasheet/S8050.pdf" H 5150 6000 50  0001 L CNN
F 4 "C2146" H 5150 6000 50  0001 C CNN "LCSC"
F 5 "Changjiang Electronics Tech (CJ)" H 5150 6000 50  0001 C CNN "MFR"
F 6 "S8050" H 5150 6000 50  0001 C CNN "MPN"
	1    5150 6000
	1    0    0    1   
$EndComp
$Comp
L Device:R_Small R7
U 1 1 5F1A3930
P 4800 5300
F 0 "R7" V 4604 5300 50  0000 C CNN
F 1 "12k" V 4695 5300 50  0000 C CNN
F 2 "Resistor_SMD:R_0805_2012Metric" H 4800 5300 50  0001 C CNN
F 3 "~" H 4800 5300 50  0001 C CNN
F 4 "C17444" H 4800 5300 50  0001 C CNN "LCSC"
F 5 "Uniroyal Elec" H 4800 5300 50  0001 C CNN "MFR"
F 6 "0805W8F1202T5E" H 4800 5300 50  0001 C CNN "MPN"
	1    4800 5300
	0    1    1    0   
$EndComp
$Comp
L Device:R_Small R9
U 1 1 5F1A3FA7
P 4800 6000
F 0 "R9" V 4604 6000 50  0000 C CNN
F 1 "12k" V 4695 6000 50  0000 C CNN
F 2 "Resistor_SMD:R_0805_2012Metric" H 4800 6000 50  0001 C CNN
F 3 "~" H 4800 6000 50  0001 C CNN
F 4 "C17444" H 4800 6000 50  0001 C CNN "LCSC"
F 5 "Uniroyal Elec" H 4800 6000 50  0001 C CNN "MFR"
F 6 "0805W8F1202T5E" H 4800 6000 50  0001 C CNN "MPN"
	1    4800 6000
	0    1    1    0   
$EndComp
Wire Wire Line
	4900 6000 4950 6000
Wire Wire Line
	4900 5300 4950 5300
Wire Wire Line
	4700 5300 4650 5300
Wire Wire Line
	4650 5300 4650 5750
Wire Wire Line
	4650 5750 5250 5750
Wire Wire Line
	5250 5750 5250 5800
Wire Wire Line
	5250 5500 5250 5550
Wire Wire Line
	5250 5550 4600 5550
Wire Wire Line
	4600 5550 4600 6000
Wire Wire Line
	4600 6000 4700 6000
Text GLabel 4400 5300 0    50   Input ~ 0
DTR
Connection ~ 4650 5300
Wire Wire Line
	4400 5300 4650 5300
Text GLabel 4400 6000 0    50   Input ~ 0
RTS
Wire Wire Line
	4400 6000 4600 6000
Connection ~ 4600 6000
Wire Wire Line
	5250 5100 5250 5050
Wire Wire Line
	5250 5050 5750 5050
Text GLabel 5750 5050 2    50   Input ~ 0
RST
$Comp
L Device:R_Small R10
U 1 1 5F244C63
P 5650 6000
F 0 "R10" H 5709 6046 50  0000 L CNN
F 1 "10k" H 5709 5955 50  0000 L CNN
F 2 "Resistor_SMD:R_0805_2012Metric" H 5650 6000 50  0001 C CNN
F 3 "~" H 5650 6000 50  0001 C CNN
F 4 "C17414" H 5650 6000 50  0001 C CNN "LCSC"
F 5 "Uniroyal Elec" H 5650 6000 50  0001 C CNN "MFR"
F 6 "0805W8F1002T5E" H 5650 6000 50  0001 C CNN "MPN"
	1    5650 6000
	1    0    0    -1  
$EndComp
Text GLabel 5750 6250 2    50   Input ~ 0
PROG
Wire Wire Line
	5750 6250 5650 6250
Wire Wire Line
	5250 6250 5250 6200
Wire Wire Line
	5650 6100 5650 6250
Connection ~ 5650 6250
Wire Wire Line
	5650 6250 5250 6250
$Comp
L power:+3V3 #PWR028
U 1 1 5F25AF5C
P 5650 5800
F 0 "#PWR028" H 5650 5650 50  0001 C CNN
F 1 "+3V3" H 5665 5973 50  0000 C CNN
F 2 "" H 5650 5800 50  0001 C CNN
F 3 "" H 5650 5800 50  0001 C CNN
	1    5650 5800
	1    0    0    -1  
$EndComp
Wire Wire Line
	5650 5800 5650 5900
Wire Wire Line
	7250 5500 7350 5500
NoConn ~ 6850 5500
NoConn ~ 7250 5700
Text GLabel 5050 3300 0    50   Input ~ 0
RST
Wire Wire Line
	5050 3300 5100 3300
Text GLabel 6500 3300 2    50   Input ~ 0
PROG
Text GLabel 6500 3700 2    50   Input ~ 0
RELOAD
Text GLabel 6350 5500 0    50   Input ~ 0
RELOAD
$Comp
L power:GND #PWR029
U 1 1 5F2D0D49
P 7350 5800
F 0 "#PWR029" H 7350 5550 50  0001 C CNN
F 1 "GND" H 7355 5627 50  0000 C CNN
F 2 "" H 7350 5800 50  0001 C CNN
F 3 "" H 7350 5800 50  0001 C CNN
	1    7350 5800
	1    0    0    -1  
$EndComp
Wire Wire Line
	7350 5500 7350 5800
Text GLabel 6500 3800 2    50   Input ~ 0
INT0
Text GLabel 7600 2150 2    50   Input ~ 0
INT0
Text GLabel 6400 1450 0    50   Input ~ 0
SCK
Text GLabel 6400 1550 0    50   Input ~ 0
MOSI
Text GLabel 6400 1650 0    50   Input ~ 0
MISO
Text GLabel 6400 1750 0    50   Input ~ 0
NSS
Text GLabel 6500 3900 2    50   Input ~ 0
MISO
Text GLabel 6500 4000 2    50   Input ~ 0
MOSI
Text GLabel 6500 4100 2    50   Input ~ 0
SCK
Text GLabel 6500 4200 2    50   Input ~ 0
NSS
Wire Wire Line
	5700 3050 5700 3100
$Comp
L power:+3V3 #PWR016
U 1 1 5F35BEA4
P 5050 2700
F 0 "#PWR016" H 5050 2550 50  0001 C CNN
F 1 "+3V3" H 5065 2873 50  0000 C CNN
F 2 "" H 5050 2700 50  0001 C CNN
F 3 "" H 5050 2700 50  0001 C CNN
	1    5050 2700
	1    0    0    -1  
$EndComp
Wire Wire Line
	5050 2700 5050 2750
Wire Wire Line
	5050 2950 5050 3000
$Comp
L power:GND #PWR023
U 1 1 5F430148
P 650 3950
F 0 "#PWR023" H 650 3700 50  0001 C CNN
F 1 "GND" H 655 3777 50  0000 C CNN
F 2 "" H 650 3950 50  0001 C CNN
F 3 "" H 650 3950 50  0001 C CNN
	1    650  3950
	1    0    0    -1  
$EndComp
Wire Wire Line
	650  3600 650  3650
Wire Wire Line
	650  3850 650  3950
$Comp
L power:+5V #PWR021
U 1 1 5F43D855
P 650 3600
F 0 "#PWR021" H 650 3450 50  0001 C CNN
F 1 "+5V" H 665 3773 50  0000 C CNN
F 2 "" H 650 3600 50  0001 C CNN
F 3 "" H 650 3600 50  0001 C CNN
	1    650  3600
	1    0    0    -1  
$EndComp
$Comp
L Device:C_Small C7
U 1 1 5F430142
P 650 3750
F 0 "C7" H 535 3704 50  0000 R CNN
F 1 "100n" H 535 3795 50  0000 R CNN
F 2 "Capacitor_SMD:C_0603_1608Metric" H 688 3600 50  0001 C CNN
F 3 "~" H 650 3750 50  0001 C CNN
F 4 "YAGEO" H -9300 2100 50  0001 C CNN "MFR"
F 5 "CC0603KRX7R9BB104" H -9300 2100 50  0001 C CNN "MPN"
F 6 "Mouser" H -9300 2100 50  0001 C CNN "SPR"
F 7 "80-C0805C104J4R " H -9300 2100 50  0001 C CNN "SPN"
F 8 "-" H -9300 2100 50  0001 C CNN "SPURL"
F 9 "C14663" H 650 3750 50  0001 C CNN "LCSC"
	1    650  3750
	-1   0    0    1   
$EndComp
Wire Wire Line
	1050 3650 1050 3600
Wire Wire Line
	1050 3600 650  3600
Connection ~ 650  3600
Wire Wire Line
	1050 3850 1050 3950
Wire Wire Line
	1050 3950 650  3950
Connection ~ 650  3950
$Comp
L Interface_USB:FT232RL U3
U 1 1 5F4FB70B
P 2150 3700
F 0 "U3" H 1550 4600 50  0000 C CNN
F 1 "FT232RL" H 2650 2800 50  0000 C CNN
F 2 "Package_SO:SSOP-28_5.3x10.2mm_P0.65mm" H 3250 2800 50  0001 C CNN
F 3 "https://www.ftdichip.com/Support/Documents/DataSheets/ICs/DS_FT232R.pdf" H 2150 3700 50  0001 C CNN
F 4 "C8690" H 2150 3700 50  0001 C CNN "LCSC"
F 5 "Future Designs" H 2150 3700 50  0001 C CNN "MFR"
F 6 "FT232RL-REEL" H 2150 3700 50  0001 C CNN "MPN"
	1    2150 3700
	1    0    0    -1  
$EndComp
Wire Wire Line
	1050 1450 1450 1450
$Comp
L Device:C_Small C6
U 1 1 5F46D62F
P 1100 3000
F 0 "C6" V 900 3050 50  0000 R CNN
F 1 "100n" V 1000 3100 50  0000 R CNN
F 2 "Capacitor_SMD:C_0603_1608Metric" H 1138 2850 50  0001 C CNN
F 3 "~" H 1100 3000 50  0001 C CNN
F 4 "YAGEO" H -8850 1350 50  0001 C CNN "MFR"
F 5 "CC0603KRX7R9BB104" H -8850 1350 50  0001 C CNN "MPN"
F 6 "Mouser" H -8850 1350 50  0001 C CNN "SPR"
F 7 "80-C0805C104J4R " H -8850 1350 50  0001 C CNN "SPN"
F 8 "-" H -8850 1350 50  0001 C CNN "SPURL"
F 9 "C14663" H 1100 3000 50  0001 C CNN "LCSC"
	1    1100 3000
	0    1    1    0   
$EndComp
Wire Wire Line
	3050 3400 2950 3400
Wire Wire Line
	2950 3200 3050 3200
Wire Wire Line
	3050 3100 2950 3100
Wire Wire Line
	3050 3000 2950 3000
$Comp
L Device:CP_Small C8
U 1 1 5F52FE2D
P 1050 3750
F 0 "C8" H 1168 3796 50  0000 L CNN
F 1 "4.7u" H 1168 3705 50  0000 L CNN
F 2 "Capacitor_Tantalum_SMD:CP_EIA-3216-18_Kemet-A" H 1088 3600 50  0001 C CNN
F 3 "~" H 1050 3750 50  0001 C CNN
F 4 "Hunan Xiangyee in S&T" H -3100 -1400 50  0001 C CNN "MFR"
F 5 "CA45-A025K475T" H -3100 -1400 50  0001 C CNN "MPN"
F 6 "Mouser" H -3100 -1400 50  0001 C CNN "SPR"
F 7 "667-EEE-HBE100UAR" H -3100 -1400 50  0001 C CNN "SPN"
F 8 "-" H -3100 -1400 50  0001 C CNN "SPURL"
F 9 "C161817" H 1050 3750 50  0001 C CNN "LCSC"
	1    1050 3750
	1    0    0    -1  
$EndComp
Wire Wire Line
	1250 3300 1350 3300
Wire Wire Line
	1350 3400 1250 3400
Wire Wire Line
	2050 2700 2050 2650
Wire Wire Line
	2050 2650 1250 2650
Wire Wire Line
	1250 2650 1250 3000
Wire Wire Line
	1250 3000 1350 3000
Wire Wire Line
	1250 3000 1200 3000
Connection ~ 1250 3000
Wire Wire Line
	3300 3550 3300 3500
Wire Wire Line
	3300 3500 3450 3500
Wire Wire Line
	3550 3500 3550 3550
Wire Wire Line
	1950 4900 1950 4800
Wire Wire Line
	1950 4800 2150 4800
Wire Wire Line
	2350 4800 2350 4700
Connection ~ 1950 4800
Wire Wire Line
	1950 4800 1950 4700
Wire Wire Line
	2250 4700 2250 4800
Connection ~ 2250 4800
Wire Wire Line
	2250 4800 2350 4800
Wire Wire Line
	2150 4700 2150 4800
Connection ~ 2150 4800
Wire Wire Line
	2150 4800 2250 4800
Wire Wire Line
	1350 4400 1300 4400
Wire Wire Line
	1300 4400 1300 4800
Wire Wire Line
	1300 4800 1950 4800
$Comp
L power:GND #PWR019
U 1 1 5F59A300
P 900 3100
F 0 "#PWR019" H 900 2850 50  0001 C CNN
F 1 "GND" H 905 2927 50  0000 C CNN
F 2 "" H 900 3100 50  0001 C CNN
F 3 "" H 900 3100 50  0001 C CNN
	1    900  3100
	1    0    0    -1  
$EndComp
Wire Wire Line
	900  3100 900  3000
Wire Wire Line
	900  3000 1000 3000
Wire Wire Line
	2250 2550 2250 2700
Wire Wire Line
	2950 4000 3300 4000
Wire Wire Line
	2950 4100 3550 4100
Wire Wire Line
	3550 4100 3550 4000
Wire Wire Line
	3300 3800 3300 3750
Wire Wire Line
	3550 3750 3550 3800
Text GLabel 1250 2600 1    50   Input ~ 0
VCCIO
Text GLabel 3450 3450 1    50   Input ~ 0
VCCIO
Wire Wire Line
	3450 3450 3450 3500
Connection ~ 3450 3500
Wire Wire Line
	3450 3500 3550 3500
Wire Wire Line
	1250 2600 1250 2650
Connection ~ 1250 2650
NoConn ~ 2950 3300
NoConn ~ 2950 3500
NoConn ~ 2950 3600
NoConn ~ 2950 3700
NoConn ~ 2950 4200
NoConn ~ 2950 4300
NoConn ~ 2950 4400
NoConn ~ 1350 3900
NoConn ~ 1350 4100
$Comp
L Device:R_Small R4
U 1 1 5F0B4083
P 3300 3900
F 0 "R4" V 3104 3900 50  0000 C CNN
F 1 "1k" V 3195 3900 50  0000 C CNN
F 2 "Resistor_SMD:R_0805_2012Metric" H 3300 3900 50  0001 C CNN
F 3 "~" H 3300 3900 50  0001 C CNN
F 4 "C17414" H 3300 3900 50  0001 C CNN "LCSC"
F 5 "Uniroyal Elec" H 3300 3900 50  0001 C CNN "MFR"
F 6 "0805W8F1002T5E" H 3300 3900 50  0001 C CNN "MPN"
	1    3300 3900
	1    0    0    -1  
$EndComp
$EndSCHEMATC
