EESchema Schematic File Version 4
EELAYER 30 0
EELAYER END
$Descr A4 11693 8268
encoding utf-8
Sheet 1 1
Title "XBee Transciever"
Date "2020-08-04"
Rev "2"
Comp ""
Comment1 ""
Comment2 ""
Comment3 ""
Comment4 ""
$EndDescr
$Comp
L power:+3V3 #PWR015
U 1 1 5E78DFA7
P 6400 2800
F 0 "#PWR015" H 6400 2650 50  0001 C CNN
F 1 "+3V3" H 6415 2973 50  0000 C CNN
F 2 "" H 6400 2800 50  0001 C CNN
F 3 "" H 6400 2800 50  0001 C CNN
	1    6400 2800
	1    0    0    -1  
$EndComp
$Comp
L power:GND #PWR016
U 1 1 5E852723
P 6400 5550
F 0 "#PWR016" H 6400 5300 50  0001 C CNN
F 1 "GND" H 6405 5377 50  0000 C CNN
F 2 "" H 6400 5550 50  0001 C CNN
F 3 "" H 6400 5550 50  0001 C CNN
	1    6400 5550
	1    0    0    -1  
$EndComp
$Comp
L power:+3V3 #PWR013
U 1 1 5EB4436C
P 6000 1250
F 0 "#PWR013" H 6000 1100 50  0001 C CNN
F 1 "+3V3" H 6015 1423 50  0000 C CNN
F 2 "" H 6000 1250 50  0001 C CNN
F 3 "" H 6000 1250 50  0001 C CNN
	1    6000 1250
	1    0    0    -1  
$EndComp
$Comp
L power:+5V #PWR09
U 1 1 5EB4A7AB
P 3400 1150
F 0 "#PWR09" H 3400 1000 50  0001 C CNN
F 1 "+5V" H 3415 1323 50  0000 C CNN
F 2 "" H 3400 1150 50  0001 C CNN
F 3 "" H 3400 1150 50  0001 C CNN
	1    3400 1150
	1    0    0    -1  
$EndComp
$Comp
L power:GND #PWR011
U 1 1 5EB5B5A2
P 4550 2000
F 0 "#PWR011" H 4550 1750 50  0001 C CNN
F 1 "GND" H 4555 1827 50  0000 C CNN
F 2 "" H 4550 2000 50  0001 C CNN
F 3 "" H 4550 2000 50  0001 C CNN
	1    4550 2000
	1    0    0    -1  
$EndComp
$Comp
L power:GND #PWR012
U 1 1 5EB5C22D
P 5650 1900
F 0 "#PWR012" H 5650 1650 50  0001 C CNN
F 1 "GND" H 5655 1727 50  0000 C CNN
F 2 "" H 5650 1900 50  0001 C CNN
F 3 "" H 5650 1900 50  0001 C CNN
	1    5650 1900
	1    0    0    -1  
$EndComp
$Comp
L power:GND #PWR010
U 1 1 5EBA1E73
P 3600 1800
F 0 "#PWR010" H 3600 1550 50  0001 C CNN
F 1 "GND" H 3605 1627 50  0000 C CNN
F 2 "" H 3600 1800 50  0001 C CNN
F 3 "" H 3600 1800 50  0001 C CNN
	1    3600 1800
	1    0    0    -1  
$EndComp
$Comp
L Connector:USB_B_Micro J1
U 1 1 5EBF41B8
P 1250 1550
F 0 "J1" H 1307 2017 50  0000 C CNN
F 1 "USB_B_Micro" H 1307 1926 50  0000 C CNN
F 2 "Connector_USB:USB_Micro-B_Molex-105017-0001" H 1400 1500 50  0001 C CNN
F 3 "~" H 1400 1500 50  0001 C CNN
F 4 "Molex" H 150 500 50  0001 C CNN "MFR"
F 5 "105017-0001" H 150 500 50  0001 C CNN "MPN"
F 6 "Mouser" H 150 500 50  0001 C CNN "SPR"
F 7 "538-105017-0001" H 150 500 50  0001 C CNN "SPN"
F 8 "-" H 150 500 50  0001 C CNN "SPURL"
	1    1250 1550
	1    0    0    -1  
$EndComp
$Comp
L power:GND #PWR01
U 1 1 5EC21F03
P 1250 2150
F 0 "#PWR01" H 1250 1900 50  0001 C CNN
F 1 "GND" H 1255 1977 50  0000 C CNN
F 2 "" H 1250 2150 50  0001 C CNN
F 3 "" H 1250 2150 50  0001 C CNN
	1    1250 2150
	1    0    0    -1  
$EndComp
$Comp
L thesis_components:LT1763 U2
U 1 1 5E68CC19
P 4550 1500
F 0 "U2" H 4550 1915 50  0000 C CNN
F 1 "LT1763" H 4550 1824 50  0000 C CNN
F 2 "thesis_components:LT1763" H 4550 1000 50  0001 C CNN
F 3 "http://cds.linear.com/docs/en/datasheet/1962fb.pdf" H 4550 800 50  0001 C CNN
F 4 "Linear Tech" H 1600 450 50  0001 C CNN "MFR"
F 5 "LT1763CS8-3.3#TRPBF" H 1600 450 50  0001 C CNN "MPN"
F 6 "Mouser" H 1600 450 50  0001 C CNN "SPR"
F 7 "584-LT1763CS8-3.3PBF" H 1600 450 50  0001 C CNN "SPN"
F 8 "-" H 1600 450 50  0001 C CNN "SPURL"
F 9 "C31066" H 4550 1500 50  0001 C CNN "LCSC"
	1    4550 1500
	1    0    0    -1  
$EndComp
$Comp
L thesis_components:XBee3_RF_Module U3
U 1 1 5E812D5C
P 6400 4350
F 0 "U3" H 5550 5400 50  0000 C CNN
F 1 "XB3-24Z8UM" H 7050 3350 50  0000 C CNN
F 2 "thesis_components:XB3-24Z8RM-J" H 6300 3500 50  0001 C CNN
F 3 "" H 6300 3500 50  0001 C CNN
F 4 "DIGI" H -1600 1950 50  0001 C CNN "MFR"
F 5 "XB3-24Z8RM-J" H -1600 1950 50  0001 C CNN "MPN"
F 6 "Mouser" H -1600 1950 50  0001 C CNN "SPR"
F 7 "888-XB3-24Z8RM-J" H -1600 1950 50  0001 C CNN "SPN"
F 8 "-" H -1600 1950 50  0001 C CNN "SPURL"
	1    6400 4350
	1    0    0    -1  
$EndComp
Wire Wire Line
	6400 5500 6450 5500
Wire Wire Line
	6400 5550 6400 5500
Wire Wire Line
	5050 1450 5350 1450
Wire Wire Line
	5050 1350 5350 1350
Wire Wire Line
	5350 1450 5350 1350
Wire Wire Line
	5650 1400 5650 1350
Wire Wire Line
	4050 1350 3900 1350
Wire Wire Line
	3400 1350 3400 1150
Wire Wire Line
	6000 1350 6000 1250
Wire Wire Line
	5650 1900 5650 1600
Wire Wire Line
	4550 2000 4550 1950
Wire Wire Line
	4550 1950 4450 1950
Wire Wire Line
	4450 1950 4450 1900
Wire Wire Line
	4550 1950 4550 1900
Wire Wire Line
	4550 1950 4650 1950
Wire Wire Line
	4650 1950 4650 1900
Wire Wire Line
	3900 1700 3900 1350
Wire Wire Line
	3900 1350 3600 1350
Wire Wire Line
	3900 1700 4050 1700
Wire Wire Line
	3600 1400 3600 1350
Wire Wire Line
	3600 1350 3400 1350
Wire Wire Line
	6650 5400 6650 5500
Wire Wire Line
	6550 5400 6550 5500
Wire Wire Line
	6550 5500 6650 5500
Wire Wire Line
	6450 5400 6450 5500
Wire Wire Line
	6350 5400 6350 5500
Wire Wire Line
	6350 5500 6400 5500
Wire Wire Line
	6250 5400 6250 5500
Wire Wire Line
	6150 5400 6150 5500
Wire Wire Line
	6150 5500 6250 5500
Wire Wire Line
	6250 5500 6350 5500
Wire Wire Line
	6450 5500 6550 5500
Connection ~ 6400 5500
Connection ~ 4550 1950
Connection ~ 3900 1350
Connection ~ 3600 1350
Connection ~ 6550 5500
Connection ~ 6450 5500
Connection ~ 6350 5500
Connection ~ 6250 5500
NoConn ~ 1550 1750
NoConn ~ 1150 1950
NoConn ~ 5400 3850
NoConn ~ 5400 3950
NoConn ~ 5400 4150
NoConn ~ 5400 4250
NoConn ~ 5400 4350
NoConn ~ 5400 4450
NoConn ~ 5400 4550
NoConn ~ 5400 4950
NoConn ~ 5400 5050
NoConn ~ 7400 4450
NoConn ~ 7400 4550
NoConn ~ 7400 4050
NoConn ~ 7400 3750
$Comp
L Device:Ferrite_Bead_Small FB1
U 1 1 5EFB498D
P 3050 1350
F 0 "FB1" V 3287 1350 50  0000 C CNN
F 1 "100 @ 100MHz" V 3196 1350 50  0000 C CNN
F 2 "Resistor_SMD:R_0805_2012Metric" V 2980 1350 50  0001 C CNN
F 3 "~" H 3050 1350 50  0001 C CNN
F 4 "C1015" H 3050 1350 50  0001 C CNN "LCSC"
F 5 "Sunlord" H 3050 1350 50  0001 C CNN "MFR"
F 6 "GZ2012D101TF" H 3050 1350 50  0001 C CNN "MPN"
	1    3050 1350
	0    -1   -1   0   
$EndComp
$Comp
L Device:C_Small C2
U 1 1 5EFB64FF
P 1650 3950
F 0 "C2" H 1800 4000 50  0000 C CNN
F 1 "100n" H 1800 3900 50  0000 C CNN
F 2 "Capacitor_SMD:C_0603_1608Metric" H 1650 3950 50  0001 C CNN
F 3 "~" H 1650 3950 50  0001 C CNN
F 4 "C14663" H 1650 3950 50  0001 C CNN "LCSC"
F 5 "YAGEO" H 1650 3950 50  0001 C CNN "MFR"
F 6 "CC0603KRX7R9BB104" H 1650 3950 50  0001 C CNN "MPN"
	1    1650 3950
	1    0    0    -1  
$EndComp
$Comp
L Device:C_Small C1
U 1 1 5EFB690A
P 1350 4850
F 0 "C1" H 1442 4896 50  0000 L CNN
F 1 "100n" H 1442 4805 50  0000 L CNN
F 2 "Capacitor_SMD:C_0603_1608Metric" H 1350 4850 50  0001 C CNN
F 3 "~" H 1350 4850 50  0001 C CNN
F 4 "C14663" H 1350 4850 50  0001 C CNN "LCSC"
F 5 "YAGEO" H 1350 4850 50  0001 C CNN "MFR"
F 6 "CC0603KRX7R9BB104" H 1350 4850 50  0001 C CNN "MPN"
	1    1350 4850
	1    0    0    -1  
$EndComp
$Comp
L Device:C_Small C4
U 1 1 5EFB6BA5
P 3600 1500
F 0 "C4" H 3692 1546 50  0000 L CNN
F 1 "1u" H 3692 1455 50  0000 L CNN
F 2 "Capacitor_SMD:C_0603_1608Metric" H 3600 1500 50  0001 C CNN
F 3 "~" H 3600 1500 50  0001 C CNN
F 4 "Samsung Electro-Mechanics" H 3600 1500 50  0001 C CNN "MFR"
F 5 "CL10A105KB8NNNC" H 3600 1500 50  0001 C CNN "MPN"
F 6 "C15849" H 3600 1500 50  0001 C CNN "LCSC"
	1    3600 1500
	1    0    0    -1  
$EndComp
$Comp
L power:GND #PWR04
U 1 1 5EFF8746
P 1650 4100
F 0 "#PWR04" H 1650 3850 50  0001 C CNN
F 1 "GND" H 1655 3927 50  0000 C CNN
F 2 "" H 1650 4100 50  0001 C CNN
F 3 "" H 1650 4100 50  0001 C CNN
	1    1650 4100
	1    0    0    -1  
$EndComp
$Comp
L power:+5V #PWR02
U 1 1 5F02627E
P 1350 4700
F 0 "#PWR02" H 1350 4550 50  0001 C CNN
F 1 "+5V" H 1365 4873 50  0000 C CNN
F 2 "" H 1350 4700 50  0001 C CNN
F 3 "" H 1350 4700 50  0001 C CNN
	1    1350 4700
	1    0    0    -1  
$EndComp
Wire Wire Line
	1350 4700 1350 4750
Text GLabel 1750 1550 2    50   Input ~ 0
D+
Text GLabel 1750 1650 2    50   Input ~ 0
D-
Text GLabel 1950 4150 0    50   Input ~ 0
D+
Text GLabel 1950 4250 0    50   Input ~ 0
D-
Wire Wire Line
	3150 1350 3400 1350
Connection ~ 3400 1350
$Comp
L Device:C_Small C5
U 1 1 5F0C53C7
P 5350 1600
F 0 "C5" H 5442 1646 50  0000 L CNN
F 1 "10n" H 5442 1555 50  0000 L CNN
F 2 "Capacitor_SMD:C_0603_1608Metric" H 5350 1600 50  0001 C CNN
F 3 "~" H 5350 1600 50  0001 C CNN
F 4 "C57112" H 5350 1600 50  0001 C CNN "LCSC"
F 5 "Guangdong Fenghua Advanced Tech" H 5350 1600 50  0001 C CNN "MFR"
F 6 "0603B103K500NT" H 5350 1600 50  0001 C CNN "MPN"
	1    5350 1600
	1    0    0    -1  
$EndComp
$Comp
L Device:CP_Small C6
U 1 1 5F0C59D5
P 5650 1500
F 0 "C6" H 5738 1546 50  0000 L CNN
F 1 "10u" H 5738 1455 50  0000 L CNN
F 2 "Capacitor_Tantalum_SMD:CP_EIA-3216-18_Kemet-A" H 5650 1500 50  0001 C CNN
F 3 "~" H 5650 1500 50  0001 C CNN
F 4 "C7171" H 5650 1500 50  0001 C CNN "LCSC"
F 5 "AVX" H 5650 1500 50  0001 C CNN "MFR"
F 6 "TAJA106K016RNJ" H 5650 1500 50  0001 C CNN "MPN"
	1    5650 1500
	1    0    0    -1  
$EndComp
Wire Wire Line
	5050 1700 5350 1700
Wire Wire Line
	5350 1500 5350 1450
Connection ~ 5350 1450
Wire Wire Line
	3600 1600 3600 1800
Wire Wire Line
	5350 1350 5650 1350
Connection ~ 5350 1350
Connection ~ 5650 1350
Wire Notes Line
	6250 900  6250 2500
Text Notes 950  2450 0    50   ~ 0
USB Connector and 3V3 Regulator
Wire Wire Line
	6400 2800 6400 3250
Text GLabel 5200 3650 0    50   Input ~ 0
TX
Text GLabel 3750 3850 2    50   Input ~ 0
TX
Wire Wire Line
	5200 3650 5400 3650
Text GLabel 5200 3550 0    50   Input ~ 0
RX
Wire Wire Line
	5200 3550 5400 3550
Text GLabel 7500 3650 2    50   Input ~ 0
RTS
Wire Wire Line
	7500 3650 7400 3650
Text GLabel 3750 3950 2    50   Input ~ 0
RX
Text GLabel 3750 4050 2    50   Input ~ 0
RTS
Text GLabel 3750 4250 2    50   Input ~ 0
DTR
$Comp
L Device:LED_Small D3
U 1 1 5F16F1A3
P 6000 1850
F 0 "D3" V 6046 1780 50  0000 R CNN
F 1 "3V3" V 5955 1780 50  0000 R CNN
F 2 "LED_SMD:LED_0805_2012Metric" V 6000 1850 50  0001 C CNN
F 3 "~" V 6000 1850 50  0001 C CNN
F 4 "C2296" H 6000 1850 50  0001 C CNN "LCSC"
F 5 "Hubei KENTO Elec" H 6000 1850 50  0001 C CNN "MFR"
F 6 "17-21SUYC/TR8" H 6000 1850 50  0001 C CNN "MPN"
	1    6000 1850
	0    -1   -1   0   
$EndComp
Wire Wire Line
	5650 1350 6000 1350
Wire Wire Line
	6000 1350 6000 1450
Connection ~ 6000 1350
$Comp
L Device:R_Small R3
U 1 1 5F18D81F
P 6000 1550
F 0 "R3" H 5850 1500 50  0000 C CNN
F 1 "1k" H 5850 1600 50  0000 C CNN
F 2 "Resistor_SMD:R_0805_2012Metric" H 6000 1550 50  0001 C CNN
F 3 "~" H 6000 1550 50  0001 C CNN
F 4 "C17513" H 6000 1550 50  0001 C CNN "LCSC"
F 5 "Uniroyal Elec" H 6000 1550 50  0001 C CNN "MFR"
F 6 "0805W8F1001T5E" H 6000 1550 50  0001 C CNN "MPN"
	1    6000 1550
	-1   0    0    1   
$EndComp
Wire Wire Line
	6000 1750 6000 1650
$Comp
L power:GND #PWR014
U 1 1 5F193F25
P 6000 2050
F 0 "#PWR014" H 6000 1800 50  0001 C CNN
F 1 "GND" H 6005 1877 50  0000 C CNN
F 2 "" H 6000 2050 50  0001 C CNN
F 3 "" H 6000 2050 50  0001 C CNN
	1    6000 2050
	1    0    0    -1  
$EndComp
Wire Wire Line
	6000 2050 6000 1950
$Comp
L Device:LED_Small D4
U 1 1 5F1E40BC
P 7800 3750
F 0 "D4" V 7846 3680 50  0000 R CNN
F 1 "ASSOCIATE" V 7755 3680 50  0000 R CNN
F 2 "LED_SMD:LED_0805_2012Metric" V 7800 3750 50  0001 C CNN
F 3 "~" V 7800 3750 50  0001 C CNN
F 4 "C2296" H 7800 3750 50  0001 C CNN "LCSC"
F 5 "Hubei KENTO Elec" H 7800 3750 50  0001 C CNN "MFR"
F 6 "17-21SUYC/TR8" H 7800 3750 50  0001 C CNN "MPN"
	1    7800 3750
	0    -1   -1   0   
$EndComp
$Comp
L Device:R_Small R4
U 1 1 5F1E40C2
P 7600 3550
F 0 "R4" V 7400 3550 50  0000 C CNN
F 1 "1k" V 7500 3550 50  0000 C CNN
F 2 "Resistor_SMD:R_0805_2012Metric" H 7600 3550 50  0001 C CNN
F 3 "~" H 7600 3550 50  0001 C CNN
F 4 "C17513" H 7600 3550 50  0001 C CNN "LCSC"
F 5 "Uniroyal Elec" H 7600 3550 50  0001 C CNN "MFR"
F 6 "0805W8F1001T5E" H 7600 3550 50  0001 C CNN "MPN"
	1    7600 3550
	0    1    1    0   
$EndComp
Wire Wire Line
	7800 3650 7800 3550
Wire Wire Line
	7400 3550 7500 3550
Wire Wire Line
	7700 3550 7800 3550
Text GLabel 8400 4150 2    50   Input ~ 0
RESET
Text GLabel 7500 3850 2    50   Input ~ 0
DTR
Wire Wire Line
	7500 3850 7400 3850
NoConn ~ 7400 3950
NoConn ~ 7400 4350
NoConn ~ 5400 4750
$Comp
L Switch:SW_Push_Dual SW1
U 1 1 5F23ECCF
P 8100 4750
F 0 "SW1" H 8100 5035 50  0000 C CNN
F 1 "SW_Push_Dual" H 8100 4944 50  0000 C CNN
F 2 "thesis_components:PTS647_Switch" H 8100 4950 50  0001 C CNN
F 3 "~" H 8100 4950 50  0001 C CNN
	1    8100 4750
	1    0    0    -1  
$EndComp
Wire Wire Line
	7400 4150 8300 4150
Text GLabel 7750 4950 0    50   Input ~ 0
RESET
Wire Wire Line
	7750 4950 7900 4950
NoConn ~ 7900 4750
$Comp
L power:GND #PWR021
U 1 1 5F24C1AF
P 8400 5050
F 0 "#PWR021" H 8400 4800 50  0001 C CNN
F 1 "GND" H 8405 4877 50  0000 C CNN
F 2 "" H 8400 5050 50  0001 C CNN
F 3 "" H 8400 5050 50  0001 C CNN
	1    8400 5050
	1    0    0    -1  
$EndComp
$Comp
L power:GND #PWR017
U 1 1 5F24C523
P 7800 3850
F 0 "#PWR017" H 7800 3600 50  0001 C CNN
F 1 "GND" H 7805 3677 50  0000 C CNN
F 2 "" H 7800 3850 50  0001 C CNN
F 3 "" H 7800 3850 50  0001 C CNN
	1    7800 3850
	1    0    0    -1  
$EndComp
Wire Wire Line
	8300 4750 8400 4750
$Comp
L Device:R_Small R5
U 1 1 5F2530E1
P 8300 3800
F 0 "R5" H 8359 3846 50  0000 L CNN
F 1 "10k" H 8359 3755 50  0000 L CNN
F 2 "Resistor_SMD:R_0805_2012Metric" H 8300 3800 50  0001 C CNN
F 3 "~" H 8300 3800 50  0001 C CNN
F 4 "C17414" H 8300 3800 50  0001 C CNN "LCSC"
F 5 "Uniroyal Elec" H 8300 3800 50  0001 C CNN "MFR"
F 6 "0805W8F1002T5E" H 8300 3800 50  0001 C CNN "MPN"
	1    8300 3800
	1    0    0    -1  
$EndComp
$Comp
L power:+3V3 #PWR020
U 1 1 5F254CC1
P 8300 3600
F 0 "#PWR020" H 8300 3450 50  0001 C CNN
F 1 "+3V3" H 8315 3773 50  0000 C CNN
F 2 "" H 8300 3600 50  0001 C CNN
F 3 "" H 8300 3600 50  0001 C CNN
	1    8300 3600
	1    0    0    -1  
$EndComp
Wire Wire Line
	8300 3700 8300 3600
Wire Wire Line
	8300 3900 8300 4150
Connection ~ 8300 4150
Wire Wire Line
	8300 4150 8400 4150
Wire Notes Line
	900  900  6250 900 
$Comp
L Device:C_Small C7
U 1 1 5F2A0AB3
P 7850 3000
F 0 "C7" H 7942 3046 50  0000 L CNN
F 1 "10u" H 7942 2955 50  0000 L CNN
F 2 "Capacitor_Tantalum_SMD:CP_EIA-3216-18_Kemet-A" H 7850 3000 50  0001 C CNN
F 3 "~" H 7850 3000 50  0001 C CNN
F 4 "C7171" H 7850 3000 50  0001 C CNN "LCSC"
F 5 "AVX" H 7850 3000 50  0001 C CNN "MFR"
F 6 "TAJA106K016RNJ" H 7850 3000 50  0001 C CNN "MPN"
	1    7850 3000
	1    0    0    -1  
$EndComp
$Comp
L Device:C_Small C8
U 1 1 5F2A0F6C
P 8150 3000
F 0 "C8" H 8242 3046 50  0000 L CNN
F 1 "8.2p" H 8242 2955 50  0000 L CNN
F 2 "Capacitor_SMD:C_0603_1608Metric" H 8150 3000 50  0001 C CNN
F 3 "~" H 8150 3000 50  0001 C CNN
F 4 "C1685" H 8150 3000 50  0001 C CNN "LCSC"
F 5 "Guangdong Fenghua Advanced Tech" H 8150 3000 50  0001 C CNN "MFR"
F 6 "0603CG8R2C500NT" H 8150 3000 50  0001 C CNN "MPN"
	1    8150 3000
	1    0    0    -1  
$EndComp
$Comp
L Device:C_Small C9
U 1 1 5F2A1171
P 8450 3000
F 0 "C9" H 8542 3046 50  0000 L CNN
F 1 "1u" H 8542 2955 50  0000 L CNN
F 2 "Capacitor_SMD:C_0603_1608Metric" H 8450 3000 50  0001 C CNN
F 3 "~" H 8450 3000 50  0001 C CNN
F 4 "C15849" H 8450 3000 50  0001 C CNN "LCSC"
F 5 "Samsung Electro-Mechanics" H 8450 3000 50  0001 C CNN "MFR"
F 6 "CL10A105KB8NNNC" H 8450 3000 50  0001 C CNN "MPN"
	1    8450 3000
	1    0    0    -1  
$EndComp
$Comp
L power:+3V3 #PWR018
U 1 1 5F2AAECB
P 7850 2800
F 0 "#PWR018" H 7850 2650 50  0001 C CNN
F 1 "+3V3" H 7865 2973 50  0000 C CNN
F 2 "" H 7850 2800 50  0001 C CNN
F 3 "" H 7850 2800 50  0001 C CNN
	1    7850 2800
	1    0    0    -1  
$EndComp
$Comp
L power:GND #PWR019
U 1 1 5F2AB9CB
P 7850 3200
F 0 "#PWR019" H 7850 2950 50  0001 C CNN
F 1 "GND" H 7855 3027 50  0000 C CNN
F 2 "" H 7850 3200 50  0001 C CNN
F 3 "" H 7850 3200 50  0001 C CNN
	1    7850 3200
	1    0    0    -1  
$EndComp
Wire Wire Line
	7850 2800 7850 2850
Wire Wire Line
	7850 2850 8150 2850
Wire Wire Line
	8450 2850 8450 2900
Connection ~ 7850 2850
Wire Wire Line
	7850 2850 7850 2900
Wire Wire Line
	8150 2900 8150 2850
Connection ~ 8150 2850
Wire Wire Line
	8150 2850 8450 2850
Wire Wire Line
	7850 3200 7850 3150
Wire Wire Line
	7850 3150 8150 3150
Wire Wire Line
	8450 3150 8450 3100
Connection ~ 7850 3150
Wire Wire Line
	7850 3150 7850 3100
Wire Wire Line
	8150 3100 8150 3150
Connection ~ 8150 3150
Wire Wire Line
	8150 3150 8450 3150
Wire Notes Line
	8800 2500 8800 5900
Wire Notes Line
	8800 5900 4850 5900
Text Notes 950  6300 0    50   ~ 0
FT232BL
Text Notes 4900 5850 0    50   ~ 0
Xbee3
$Comp
L power:PWR_FLAG #FLG01
U 1 1 5F307B1D
P 2700 2150
F 0 "#FLG01" H 2700 2225 50  0001 C CNN
F 1 "PWR_FLAG" H 2700 2323 50  0000 C CNN
F 2 "" H 2700 2150 50  0001 C CNN
F 3 "~" H 2700 2150 50  0001 C CNN
	1    2700 2150
	-1   0    0    1   
$EndComp
$Comp
L power:+5V #PWR07
U 1 1 5F30D07D
P 2700 1900
F 0 "#PWR07" H 2700 1750 50  0001 C CNN
F 1 "+5V" H 2715 2073 50  0000 C CNN
F 2 "" H 2700 1900 50  0001 C CNN
F 3 "" H 2700 1900 50  0001 C CNN
	1    2700 1900
	1    0    0    -1  
$EndComp
Wire Wire Line
	2700 2150 2700 1900
Wire Notes Line
	900  2500 8800 2500
Wire Wire Line
	1250 1950 1250 2150
Wire Wire Line
	1550 1350 2300 1350
Wire Wire Line
	2500 1350 2950 1350
$Comp
L Device:Fuse_Small F1
U 1 1 5F1B444E
P 2400 1350
F 0 "F1" H 2400 1535 50  0000 C CNN
F 1 "250mA" H 2400 1444 50  0000 C CNN
F 2 "Fuse:Fuse_1206_3216Metric" H 2400 1350 50  0001 C CNN
F 3 "~" H 2400 1350 50  0001 C CNN
	1    2400 1350
	1    0    0    -1  
$EndComp
NoConn ~ 8300 4950
Wire Wire Line
	8400 4750 8400 5050
Wire Wire Line
	1550 1550 1750 1550
Wire Wire Line
	1750 1650 1550 1650
$Comp
L power:+5V #PWR08
U 1 1 5FC390FE
P 2950 3450
F 0 "#PWR08" H 2950 3300 50  0001 C CNN
F 1 "+5V" H 2965 3623 50  0000 C CNN
F 2 "" H 2950 3450 50  0001 C CNN
F 3 "" H 2950 3450 50  0001 C CNN
	1    2950 3450
	1    0    0    -1  
$EndComp
$Comp
L power:+5V #PWR05
U 1 1 5FCEC4D7
P 2050 4550
F 0 "#PWR05" H 2050 4400 50  0001 C CNN
F 1 "+5V" H 2065 4723 50  0000 C CNN
F 2 "" H 2050 4550 50  0001 C CNN
F 3 "" H 2050 4550 50  0001 C CNN
	1    2050 4550
	1    0    0    -1  
$EndComp
$Comp
L power:GND #PWR06
U 1 1 5FD78879
P 2650 5800
F 0 "#PWR06" H 2650 5550 50  0001 C CNN
F 1 "GND" H 2655 5627 50  0000 C CNN
F 2 "" H 2650 5800 50  0001 C CNN
F 3 "" H 2650 5800 50  0001 C CNN
	1    2650 5800
	1    0    0    -1  
$EndComp
$Comp
L power:GND #PWR03
U 1 1 5F02758C
P 1350 5050
F 0 "#PWR03" H 1350 4800 50  0001 C CNN
F 1 "GND" H 1355 4877 50  0000 C CNN
F 2 "" H 1350 5050 50  0001 C CNN
F 3 "" H 1350 5050 50  0001 C CNN
	1    1350 5050
	1    0    0    -1  
$EndComp
Wire Wire Line
	1350 5050 1350 5000
Wire Notes Line
	4850 6350 900  6350
Wire Notes Line
	4850 2500 4850 6350
$Comp
L Interface_USB:FT232RL U1
U 1 1 5EF8EE91
P 2850 4550
F 0 "U1" H 2250 5450 50  0000 C CNN
F 1 "FT232RL" H 3350 3650 50  0000 C CNN
F 2 "Package_SO:SSOP-28_5.3x10.2mm_P0.65mm" H 3950 3650 50  0001 C CNN
F 3 "https://www.ftdichip.com/Support/Documents/DataSheets/ICs/DS_FT232R.pdf" H 2850 4550 50  0001 C CNN
F 4 "C8690" H 2850 4550 50  0001 C CNN "LCSC"
F 5 "Future Designs" H 2850 4550 50  0001 C CNN "MFR"
F 6 "FT232RL-REEL" H 2850 4550 50  0001 C CNN "MPN"
	1    2850 4550
	1    0    0    -1  
$EndComp
Wire Wire Line
	1650 3850 2000 3850
Wire Wire Line
	1650 4050 1650 4100
Wire Wire Line
	2750 3550 2750 3500
Wire Wire Line
	2750 3500 2000 3500
Wire Wire Line
	2000 3500 2000 3850
Connection ~ 2000 3850
Wire Wire Line
	2000 3850 2050 3850
Wire Wire Line
	2950 3450 2950 3550
$Comp
L Device:CP_Small C3
U 1 1 5EFACD04
P 1750 4850
F 0 "C3" H 1838 4896 50  0000 L CNN
F 1 "4.7u" H 1838 4805 50  0000 L CNN
F 2 "Capacitor_Tantalum_SMD:CP_EIA-3216-18_Kemet-A" H 1750 4850 50  0001 C CNN
F 3 "~" H 1750 4850 50  0001 C CNN
F 4 "C161817" H 1750 4850 50  0001 C CNN "LCSC"
F 5 "Hunan Xiangyee in S&T" H 1750 4850 50  0001 C CNN "MFR"
F 6 "CA45-A025K475T" H 1750 4850 50  0001 C CNN "MPN"
	1    1750 4850
	1    0    0    -1  
$EndComp
Wire Wire Line
	1350 4700 1750 4700
Wire Wire Line
	1750 4700 1750 4750
Connection ~ 1350 4700
Wire Wire Line
	1750 4950 1750 5000
Wire Wire Line
	1750 5000 1350 5000
Connection ~ 1350 5000
Wire Wire Line
	1350 5000 1350 4950
Wire Wire Line
	4300 4650 4300 4600
Wire Wire Line
	4000 4650 4000 4600
Wire Notes Line
	900  900  900  6350
Wire Wire Line
	4150 4350 4300 4350
Connection ~ 4150 4350
Wire Wire Line
	4150 4300 4150 4350
Wire Wire Line
	4300 4350 4300 4400
Wire Wire Line
	4000 4350 4150 4350
Wire Wire Line
	4000 4400 4000 4350
$Comp
L Device:R_Small R1
U 1 1 5F04BC00
P 4000 4750
F 0 "R1" V 3804 4750 50  0000 C CNN
F 1 "1k" V 3895 4750 50  0000 C CNN
F 2 "Resistor_SMD:R_0805_2012Metric" H 4000 4750 50  0001 C CNN
F 3 "~" H 4000 4750 50  0001 C CNN
F 4 "C17513" H 4000 4750 50  0001 C CNN "LCSC"
F 5 "Uniroyal Elec" H 4000 4750 50  0001 C CNN "MFR"
F 6 "0805W8F1001T5E" H 4000 4750 50  0001 C CNN "MPN"
	1    4000 4750
	1    0    0    -1  
$EndComp
$Comp
L Device:R_Small R2
U 1 1 5F04B55F
P 4300 4750
F 0 "R2" V 4104 4750 50  0000 C CNN
F 1 "1k" V 4195 4750 50  0000 C CNN
F 2 "Resistor_SMD:R_0805_2012Metric" H 4300 4750 50  0001 C CNN
F 3 "~" H 4300 4750 50  0001 C CNN
F 4 "C17513" H 4300 4750 50  0001 C CNN "LCSC"
F 5 "Uniroyal Elec" H 4300 4750 50  0001 C CNN "MFR"
F 6 "0805W8F1001T5E" H 4300 4750 50  0001 C CNN "MPN"
	1    4300 4750
	1    0    0    -1  
$EndComp
$Comp
L Device:LED_Small D1
U 1 1 5F044027
P 4000 4500
F 0 "D1" V 4046 4430 50  0000 R CNN
F 1 "RX" V 3955 4430 50  0000 R CNN
F 2 "LED_SMD:LED_0805_2012Metric" V 4000 4500 50  0001 C CNN
F 3 "~" V 4000 4500 50  0001 C CNN
F 4 "C2297" H 4000 4500 50  0001 C CNN "LCSC"
F 5 "Hubei KENTO Elec" H 4000 4500 50  0001 C CNN "MFR"
	1    4000 4500
	0    -1   -1   0   
$EndComp
$Comp
L Device:LED_Small D2
U 1 1 5F042BCF
P 4300 4500
F 0 "D2" V 4346 4430 50  0000 R CNN
F 1 "TX" V 4255 4430 50  0000 R CNN
F 2 "LED_SMD:LED_0805_2012Metric" V 4300 4500 50  0001 C CNN
F 3 "~" V 4300 4500 50  0001 C CNN
F 4 "C2293" H 4300 4500 50  0001 C CNN "LCSC"
F 5 "Hubei KENTO Elec" H 4300 4500 50  0001 C CNN "MFR"
	1    4300 4500
	0    -1   -1   0   
$EndComp
Wire Wire Line
	3650 4850 4000 4850
Wire Wire Line
	4300 4950 4300 4850
Wire Wire Line
	3650 4950 4300 4950
Wire Wire Line
	3750 4250 3650 4250
Wire Wire Line
	3650 4050 3750 4050
Wire Wire Line
	3750 3950 3650 3950
Wire Wire Line
	3650 3850 3750 3850
Wire Wire Line
	1950 4150 2050 4150
Wire Wire Line
	2050 4250 1950 4250
Wire Wire Line
	2650 5550 2650 5700
Wire Wire Line
	3050 5700 3050 5550
Wire Wire Line
	2650 5700 2050 5700
Wire Wire Line
	2050 5700 2050 5250
Connection ~ 2650 5700
Wire Wire Line
	2650 5700 2650 5800
Wire Wire Line
	2650 5700 2850 5700
Wire Wire Line
	2850 5550 2850 5700
Connection ~ 2850 5700
Wire Wire Line
	2850 5700 2950 5700
Wire Wire Line
	2950 5550 2950 5700
Connection ~ 2950 5700
Wire Wire Line
	2950 5700 3050 5700
Text GLabel 2000 3450 1    50   Input ~ 0
VCCIO
Text GLabel 4150 4300 1    50   Input ~ 0
VCCIO
Wire Wire Line
	2000 3450 2000 3500
Connection ~ 2000 3500
NoConn ~ 2050 4750
NoConn ~ 2050 4950
NoConn ~ 3650 4150
NoConn ~ 3650 4350
NoConn ~ 3650 4450
NoConn ~ 3650 4550
NoConn ~ 3650 5050
NoConn ~ 3650 5150
NoConn ~ 3650 5250
$EndSCHEMATC
