EESchema Schematic File Version 4
EELAYER 30 0
EELAYER END
$Descr A4 11693 8268
encoding utf-8
Sheet 1 1
Title "LoRaWAN node with RFM95"
Date "2020-08-04"
Rev "2"
Comp ""
Comment1 ""
Comment2 ""
Comment3 ""
Comment4 ""
$EndDescr
$Comp
L RF_Module:RFM95W-868S2 U5
U 1 1 5E5A9F92
P 5050 6750
F 0 "U5" H 4700 7200 50  0000 C CNN
F 1 "RFM95W-868S2" H 5550 6150 50  0000 C CNN
F 2 "RF_Module:HOPERF_RFM9XW_SMD" H 1750 8400 50  0001 C CNN
F 3 "http://www.hoperf.com/upload/rf/RFM95_96_97_98W.pdf" H 1750 8400 50  0001 C CNN
F 4 "-" H -4400 4750 50  0001 C CNN "MFR"
F 5 "-" H -4400 4750 50  0001 C CNN "MPN"
F 6 "-" H -4400 4750 50  0001 C CNN "SPR"
F 7 "-" H -4400 4750 50  0001 C CNN "SPN"
F 8 "-" H -4400 4750 50  0001 C CNN "SPURL"
	1    5050 6750
	1    0    0    -1  
$EndComp
$Comp
L power:GND #PWR036
U 1 1 5E65F974
P 6050 6850
F 0 "#PWR036" H 6050 6600 50  0001 C CNN
F 1 "GND" H 6055 6677 50  0000 C CNN
F 2 "" H 6050 6850 50  0001 C CNN
F 3 "" H 6050 6850 50  0001 C CNN
	1    6050 6850
	1    0    0    -1  
$EndComp
$Comp
L power:+3V3 #PWR033
U 1 1 5E78DFA7
P 5050 6000
F 0 "#PWR033" H 5050 5850 50  0001 C CNN
F 1 "+3V3" H 5065 6173 50  0000 C CNN
F 2 "" H 5050 6000 50  0001 C CNN
F 3 "" H 5050 6000 50  0001 C CNN
	1    5050 6000
	1    0    0    -1  
$EndComp
$Comp
L power:GND #PWR035
U 1 1 5E78DFD3
P 6400 6200
F 0 "#PWR035" H 6400 5950 50  0001 C CNN
F 1 "GND" H 6405 6027 50  0000 C CNN
F 2 "" H 6400 6200 50  0001 C CNN
F 3 "" H 6400 6200 50  0001 C CNN
	1    6400 6200
	1    0    0    -1  
$EndComp
$Comp
L power:GND #PWR037
U 1 1 5E852723
P 5050 7500
F 0 "#PWR037" H 5050 7250 50  0001 C CNN
F 1 "GND" H 5055 7327 50  0000 C CNN
F 2 "" H 5050 7500 50  0001 C CNN
F 3 "" H 5050 7500 50  0001 C CNN
	1    5050 7500
	1    0    0    -1  
$EndComp
$Comp
L power:+3V3 #PWR032
U 1 1 5E948BF7
P 4500 5950
F 0 "#PWR032" H 4500 5800 50  0001 C CNN
F 1 "+3V3" H 4515 6123 50  0000 C CNN
F 2 "" H 4500 5950 50  0001 C CNN
F 3 "" H 4500 5950 50  0001 C CNN
	1    4500 5950
	1    0    0    -1  
$EndComp
$Comp
L thesis_components:LT1763 U1
U 1 1 5EB22ABB
P 4150 1450
F 0 "U1" H 4150 1865 50  0000 C CNN
F 1 "LT1763" H 4150 1774 50  0000 C CNN
F 2 "thesis_components:LT1763" H 4150 950 50  0001 C CNN
F 3 "http://cds.linear.com/docs/en/datasheet/1962fb.pdf" H 4150 750 50  0001 C CNN
F 4 "Linear Tech" H 1450 -50 50  0001 C CNN "MFR"
F 5 "LT1763CS8-3.3#TRPBF" H 1450 -50 50  0001 C CNN "MPN"
F 6 "-" H 1450 -50 50  0001 C CNN "SPR"
F 7 "-" H 1450 -50 50  0001 C CNN "SPN"
F 8 "-" H 1450 -50 50  0001 C CNN "SPURL"
F 9 "C31066" H 4150 1450 50  0001 C CNN "LCSC"
	1    4150 1450
	1    0    0    -1  
$EndComp
$Comp
L Device:C_Small C2
U 1 1 5EB244EA
P 4950 1500
F 0 "C2" H 5065 1546 50  0000 L CNN
F 1 "10n" H 5065 1455 50  0000 L CNN
F 2 "Capacitor_SMD:C_0603_1608Metric" H 4988 1350 50  0001 C CNN
F 3 "" H 4950 1500 50  0001 C CNN
F 4 "Guangdong Fenghua Advanced Tech" H 1450 -100 50  0001 C CNN "MFR"
F 5 "0603B103K500NT" H 1450 -100 50  0001 C CNN "MPN"
F 6 "Mouser" H 1450 -100 50  0001 C CNN "SPR"
F 7 "" H 1450 -100 50  0001 C CNN "SPN"
F 8 "-" H 1450 -100 50  0001 C CNN "SPURL"
F 9 "C57112" H 4950 1500 50  0001 C CNN "LCSC"
	1    4950 1500
	1    0    0    -1  
$EndComp
$Comp
L Device:CP_Small C3
U 1 1 5EB3796B
P 5300 1500
F 0 "C3" H 5418 1546 50  0000 L CNN
F 1 "10u" H 5418 1455 50  0000 L CNN
F 2 "Capacitor_Tantalum_SMD:CP_EIA-3216-18_Kemet-A" H 5338 1350 50  0001 C CNN
F 3 "~" H 5300 1500 50  0001 C CNN
F 4 "AVX" H 1250 -50 50  0001 C CNN "MFR"
F 5 "TAJA106K016RNJ" H 1250 -50 50  0001 C CNN "MPN"
F 6 "-" H 1250 -50 50  0001 C CNN "SPR"
F 7 "" H 1250 -50 50  0001 C CNN "SPN"
F 8 "-" H 1250 -50 50  0001 C CNN "SPURL"
F 9 "C7171" H 5300 1500 50  0001 C CNN "LCSC"
	1    5300 1500
	1    0    0    -1  
$EndComp
$Comp
L power:+3V3 #PWR02
U 1 1 5EB4436C
P 5650 1200
F 0 "#PWR02" H 5650 1050 50  0001 C CNN
F 1 "+3V3" H 5665 1373 50  0000 C CNN
F 2 "" H 5650 1200 50  0001 C CNN
F 3 "" H 5650 1200 50  0001 C CNN
	1    5650 1200
	1    0    0    -1  
$EndComp
$Comp
L power:+5V #PWR01
U 1 1 5EB4A7AB
P 3000 1150
F 0 "#PWR01" H 3000 1000 50  0001 C CNN
F 1 "+5V" H 3015 1323 50  0000 C CNN
F 2 "" H 3000 1150 50  0001 C CNN
F 3 "" H 3000 1150 50  0001 C CNN
	1    3000 1150
	1    0    0    -1  
$EndComp
$Comp
L power:GND #PWR05
U 1 1 5EB5B5A2
P 4150 1950
F 0 "#PWR05" H 4150 1700 50  0001 C CNN
F 1 "GND" H 4155 1777 50  0000 C CNN
F 2 "" H 4150 1950 50  0001 C CNN
F 3 "" H 4150 1950 50  0001 C CNN
	1    4150 1950
	1    0    0    -1  
$EndComp
$Comp
L power:GND #PWR06
U 1 1 5EB5C22D
P 5300 1950
F 0 "#PWR06" H 5300 1700 50  0001 C CNN
F 1 "GND" H 5305 1777 50  0000 C CNN
F 2 "" H 5300 1950 50  0001 C CNN
F 3 "" H 5300 1950 50  0001 C CNN
	1    5300 1950
	1    0    0    -1  
$EndComp
$Comp
L Device:C_Small C1
U 1 1 5EB9AE57
P 3200 1500
F 0 "C1" H 3315 1546 50  0000 L CNN
F 1 "1u" H 3315 1455 50  0000 L CNN
F 2 "Capacitor_SMD:C_0603_1608Metric" H 3238 1350 50  0001 C CNN
F 3 "" H 3200 1500 50  0001 C CNN
F 4 "C15849" H 3200 1500 50  0001 C CNN "LCSC"
F 5 "Samsung Electro-Mechanics" H 1450 -50 50  0001 C CNN "MFR"
F 6 "CL10A105KB8NNNC" H 1450 -50 50  0001 C CNN "MPN"
F 7 "Mouser" H 1450 -50 50  0001 C CNN "SPR"
F 8 "" H 1450 -50 50  0001 C CNN "SPN"
F 9 "-" H 1450 -50 50  0001 C CNN "SPURL"
	1    3200 1500
	1    0    0    -1  
$EndComp
$Comp
L power:GND #PWR04
U 1 1 5EBA1E73
P 3200 1750
F 0 "#PWR04" H 3200 1500 50  0001 C CNN
F 1 "GND" H 3205 1577 50  0000 C CNN
F 2 "" H 3200 1750 50  0001 C CNN
F 3 "" H 3200 1750 50  0001 C CNN
	1    3200 1750
	1    0    0    -1  
$EndComp
$Comp
L Connector:USB_B_Micro J1
U 1 1 5EBF41B8
P 800 1500
F 0 "J1" H 857 1967 50  0000 C CNN
F 1 "USB_B_Micro" H 857 1876 50  0000 C CNN
F 2 "Connector_USB:USB_Micro-B_Molex-105017-0001" H 950 1450 50  0001 C CNN
F 3 "~" H 950 1450 50  0001 C CNN
F 4 "Molex" H 0   0   50  0001 C CNN "MFR"
F 5 "105017-0001" H 0   0   50  0001 C CNN "MPN"
F 6 "Mouser" H 0   0   50  0001 C CNN "SPR"
F 7 "538-105017-0001" H 0   0   50  0001 C CNN "SPN"
F 8 "-" H 0   0   50  0001 C CNN "SPURL"
	1    800  1500
	1    0    0    -1  
$EndComp
$Comp
L power:GND #PWR08
U 1 1 5EC21F03
P 800 2100
F 0 "#PWR08" H 800 1850 50  0001 C CNN
F 1 "GND" H 805 1927 50  0000 C CNN
F 2 "" H 800 2100 50  0001 C CNN
F 3 "" H 800 2100 50  0001 C CNN
	1    800  2100
	1    0    0    -1  
$EndComp
$Comp
L Connector:Conn_Coaxial J3
U 1 1 5EAA37D6
P 6050 6450
F 0 "J3" H 6150 6425 50  0000 L CNN
F 1 "Conn_Coaxial" H 6150 6334 50  0001 L CNN
F 2 "Connector_Coaxial:U.FL_Hirose_U.FL-R-SMT-1_Vertical" H 6050 6450 50  0001 C CNN
F 3 " ~" H 6050 6450 50  0001 C CNN
F 4 "U.FL Connector" H 6150 6350 50  0000 L CNN "id"
F 5 "-" H -4400 4750 50  0001 C CNN "MFR"
F 6 "-" H -4400 4750 50  0001 C CNN "MPN"
F 7 "-" H -4400 4750 50  0001 C CNN "SPR"
F 8 "-" H -4400 4750 50  0001 C CNN "SPN"
F 9 "-" H -4400 4750 50  0001 C CNN "SPURL"
	1    6050 6450
	1    0    0    -1  
$EndComp
Wire Wire Line
	5550 6450 5850 6450
Wire Wire Line
	6050 6650 6050 6850
Wire Wire Line
	4950 7350 4950 7450
Wire Wire Line
	4950 7450 5050 7450
Wire Wire Line
	5150 7450 5150 7350
Wire Wire Line
	5050 7350 5050 7450
Wire Wire Line
	5050 7450 5150 7450
Wire Wire Line
	5050 7500 5050 7450
Wire Wire Line
	4650 1400 4950 1400
Wire Wire Line
	4650 1650 4950 1650
Wire Wire Line
	4650 1300 4950 1300
Wire Wire Line
	4950 1400 4950 1300
Wire Wire Line
	3650 1300 3500 1300
Wire Wire Line
	5650 1300 5650 1200
Wire Wire Line
	4150 1950 4150 1900
Wire Wire Line
	4150 1900 4050 1900
Wire Wire Line
	4050 1900 4050 1850
Wire Wire Line
	4150 1900 4150 1850
Wire Wire Line
	4150 1900 4250 1900
Wire Wire Line
	4250 1900 4250 1850
Wire Wire Line
	3500 1650 3500 1300
Wire Wire Line
	3500 1300 3200 1300
Wire Wire Line
	3500 1650 3650 1650
Wire Wire Line
	3200 1300 3000 1300
Wire Wire Line
	800  1900 800  2100
Connection ~ 5050 7450
Connection ~ 4950 1300
Connection ~ 4150 1900
Connection ~ 3500 1300
Connection ~ 3200 1300
NoConn ~ 5550 6650
NoConn ~ 5550 6750
NoConn ~ 5550 6850
NoConn ~ 5550 6950
NoConn ~ 5550 7050
NoConn ~ 1100 1700
NoConn ~ 700  1900
$Comp
L Device:Fuse_Small F1
U 1 1 5EFF2457
P 1600 1300
F 0 "F1" H 1600 1485 50  0000 C CNN
F 1 "250mA" H 1600 1394 50  0000 C CNN
F 2 "Fuse:Fuse_1206_3216Metric" H 1600 1300 50  0001 C CNN
F 3 "~" H 1600 1300 50  0001 C CNN
	1    1600 1300
	1    0    0    -1  
$EndComp
Text GLabel 1500 1500 2    50   Input ~ 0
D+
Text GLabel 1500 1600 2    50   Input ~ 0
D-
Wire Wire Line
	1100 1300 1500 1300
$Comp
L Device:Ferrite_Bead_Small FB1
U 1 1 5F003693
P 2250 1300
F 0 "FB1" V 2013 1300 50  0000 C CNN
F 1 "100 @ 100MHz" V 2104 1300 50  0000 C CNN
F 2 "Inductor_SMD:L_0805_2012Metric" V 2180 1300 50  0001 C CNN
F 3 "~" H 2250 1300 50  0001 C CNN
F 4 "C1015" H 2250 1300 50  0001 C CNN "LCSC"
F 5 "Sunlord" H 2250 1300 50  0001 C CNN "MFR"
F 6 "GZ2012D101TF" H 2250 1300 50  0001 C CNN "MPN"
	1    2250 1300
	0    1    1    0   
$EndComp
Wire Wire Line
	1700 1300 2150 1300
Connection ~ 3000 1300
Wire Wire Line
	3000 1300 3000 1150
Wire Wire Line
	2350 1300 3000 1300
Wire Wire Line
	3200 1300 3200 1400
Wire Wire Line
	3200 1600 3200 1750
Connection ~ 4950 1400
Wire Wire Line
	4950 1650 4950 1600
Wire Wire Line
	5300 1600 5300 1950
Wire Wire Line
	5300 1300 5300 1400
Wire Wire Line
	4950 1300 5300 1300
Connection ~ 5300 1300
Wire Wire Line
	5300 1300 5650 1300
$Comp
L Device:R_Small R1
U 1 1 5F03A74B
P 5650 1500
F 0 "R1" H 5709 1546 50  0000 L CNN
F 1 "1k" H 5709 1455 50  0000 L CNN
F 2 "Resistor_SMD:R_0805_2012Metric" H 5650 1500 50  0001 C CNN
F 3 "~" H 5650 1500 50  0001 C CNN
F 4 "C17414" H 5650 1500 50  0001 C CNN "LCSC"
F 5 "Uniroyal Elec" H 5650 1500 50  0001 C CNN "MFR"
F 6 "0805W8F1002T5E" H 5650 1500 50  0001 C CNN "MPN"
	1    5650 1500
	1    0    0    -1  
$EndComp
Wire Wire Line
	5650 1400 5650 1300
Connection ~ 5650 1300
$Comp
L Device:LED_Small D1
U 1 1 5F03E6B1
P 5650 1750
F 0 "D1" V 5696 1680 50  0000 R CNN
F 1 "3V3" V 5605 1680 50  0000 R CNN
F 2 "LED_SMD:LED_0805_2012Metric" V 5650 1750 50  0001 C CNN
F 3 "~" V 5650 1750 50  0001 C CNN
F 4 "C2296" H 5650 1750 50  0001 C CNN "LCSC"
F 5 "Hubei KENTO Elec" H 5650 1750 50  0001 C CNN "MFR"
F 6 "17-21SUYC/TR8" H 5650 1750 50  0001 C CNN "MPN"
	1    5650 1750
	0    -1   -1   0   
$EndComp
Wire Wire Line
	5650 1650 5650 1600
$Comp
L power:GND #PWR07
U 1 1 5F04251E
P 5650 1950
F 0 "#PWR07" H 5650 1700 50  0001 C CNN
F 1 "GND" H 5655 1777 50  0000 C CNN
F 2 "" H 5650 1950 50  0001 C CNN
F 3 "" H 5650 1950 50  0001 C CNN
	1    5650 1950
	1    0    0    -1  
$EndComp
Wire Wire Line
	5650 1950 5650 1850
$Comp
L power:PWR_FLAG #FLG01
U 1 1 5F06638B
P 2250 1900
F 0 "#FLG01" H 2250 1975 50  0001 C CNN
F 1 "PWR_FLAG" H 2250 2073 50  0000 C CNN
F 2 "" H 2250 1900 50  0001 C CNN
F 3 "~" H 2250 1900 50  0001 C CNN
	1    2250 1900
	-1   0    0    1   
$EndComp
$Comp
L power:+5V #PWR03
U 1 1 5F066AD1
P 2250 1650
F 0 "#PWR03" H 2250 1500 50  0001 C CNN
F 1 "+5V" H 2265 1823 50  0000 C CNN
F 2 "" H 2250 1650 50  0001 C CNN
F 3 "" H 2250 1650 50  0001 C CNN
	1    2250 1650
	1    0    0    -1  
$EndComp
Wire Wire Line
	2250 1650 2250 1900
$Comp
L power:+3V3 #PWR031
U 1 1 5F0851A2
P 6400 5900
F 0 "#PWR031" H 6400 5750 50  0001 C CNN
F 1 "+3V3" H 6415 6073 50  0000 C CNN
F 2 "" H 6400 5900 50  0001 C CNN
F 3 "" H 6400 5900 50  0001 C CNN
	1    6400 5900
	1    0    0    -1  
$EndComp
Wire Wire Line
	6400 5900 6400 5950
Wire Wire Line
	6400 6150 6400 6200
Wire Wire Line
	5050 6000 5050 6250
$Comp
L Device:R_Small R6
U 1 1 5ECEA1DB
P 4500 6150
F 0 "R6" H 4400 6100 50  0000 C CNN
F 1 "10k" H 4400 6200 50  0000 C CNN
F 2 "Resistor_SMD:R_0805_2012Metric" V 4430 6150 50  0001 C CNN
F 3 "~" H 4500 6150 50  0001 C CNN
F 4 "Uniroyal Elec" H -3850 3950 50  0001 C CNN "MFR"
F 5 "0805W8F1002T5E" H -3850 3950 50  0001 C CNN "MPN"
F 6 "-" H -3850 3950 50  0001 C CNN "SPR"
F 7 "-" H -3850 3950 50  0001 C CNN "SPN"
F 8 "-" H -3850 3950 50  0001 C CNN "SPURL"
F 9 "C17414" H 4500 6150 50  0001 C CNN "LCSC"
	1    4500 6150
	-1   0    0    1   
$EndComp
Text GLabel 3800 5900 0    50   Input ~ 0
SCK
Text GLabel 3800 6200 0    50   Input ~ 0
MOSI
Text GLabel 3800 6500 0    50   Input ~ 0
MISO
Text GLabel 3800 6800 0    50   Input ~ 0
NSS
Wire Wire Line
	4400 6450 4550 6450
Text GLabel 5750 7150 2    50   Input ~ 0
INT0
Wire Wire Line
	5550 7150 5750 7150
$Comp
L power:+5V #PWR012
U 1 1 5F0C47C2
P 5800 2850
F 0 "#PWR012" H 5800 2700 50  0001 C CNN
F 1 "+5V" H 5815 3023 50  0000 C CNN
F 2 "" H 5800 2850 50  0001 C CNN
F 3 "" H 5800 2850 50  0001 C CNN
	1    5800 2850
	1    0    0    -1  
$EndComp
Wire Wire Line
	5800 2850 5800 3000
$Comp
L power:+3V3 #PWR011
U 1 1 5F10EEA9
P 5600 2850
F 0 "#PWR011" H 5600 2700 50  0001 C CNN
F 1 "+3V3" H 5615 3023 50  0000 C CNN
F 2 "" H 5600 2850 50  0001 C CNN
F 3 "" H 5600 2850 50  0001 C CNN
	1    5600 2850
	1    0    0    -1  
$EndComp
Wire Wire Line
	5600 2850 5600 2900
Wire Wire Line
	5300 3200 5200 3200
Wire Wire Line
	5200 3200 5200 2900
Wire Wire Line
	5200 2900 5600 2900
Connection ~ 5600 2900
Wire Wire Line
	5600 2900 5600 3000
$Comp
L power:+5V #PWR020
U 1 1 5F117AC7
P 7150 3600
F 0 "#PWR020" H 7150 3450 50  0001 C CNN
F 1 "+5V" H 7165 3773 50  0000 C CNN
F 2 "" H 7150 3600 50  0001 C CNN
F 3 "" H 7150 3600 50  0001 C CNN
	1    7150 3600
	1    0    0    -1  
$EndComp
$Comp
L power:+3V3 #PWR021
U 1 1 5F1183F1
P 7500 3600
F 0 "#PWR021" H 7500 3450 50  0001 C CNN
F 1 "+3V3" H 7515 3773 50  0000 C CNN
F 2 "" H 7500 3600 50  0001 C CNN
F 3 "" H 7500 3600 50  0001 C CNN
	1    7500 3600
	1    0    0    -1  
$EndComp
$Comp
L power:GND #PWR022
U 1 1 5F118ED8
P 7150 3950
F 0 "#PWR022" H 7150 3700 50  0001 C CNN
F 1 "GND" H 7155 3777 50  0000 C CNN
F 2 "" H 7150 3950 50  0001 C CNN
F 3 "" H 7150 3950 50  0001 C CNN
	1    7150 3950
	1    0    0    -1  
$EndComp
$Comp
L power:GND #PWR023
U 1 1 5F119357
P 7500 3950
F 0 "#PWR023" H 7500 3700 50  0001 C CNN
F 1 "GND" H 7505 3777 50  0000 C CNN
F 2 "" H 7500 3950 50  0001 C CNN
F 3 "" H 7500 3950 50  0001 C CNN
	1    7500 3950
	1    0    0    -1  
$EndComp
$Comp
L power:GND #PWR029
U 1 1 5F1196C2
P 5700 4500
F 0 "#PWR029" H 5700 4250 50  0001 C CNN
F 1 "GND" H 5705 4327 50  0000 C CNN
F 2 "" H 5700 4500 50  0001 C CNN
F 3 "" H 5700 4500 50  0001 C CNN
	1    5700 4500
	1    0    0    -1  
$EndComp
Wire Wire Line
	5700 4500 5700 4400
$Comp
L Device:C_Small C6
U 1 1 5F123BEE
P 7150 3750
F 0 "C6" H 7242 3796 50  0000 L CNN
F 1 "100n" H 7242 3705 50  0000 L CNN
F 2 "Capacitor_SMD:C_0603_1608Metric" H 7150 3750 50  0001 C CNN
F 3 "~" H 7150 3750 50  0001 C CNN
F 4 "C14663" H 7150 3750 50  0001 C CNN "LCSC"
F 5 "YAGEO" H 7150 3750 50  0001 C CNN "MFR"
F 6 "CC0603KRX7R9BB104" H 7150 3750 50  0001 C CNN "MPN"
	1    7150 3750
	1    0    0    -1  
$EndComp
$Comp
L Device:C_Small C7
U 1 1 5F1248DD
P 7500 3750
F 0 "C7" H 7592 3796 50  0000 L CNN
F 1 "100n" H 7592 3705 50  0000 L CNN
F 2 "Capacitor_SMD:C_0603_1608Metric" H 7500 3750 50  0001 C CNN
F 3 "~" H 7500 3750 50  0001 C CNN
F 4 "C14663" H 7500 3750 50  0001 C CNN "LCSC"
F 5 "YAGEO" H 7500 3750 50  0001 C CNN "MFR"
F 6 "CC0603KRX7R9BB104" H 7500 3750 50  0001 C CNN "MPN"
	1    7500 3750
	1    0    0    -1  
$EndComp
Wire Wire Line
	7500 3600 7500 3650
Wire Wire Line
	7500 3850 7500 3950
Wire Wire Line
	7150 3950 7150 3850
Wire Wire Line
	7150 3600 7150 3650
$Comp
L Connector:AVR-ISP-10 J2
U 1 1 5F145737
P 6650 3050
F 0 "J2" V 6183 3100 50  0000 C CNN
F 1 "AVR-ISP-10" V 6274 3100 50  0000 C CNN
F 2 "Connector_IDC:IDC-Header_2x05_P2.54mm_Vertical" V 6400 3100 50  0001 C CNN
F 3 " ~" H 5375 2500 50  0001 C CNN
	1    6650 3050
	0    1    1    0   
$EndComp
Wire Wire Line
	6100 3400 6350 3400
Wire Wire Line
	6350 3400 6350 3550
Wire Wire Line
	6550 3550 6550 3450
Wire Wire Line
	6650 3450 6650 3600
Wire Wire Line
	6650 3600 6100 3600
$Comp
L Device:R_Small R5
U 1 1 5F1AE531
P 4100 5900
F 0 "R5" V 3904 5900 50  0000 C CNN
F 1 "330R" V 3995 5900 50  0000 C CNN
F 2 "Resistor_SMD:R_0805_2012Metric" H 4100 5900 50  0001 C CNN
F 3 "~" H 4100 5900 50  0001 C CNN
F 4 "C17630" H 4100 5900 50  0001 C CNN "LCSC"
F 5 "Uniroyal Elec" H 4100 5900 50  0001 C CNN "MFR"
F 6 "0805W8F3300T5E" H 4100 5900 50  0001 C CNN "MPN"
	1    4100 5900
	0    1    1    0   
$EndComp
$Comp
L Device:R_Small R7
U 1 1 5F1AE9F4
P 4100 6200
F 0 "R7" V 3904 6200 50  0000 C CNN
F 1 "330R" V 3995 6200 50  0000 C CNN
F 2 "Resistor_SMD:R_0805_2012Metric" H 4100 6200 50  0001 C CNN
F 3 "~" H 4100 6200 50  0001 C CNN
F 4 "C17630" H 4100 6200 50  0001 C CNN "LCSC"
F 5 "Uniroyal Elec" H 4100 6200 50  0001 C CNN "MFR"
F 6 "0805W8F3300T5E" H 4100 6200 50  0001 C CNN "MPN"
	1    4100 6200
	0    1    1    0   
$EndComp
$Comp
L Device:R_Small R8
U 1 1 5F1AEF30
P 4100 6500
F 0 "R8" V 3904 6500 50  0000 C CNN
F 1 "330R" V 3995 6500 50  0000 C CNN
F 2 "Resistor_SMD:R_0805_2012Metric" H 4100 6500 50  0001 C CNN
F 3 "~" H 4100 6500 50  0001 C CNN
F 4 "C17630" H 4100 6500 50  0001 C CNN "LCSC"
F 5 "Uniroyal Elec" H 4100 6500 50  0001 C CNN "MFR"
F 6 "0805W8F3300T5E" H 4100 6500 50  0001 C CNN "MPN"
	1    4100 6500
	0    1    1    0   
$EndComp
Wire Wire Line
	3800 5900 4000 5900
Wire Wire Line
	4400 5900 4400 6450
Wire Wire Line
	4350 6200 4350 6550
Wire Wire Line
	4350 6550 4550 6550
Wire Wire Line
	3800 6200 4000 6200
Wire Wire Line
	4200 6200 4350 6200
Wire Wire Line
	4200 5900 4400 5900
Wire Wire Line
	4200 6500 4300 6500
Wire Wire Line
	4300 6500 4300 6650
Wire Wire Line
	4300 6650 4550 6650
Wire Wire Line
	4300 6800 4300 6750
Wire Wire Line
	4300 6750 4550 6750
Wire Wire Line
	4500 6250 4500 6950
Wire Wire Line
	4500 6950 4550 6950
Wire Wire Line
	4500 5950 4500 6050
Wire Wire Line
	3800 6500 4000 6500
Wire Wire Line
	3800 6800 4300 6800
Text GLabel 4500 3400 0    50   Input ~ 0
~RST
Text GLabel 4500 3600 0    50   Input ~ 0
SCK
Text GLabel 4500 4000 0    50   Input ~ 0
MOSI
Text GLabel 4500 3800 0    50   Input ~ 0
MISO
$Comp
L power:+5V #PWR013
U 1 1 5F484786
P 7300 2850
F 0 "#PWR013" H 7300 2700 50  0001 C CNN
F 1 "+5V" H 7315 3023 50  0000 C CNN
F 2 "" H 7300 2850 50  0001 C CNN
F 3 "" H 7300 2850 50  0001 C CNN
	1    7300 2850
	1    0    0    -1  
$EndComp
Wire Wire Line
	7150 2950 7300 2950
Wire Wire Line
	7300 2950 7300 2850
$Comp
L power:GND #PWR018
U 1 1 5F49000A
P 6100 3100
F 0 "#PWR018" H 6100 2850 50  0001 C CNN
F 1 "GND" H 6105 2927 50  0000 C CNN
F 2 "" H 6100 3100 50  0001 C CNN
F 3 "" H 6100 3100 50  0001 C CNN
	1    6100 3100
	1    0    0    -1  
$EndComp
Wire Wire Line
	6100 3100 6100 2950
Wire Wire Line
	6100 2950 6250 2950
Wire Wire Line
	4500 3400 4800 3400
Wire Wire Line
	4500 3600 5300 3600
Wire Wire Line
	4500 3800 5300 3800
Wire Wire Line
	4500 4000 5300 4000
$Comp
L Device:R_Small R2
U 1 1 5F4D4576
P 4800 3150
F 0 "R2" H 4859 3196 50  0000 L CNN
F 1 "10k" H 4859 3105 50  0000 L CNN
F 2 "Resistor_SMD:R_0805_2012Metric" H 4800 3150 50  0001 C CNN
F 3 "~" H 4800 3150 50  0001 C CNN
F 4 "C17414" H 4800 3150 50  0001 C CNN "LCSC"
F 5 "Uniroyal Elec" H 4800 3150 50  0001 C CNN "MFR"
F 6 "0805W8F1002T5E" H 4800 3150 50  0001 C CNN "MPN"
	1    4800 3150
	1    0    0    -1  
$EndComp
$Comp
L Device:C_Small C9
U 1 1 5F4D6CDA
P 4800 4200
F 0 "C9" H 4892 4246 50  0000 L CNN
F 1 "100n" H 4892 4155 50  0000 L CNN
F 2 "Capacitor_SMD:C_0603_1608Metric" H 4800 4200 50  0001 C CNN
F 3 "~" H 4800 4200 50  0001 C CNN
F 4 "C14663" H 4800 4200 50  0001 C CNN "LCSC"
F 5 "YAGEO" H 4800 4200 50  0001 C CNN "MFR"
F 6 "CC0603KRX7R9BB104" H 4800 4200 50  0001 C CNN "MPN"
	1    4800 4200
	1    0    0    -1  
$EndComp
Wire Wire Line
	4800 4100 4800 3400
Connection ~ 4800 3400
Wire Wire Line
	4800 3400 5300 3400
Wire Wire Line
	4800 3250 4800 3400
$Comp
L power:+3V3 #PWR015
U 1 1 5F4EF226
P 4800 2950
F 0 "#PWR015" H 4800 2800 50  0001 C CNN
F 1 "+3V3" H 4815 3123 50  0000 C CNN
F 2 "" H 4800 2950 50  0001 C CNN
F 3 "" H 4800 2950 50  0001 C CNN
	1    4800 2950
	1    0    0    -1  
$EndComp
Wire Wire Line
	4800 2950 4800 3050
$Comp
L power:GND #PWR027
U 1 1 5F4FA02C
P 4800 4400
F 0 "#PWR027" H 4800 4150 50  0001 C CNN
F 1 "GND" H 4805 4227 50  0000 C CNN
F 2 "" H 4800 4400 50  0001 C CNN
F 3 "" H 4800 4400 50  0001 C CNN
	1    4800 4400
	1    0    0    -1  
$EndComp
Wire Wire Line
	4800 4400 4800 4300
Wire Notes Line
	6000 900  6000 2500
Wire Notes Line
	6800 5650 6800 7750
Wire Wire Line
	6350 3550 6550 3550
Wire Notes Line
	10950 6350 7850 6350
NoConn ~ 9300 5350
NoConn ~ 9300 5250
Wire Wire Line
	9450 5150 9300 5150
Wire Wire Line
	9300 5050 9450 5050
Wire Wire Line
	9450 4950 9300 4950
Text GLabel 9450 4950 2    50   Input ~ 0
TX
Text GLabel 9450 5050 2    50   Input ~ 0
RX
Text GLabel 9450 5150 2    50   Input ~ 0
INT0
Connection ~ 9900 4350
Connection ~ 9900 3850
Wire Wire Line
	10550 3850 10550 4100
Wire Wire Line
	10550 4100 10600 4100
Wire Wire Line
	10550 4100 10550 4350
Connection ~ 10550 4100
Wire Wire Line
	9550 4350 9900 4350
Wire Wire Line
	9800 3000 9800 3050
Wire Wire Line
	9800 2750 9800 2800
$Comp
L power:+3V3 #PWR010
U 1 1 5F6121CA
P 9800 2750
F 0 "#PWR010" H 9800 2600 50  0001 C CNN
F 1 "+3V3" H 9815 2923 50  0000 C CNN
F 2 "" H 9800 2750 50  0001 C CNN
F 3 "" H 9800 2750 50  0001 C CNN
	1    9800 2750
	1    0    0    -1  
$EndComp
Wire Wire Line
	8700 2750 8700 2850
Wire Wire Line
	9700 4750 9300 4750
Text GLabel 9700 4750 2    50   Input ~ 0
~RST
Wire Wire Line
	9500 3750 9300 3750
Wire Wire Line
	9300 3650 9500 3650
Wire Wire Line
	9500 3550 9300 3550
Text GLabel 9500 3750 2    50   Input ~ 0
SCK
Text GLabel 9500 3650 2    50   Input ~ 0
MISO
Text GLabel 9500 3550 2    50   Input ~ 0
MOSI
Wire Wire Line
	9500 3450 9300 3450
Text GLabel 9500 3450 2    50   Input ~ 0
NSS
NoConn ~ 9300 5650
NoConn ~ 9300 5550
NoConn ~ 9300 5450
NoConn ~ 9300 4650
NoConn ~ 9300 4550
NoConn ~ 9300 4450
NoConn ~ 9300 4350
NoConn ~ 9300 4250
NoConn ~ 9300 4150
NoConn ~ 9300 3350
NoConn ~ 9300 3250
NoConn ~ 8100 3550
NoConn ~ 8100 3450
Wire Wire Line
	9300 3850 9900 3850
Wire Wire Line
	9550 3950 9550 4350
Wire Wire Line
	8700 6050 8700 5950
Wire Wire Line
	9550 3950 9300 3950
$Comp
L Device:C_Small C8
U 1 1 5E7E0DC4
P 10250 3850
F 0 "C8" V 10502 3850 50  0000 C CNN
F 1 "30p" V 10411 3850 50  0000 C CNN
F 2 "Capacitor_SMD:C_0603_1608Metric" H 10288 3700 50  0001 C CNN
F 3 "" H 10250 3850 50  0001 C CNN
F 4 "Samsung Electro-Mechanics" H 2700 200 50  0001 C CNN "MFR"
F 5 "CL10C300JB8NNNC" H 2700 200 50  0001 C CNN "MPN"
F 6 "Mouser" H 2700 200 50  0001 C CNN "SPR"
F 7 "" H 2700 200 50  0001 C CNN "SPN"
F 8 "-" H 2700 200 50  0001 C CNN "SPURL"
F 9 "C22397" H 10250 3850 50  0001 C CNN "LCSC"
	1    10250 3850
	0    -1   -1   0   
$EndComp
$Comp
L Device:C_Small C12
U 1 1 5E7E3171
P 10250 4350
F 0 "C12" V 10400 4350 50  0000 C CNN
F 1 "30p" V 10100 4350 50  0000 C CNN
F 2 "Capacitor_SMD:C_0603_1608Metric" H 10288 4200 50  0001 C CNN
F 3 "" H 10250 4350 50  0001 C CNN
F 4 "Samsung Electro-Mechanics" H 2700 150 50  0001 C CNN "MFR"
F 5 "CL10C300JB8NNNC" H 2700 150 50  0001 C CNN "MPN"
F 6 "Mouser" H 2700 150 50  0001 C CNN "SPR"
F 7 "" H 2700 150 50  0001 C CNN "SPN"
F 8 "-" H 2700 150 50  0001 C CNN "SPURL"
F 9 "C22397" H 10250 4350 50  0001 C CNN "LCSC"
	1    10250 4350
	0    -1   -1   0   
$EndComp
$Comp
L power:GND #PWR025
U 1 1 5E842732
P 10600 4100
F 0 "#PWR025" H 10600 3850 50  0001 C CNN
F 1 "GND" V 10605 3972 50  0000 R CNN
F 2 "" H 10600 4100 50  0001 C CNN
F 3 "" H 10600 4100 50  0001 C CNN
	1    10600 4100
	0    -1   -1   0   
$EndComp
$Comp
L MCU_Microchip_ATmega:ATmega328P-AU U4
U 1 1 5E5ABF0C
P 8700 4450
F 0 "U4" H 8250 5900 50  0000 C CNN
F 1 "ATmega328P-AU" H 9100 3000 50  0000 C CNN
F 2 "Package_QFP:TQFP-32_7x7mm_P0.8mm" H 8700 4450 50  0001 C CIN
F 3 "http://ww1.microchip.com/downloads/en/DeviceDoc/ATmega328_P%20AVR%20MCU%20with%20picoPower%20Technology%20Data%20Sheet%2040001984A.pdf" H 8700 4450 50  0001 C CNN
F 4 "Microchip Tech" H 3150 150 50  0001 C CNN "MFR"
F 5 "ATMEGA328P-AU" H 3150 150 50  0001 C CNN "MPN"
F 6 "-" H 3150 150 50  0001 C CNN "SPR"
F 7 "-" H 3150 150 50  0001 C CNN "SPN"
F 8 "-" H 3150 150 50  0001 C CNN "SPURL"
F 9 "Microchip Tech" H 8700 4450 50  0001 C CNN "LCSC"
	1    8700 4450
	1    0    0    -1  
$EndComp
$Comp
L power:GND #PWR034
U 1 1 5E852B2F
P 8700 6050
F 0 "#PWR034" H 8700 5800 50  0001 C CNN
F 1 "GND" H 8705 5877 50  0000 C CNN
F 2 "" H 8700 6050 50  0001 C CNN
F 3 "" H 8700 6050 50  0001 C CNN
	1    8700 6050
	1    0    0    -1  
$EndComp
$Comp
L power:GND #PWR017
U 1 1 5E77DCEE
P 9800 3050
F 0 "#PWR017" H 9800 2800 50  0001 C CNN
F 1 "GND" H 9805 2877 50  0000 C CNN
F 2 "" H 9800 3050 50  0001 C CNN
F 3 "" H 9800 3050 50  0001 C CNN
	1    9800 3050
	1    0    0    -1  
$EndComp
$Comp
L power:+3V3 #PWR09
U 1 1 5E673DB1
P 8700 2750
F 0 "#PWR09" H 8700 2600 50  0001 C CNN
F 1 "+3V3" H 8715 2923 50  0000 C CNN
F 2 "" H 8700 2750 50  0001 C CNN
F 3 "" H 8700 2750 50  0001 C CNN
	1    8700 2750
	1    0    0    -1  
$EndComp
Wire Notes Line
	550  2500 10950 2500
Wire Notes Line
	7850 2500 7850 6350
Wire Notes Line
	4100 2500 4100 5600
Wire Notes Line
	7800 6350 6800 6350
Wire Notes Line
	550  900  10950 900 
Wire Notes Line
	10950 900  10950 6350
Wire Wire Line
	9900 3850 9900 4000
Wire Wire Line
	9900 4200 9900 4350
Wire Wire Line
	9900 4350 10150 4350
Wire Wire Line
	10350 4350 10550 4350
Wire Wire Line
	10350 3850 10550 3850
Wire Wire Line
	9900 3850 10150 3850
Text Notes 650  2450 0    50   ~ 0
USB Connector and 3V3 Regulator
Text Notes 650  6150 0    50   ~ 0
FT232RL with peripherals
Text Notes 8850 6300 0    50   ~ 0
C10 and C12 should be between 30p and 35p,\ncalculated as C = 2CL - CS, where CL is load \ncapacitance of Y1 (20p) and CS is stray capacitance \nat the XTAL pins (5p-10p)\n
Text Notes 7900 6300 0    50   ~ 0
MCU
Text Notes 9300 5850 0    50   ~ 0
If analog comparator of MCU is not used,\nAVCC must be tied to VCC (here +3V3)
Text Notes 3550 7700 0    50   ~ 0
RFM95 with peripherals
Text Notes 5150 7700 0    50   ~ 0
Resistors on SPI bus are for protection of\nthe programmer, according to AVR042\nthe typical value can be 330R
Text Notes 4150 5550 0    50   ~ 0
TXB0104D and peripherals
Text Notes 3500 2450 0    50   ~ 0
Maximum capacitance of the VBUS line must be less than 10uF
$Comp
L Device:C_Small C4
U 1 1 5FAD27D9
P 9800 2900
F 0 "C4" H 9892 2946 50  0000 L CNN
F 1 "100n" H 9892 2855 50  0000 L CNN
F 2 "Capacitor_SMD:C_0603_1608Metric" H 9800 2900 50  0001 C CNN
F 3 "~" H 9800 2900 50  0001 C CNN
F 4 "C14663" H 9800 2900 50  0001 C CNN "LCSC"
F 5 "YAGEO" H 9800 2900 50  0001 C CNN "MFR"
F 6 "CC0603KRX7R9BB104" H 9800 2900 50  0001 C CNN "MPN"
	1    9800 2900
	1    0    0    -1  
$EndComp
$Comp
L Device:C_Small C13
U 1 1 5FADED8F
P 6400 6050
F 0 "C13" H 6492 6096 50  0000 L CNN
F 1 "100n" H 6492 6005 50  0000 L CNN
F 2 "Capacitor_SMD:C_0603_1608Metric" H 6400 6050 50  0001 C CNN
F 3 "~" H 6400 6050 50  0001 C CNN
F 4 "C14663" H 6400 6050 50  0001 C CNN "LCSC"
F 5 "YAGEO" H 6400 6050 50  0001 C CNN "MFR"
F 6 "CC0603KRX7R9BB104" H 6400 6050 50  0001 C CNN "MPN"
	1    6400 6050
	1    0    0    -1  
$EndComp
$Comp
L Device:Crystal_Small Y1
U 1 1 5FAF5B23
P 9900 4100
F 0 "Y1" V 9854 4188 50  0000 L CNN
F 1 "Crystal_Small" V 9945 4188 50  0001 L CNN
F 2 "Crystal:Crystal_SMD_5032-2Pin_5.0x3.2mm" H 9900 4100 50  0001 C CNN
F 3 "https://datasheet.lcsc.com/szlcsc/1903061615_Yangxing-Tech-X50328MSB2GI_C115962.pdf" H 9900 4100 50  0001 C CNN
F 4 "Crystal 8MHz" V 10250 3850 50  0000 L CNN "id"
F 5 "C115962" H 9900 4100 50  0001 C CNN "LCSC"
F 6 "Yangxing Tech" H 9900 4100 50  0001 C CNN "MFR"
F 7 "X50328MSB2GI" H 9900 4100 50  0001 C CNN "MPN"
	1    9900 4100
	0    1    1    0   
$EndComp
$Comp
L Logic_LevelTranslator:TXB0104PW U2
U 1 1 5FB0289E
P 5700 3700
F 0 "U2" H 5450 4350 50  0000 C CNN
F 1 "TXB0104PW" H 5950 3050 50  0000 C CNN
F 2 "Package_SO:TSSOP-14_4.4x5mm_P0.65mm" H 5700 2950 50  0001 C CNN
F 3 "http://www.ti.com/lit/ds/symlink/txb0104.pdf" H 5810 3795 50  0001 C CNN
F 4 "C60708" H 5700 3700 50  0001 C CNN "LCSC"
F 5 "Texas Instruments" H 5700 3700 50  0001 C CNN "MFR"
F 6 "TXB0104PWR" H 5700 3700 50  0001 C CNN "MPN"
	1    5700 3700
	1    0    0    -1  
$EndComp
Wire Notes Line
	4100 5600 7850 5600
Wire Notes Line
	3550 5600 3550 7700
Wire Notes Line
	3550 5600 4050 5600
Wire Notes Line
	550  900  550  7700
Wire Notes Line
	3550 6250 550  6250
Wire Notes Line
	550  7700 6800 7700
Text GLabel 3200 3500 2    50   Input ~ 0
TX
Text GLabel 3200 3600 2    50   Input ~ 0
RX
$Comp
L power:+5V #PWR016
U 1 1 5EFED3F4
P 2400 3050
F 0 "#PWR016" H 2400 2900 50  0001 C CNN
F 1 "+5V" H 2415 3223 50  0000 C CNN
F 2 "" H 2400 3050 50  0001 C CNN
F 3 "" H 2400 3050 50  0001 C CNN
	1    2400 3050
	1    0    0    -1  
$EndComp
$Comp
L Device:R_Small R4
U 1 1 5EFED3FD
P 3700 4400
F 0 "R4" V 3504 4400 50  0000 C CNN
F 1 "1k" V 3595 4400 50  0000 C CNN
F 2 "Resistor_SMD:R_0805_2012Metric" H 3700 4400 50  0001 C CNN
F 3 "~" H 3700 4400 50  0001 C CNN
F 4 "C17414" H 3700 4400 50  0001 C CNN "LCSC"
F 5 "Uniroyal Elec" H 3700 4400 50  0001 C CNN "MFR"
F 6 "0805W8F1002T5E" H 3700 4400 50  0001 C CNN "MPN"
	1    3700 4400
	-1   0    0    1   
$EndComp
$Comp
L power:GND #PWR030
U 1 1 5EFED403
P 2100 5400
F 0 "#PWR030" H 2100 5150 50  0001 C CNN
F 1 "GND" H 2105 5227 50  0000 C CNN
F 2 "" H 2100 5400 50  0001 C CNN
F 3 "" H 2100 5400 50  0001 C CNN
	1    2100 5400
	1    0    0    -1  
$EndComp
$Comp
L Device:LED_Small D3
U 1 1 5EFED40B
P 3700 4150
F 0 "D3" V 3746 4080 50  0000 R CNN
F 1 "TX" V 3655 4080 50  0000 R CNN
F 2 "LED_SMD:LED_0805_2012Metric" V 3700 4150 50  0001 C CNN
F 3 "~" V 3700 4150 50  0001 C CNN
F 4 "C2293" H 3700 4150 50  0001 C CNN "LCSC"
F 5 "Hubei KENTO Elec" H 3700 4150 50  0001 C CNN "MFR"
	1    3700 4150
	0    -1   -1   0   
$EndComp
$Comp
L Device:LED_Small D2
U 1 1 5EFED413
P 3450 4150
F 0 "D2" V 3496 4080 50  0000 R CNN
F 1 "RX" V 3405 4080 50  0000 R CNN
F 2 "LED_SMD:LED_0805_2012Metric" V 3450 4150 50  0001 C CNN
F 3 "~" V 3450 4150 50  0001 C CNN
F 4 "C2297" H 3450 4150 50  0001 C CNN "LCSC"
F 5 "Hubei KENTO Elec" H 3450 4150 50  0001 C CNN "MFR"
	1    3450 4150
	0    -1   -1   0   
$EndComp
$Comp
L power:+5V #PWR026
U 1 1 5EFED419
P 1500 4200
F 0 "#PWR026" H 1500 4050 50  0001 C CNN
F 1 "+5V" H 1515 4373 50  0000 C CNN
F 2 "" H 1500 4200 50  0001 C CNN
F 3 "" H 1500 4200 50  0001 C CNN
	1    1500 4200
	1    0    0    -1  
$EndComp
Text GLabel 1400 3900 0    50   Input ~ 0
D-
Text GLabel 1400 3800 0    50   Input ~ 0
D+
$Comp
L power:GND #PWR028
U 1 1 5EFED423
P 800 4450
F 0 "#PWR028" H 800 4200 50  0001 C CNN
F 1 "GND" H 805 4277 50  0000 C CNN
F 2 "" H 800 4450 50  0001 C CNN
F 3 "" H 800 4450 50  0001 C CNN
	1    800  4450
	1    0    0    -1  
$EndComp
Wire Wire Line
	800  4100 800  4150
Wire Wire Line
	800  4350 800  4450
$Comp
L power:+5V #PWR024
U 1 1 5EFED42B
P 800 4100
F 0 "#PWR024" H 800 3950 50  0001 C CNN
F 1 "+5V" H 815 4273 50  0000 C CNN
F 2 "" H 800 4100 50  0001 C CNN
F 3 "" H 800 4100 50  0001 C CNN
	1    800  4100
	1    0    0    -1  
$EndComp
$Comp
L Device:C_Small C10
U 1 1 5EFED437
P 800 4250
F 0 "C10" H 685 4204 50  0000 R CNN
F 1 "100n" H 685 4295 50  0000 R CNN
F 2 "Capacitor_SMD:C_0603_1608Metric" H 838 4100 50  0001 C CNN
F 3 "~" H 800 4250 50  0001 C CNN
F 4 "YAGEO" H -9150 2600 50  0001 C CNN "MFR"
F 5 "CC0603KRX7R9BB104" H -9150 2600 50  0001 C CNN "MPN"
F 6 "Mouser" H -9150 2600 50  0001 C CNN "SPR"
F 7 "80-C0805C104J4R " H -9150 2600 50  0001 C CNN "SPN"
F 8 "-" H -9150 2600 50  0001 C CNN "SPURL"
F 9 "C14663" H 800 4250 50  0001 C CNN "LCSC"
	1    800  4250
	-1   0    0    1   
$EndComp
Wire Wire Line
	1200 4150 1200 4100
Wire Wire Line
	1200 4100 800  4100
Connection ~ 800  4100
Wire Wire Line
	1200 4350 1200 4450
Wire Wire Line
	1200 4450 800  4450
Connection ~ 800  4450
$Comp
L Device:C_Small C5
U 1 1 5EFED44F
P 1250 3500
F 0 "C5" V 1050 3550 50  0000 R CNN
F 1 "100n" V 1150 3600 50  0000 R CNN
F 2 "Capacitor_SMD:C_0603_1608Metric" H 1288 3350 50  0001 C CNN
F 3 "~" H 1250 3500 50  0001 C CNN
F 4 "YAGEO" H -8700 1850 50  0001 C CNN "MFR"
F 5 "CC0603KRX7R9BB104" H -8700 1850 50  0001 C CNN "MPN"
F 6 "Mouser" H -8700 1850 50  0001 C CNN "SPR"
F 7 "80-C0805C104J4R " H -8700 1850 50  0001 C CNN "SPN"
F 8 "-" H -8700 1850 50  0001 C CNN "SPURL"
F 9 "C14663" H 1250 3500 50  0001 C CNN "LCSC"
	1    1250 3500
	0    1    1    0   
$EndComp
Wire Wire Line
	3200 3600 3100 3600
Wire Wire Line
	3200 3500 3100 3500
$Comp
L Device:CP_Small C11
U 1 1 5EFED45F
P 1200 4250
F 0 "C11" H 1318 4296 50  0000 L CNN
F 1 "4.7u" H 1318 4205 50  0000 L CNN
F 2 "Capacitor_Tantalum_SMD:CP_EIA-3216-18_Kemet-A" H 1238 4100 50  0001 C CNN
F 3 "~" H 1200 4250 50  0001 C CNN
F 4 "Hunan Xiangyee in S&T" H -2950 -900 50  0001 C CNN "MFR"
F 5 "CA45-A025K475T" H -2950 -900 50  0001 C CNN "MPN"
F 6 "Mouser" H -2950 -900 50  0001 C CNN "SPR"
F 7 "667-EEE-HBE100UAR" H -2950 -900 50  0001 C CNN "SPN"
F 8 "-" H -2950 -900 50  0001 C CNN "SPURL"
F 9 "C161817" H 1200 4250 50  0001 C CNN "LCSC"
	1    1200 4250
	1    0    0    -1  
$EndComp
Wire Wire Line
	1400 3800 1500 3800
Wire Wire Line
	1500 3900 1400 3900
Wire Wire Line
	2200 3200 2200 3150
Wire Wire Line
	2200 3150 1400 3150
Wire Wire Line
	1400 3150 1400 3500
Wire Wire Line
	1400 3500 1500 3500
Wire Wire Line
	1400 3500 1350 3500
Connection ~ 1400 3500
Wire Wire Line
	3450 4050 3450 4000
Wire Wire Line
	3450 4000 3600 4000
Wire Wire Line
	3700 4000 3700 4050
Wire Wire Line
	2100 5400 2100 5300
Wire Wire Line
	2100 5300 2300 5300
Wire Wire Line
	2500 5300 2500 5200
Connection ~ 2100 5300
Wire Wire Line
	2100 5300 2100 5200
Wire Wire Line
	2400 5200 2400 5300
Connection ~ 2400 5300
Wire Wire Line
	2400 5300 2500 5300
Wire Wire Line
	2300 5200 2300 5300
Connection ~ 2300 5300
Wire Wire Line
	2300 5300 2400 5300
Wire Wire Line
	1500 4900 1450 4900
Wire Wire Line
	1450 4900 1450 5300
Wire Wire Line
	1450 5300 2100 5300
$Comp
L power:GND #PWR019
U 1 1 5EFED47E
P 1050 3600
F 0 "#PWR019" H 1050 3350 50  0001 C CNN
F 1 "GND" H 1055 3427 50  0000 C CNN
F 2 "" H 1050 3600 50  0001 C CNN
F 3 "" H 1050 3600 50  0001 C CNN
	1    1050 3600
	1    0    0    -1  
$EndComp
Wire Wire Line
	1050 3600 1050 3500
Wire Wire Line
	1050 3500 1150 3500
Wire Wire Line
	2400 3050 2400 3200
Wire Wire Line
	3100 4500 3450 4500
Wire Wire Line
	3100 4600 3700 4600
Wire Wire Line
	3700 4600 3700 4500
Wire Wire Line
	3450 4300 3450 4250
Wire Wire Line
	3700 4250 3700 4300
Text GLabel 1400 3100 1    50   Input ~ 0
VCCIO
Text GLabel 3600 3950 1    50   Input ~ 0
VCCIO
Wire Wire Line
	3600 3950 3600 4000
Connection ~ 3600 4000
Wire Wire Line
	3600 4000 3700 4000
Wire Wire Line
	1400 3100 1400 3150
Connection ~ 1400 3150
NoConn ~ 3100 3800
NoConn ~ 3100 4000
NoConn ~ 3100 4100
NoConn ~ 3100 4200
NoConn ~ 3100 4700
NoConn ~ 3100 4800
NoConn ~ 3100 4900
NoConn ~ 1500 4400
NoConn ~ 1500 4600
$Comp
L Device:R_Small R3
U 1 1 5EFED49F
P 3450 4400
F 0 "R3" V 3254 4400 50  0000 C CNN
F 1 "1k" V 3345 4400 50  0000 C CNN
F 2 "Resistor_SMD:R_0805_2012Metric" H 3450 4400 50  0001 C CNN
F 3 "~" H 3450 4400 50  0001 C CNN
F 4 "C17414" H 3450 4400 50  0001 C CNN "LCSC"
F 5 "Uniroyal Elec" H 3450 4400 50  0001 C CNN "MFR"
F 6 "0805W8F1002T5E" H 3450 4400 50  0001 C CNN "MPN"
	1    3450 4400
	1    0    0    -1  
$EndComp
$Comp
L Interface_USB:FT232RL U3
U 1 1 5EFED443
P 2300 4200
F 0 "U3" H 1700 5100 50  0000 C CNN
F 1 "FT232RL" H 2800 3300 50  0000 C CNN
F 2 "Package_SO:SSOP-28_5.3x10.2mm_P0.65mm" H 3400 3300 50  0001 C CNN
F 3 "https://www.ftdichip.com/Support/Documents/DataSheets/ICs/DS_FT232R.pdf" H 2300 4200 50  0001 C CNN
F 4 "C8690" H 2300 4200 50  0001 C CNN "LCSC"
F 5 "Future Designs" H 2300 4200 50  0001 C CNN "MFR"
F 6 "FT232RL-REEL" H 2300 4200 50  0001 C CNN "MPN"
	1    2300 4200
	1    0    0    -1  
$EndComp
NoConn ~ 3100 3700
NoConn ~ 3100 3900
Wire Wire Line
	1100 1500 1500 1500
Wire Wire Line
	1100 1600 1500 1600
Wire Wire Line
	6850 3800 6850 3450
Wire Wire Line
	6100 3800 6850 3800
Wire Wire Line
	6750 4000 6100 4000
Wire Wire Line
	6750 3450 6750 4000
Wire Wire Line
	8800 2950 8800 2850
Wire Wire Line
	8800 2850 8700 2850
Connection ~ 8700 2850
Wire Wire Line
	8700 2850 8700 2950
NoConn ~ 8100 3250
$EndSCHEMATC
