G04 #@! TF.GenerationSoftware,KiCad,Pcbnew,5.1.6*
G04 #@! TF.CreationDate,2020-06-28T22:02:06+02:00*
G04 #@! TF.ProjectId,lora_node,6c6f7261-5f6e-46f6-9465-2e6b69636164,rev?*
G04 #@! TF.SameCoordinates,Original*
G04 #@! TF.FileFunction,Soldermask,Bot*
G04 #@! TF.FilePolarity,Negative*
%FSLAX46Y46*%
G04 Gerber Fmt 4.6, Leading zero omitted, Abs format (unit mm)*
G04 Created by KiCad (PCBNEW 5.1.6) date 2020-06-28 22:02:06*
%MOMM*%
%LPD*%
G01*
G04 APERTURE LIST*
%ADD10C,0.100000*%
G04 APERTURE END LIST*
D10*
G36*
X107443922Y-89473405D02*
G01*
X107566448Y-89510573D01*
X107566451Y-89510575D01*
X107566452Y-89510575D01*
X107679369Y-89570930D01*
X107778344Y-89652156D01*
X107859570Y-89751131D01*
X107917343Y-89859217D01*
X107919927Y-89864052D01*
X107957095Y-89986578D01*
X107969645Y-90114000D01*
X107957095Y-90241422D01*
X107919927Y-90363948D01*
X107919925Y-90363951D01*
X107919925Y-90363952D01*
X107859570Y-90476869D01*
X107778344Y-90575844D01*
X107679369Y-90657070D01*
X107566452Y-90717425D01*
X107566448Y-90717427D01*
X107443922Y-90754595D01*
X107348432Y-90764000D01*
X106584568Y-90764000D01*
X106489078Y-90754595D01*
X106366552Y-90717427D01*
X106366548Y-90717425D01*
X106253631Y-90657070D01*
X106154656Y-90575844D01*
X106073430Y-90476869D01*
X106013075Y-90363952D01*
X106013075Y-90363951D01*
X106013073Y-90363948D01*
X105975905Y-90241422D01*
X105963355Y-90114000D01*
X105975905Y-89986578D01*
X106013073Y-89864052D01*
X106015657Y-89859217D01*
X106073430Y-89751131D01*
X106154656Y-89652156D01*
X106253631Y-89570930D01*
X106366548Y-89510575D01*
X106366549Y-89510575D01*
X106366552Y-89510573D01*
X106489078Y-89473405D01*
X106584568Y-89464000D01*
X107348432Y-89464000D01*
X107443922Y-89473405D01*
G37*
G36*
X109842650Y-88358855D02*
G01*
X109892560Y-88368783D01*
X110033600Y-88427203D01*
X110160535Y-88512019D01*
X110268481Y-88619965D01*
X110353297Y-88746900D01*
X110411717Y-88887940D01*
X110441500Y-89037671D01*
X110441500Y-89190329D01*
X110411717Y-89340060D01*
X110353297Y-89481100D01*
X110268481Y-89608035D01*
X110160535Y-89715981D01*
X110033600Y-89800797D01*
X109892560Y-89859217D01*
X109842650Y-89869145D01*
X109742831Y-89889000D01*
X109590169Y-89889000D01*
X109490350Y-89869145D01*
X109440440Y-89859217D01*
X109299400Y-89800797D01*
X109172465Y-89715981D01*
X109064519Y-89608035D01*
X108979703Y-89481100D01*
X108921283Y-89340060D01*
X108891500Y-89190329D01*
X108891500Y-89037671D01*
X108921283Y-88887940D01*
X108979703Y-88746900D01*
X109064519Y-88619965D01*
X109172465Y-88512019D01*
X109299400Y-88427203D01*
X109440440Y-88368783D01*
X109490350Y-88358855D01*
X109590169Y-88339000D01*
X109742831Y-88339000D01*
X109842650Y-88358855D01*
G37*
G36*
X109842650Y-83358855D02*
G01*
X109892560Y-83368783D01*
X110033600Y-83427203D01*
X110160535Y-83512019D01*
X110268481Y-83619965D01*
X110353297Y-83746900D01*
X110411717Y-83887940D01*
X110441500Y-84037671D01*
X110441500Y-84190329D01*
X110411717Y-84340060D01*
X110353297Y-84481100D01*
X110268481Y-84608035D01*
X110160535Y-84715981D01*
X110033600Y-84800797D01*
X109892560Y-84859217D01*
X109842650Y-84869145D01*
X109742831Y-84889000D01*
X109590169Y-84889000D01*
X109490350Y-84869145D01*
X109440440Y-84859217D01*
X109299400Y-84800797D01*
X109172465Y-84715981D01*
X109064519Y-84608035D01*
X108979703Y-84481100D01*
X108921283Y-84340060D01*
X108891500Y-84190329D01*
X108891500Y-84037671D01*
X108921283Y-83887940D01*
X108979703Y-83746900D01*
X109064519Y-83619965D01*
X109172465Y-83512019D01*
X109299400Y-83427203D01*
X109440440Y-83368783D01*
X109490350Y-83358855D01*
X109590169Y-83339000D01*
X109742831Y-83339000D01*
X109842650Y-83358855D01*
G37*
G36*
X107443922Y-82473405D02*
G01*
X107566448Y-82510573D01*
X107566451Y-82510575D01*
X107566452Y-82510575D01*
X107679369Y-82570930D01*
X107778344Y-82652156D01*
X107859570Y-82751131D01*
X107919925Y-82864048D01*
X107919927Y-82864052D01*
X107957095Y-82986578D01*
X107969645Y-83114000D01*
X107957095Y-83241422D01*
X107919927Y-83363948D01*
X107919925Y-83363951D01*
X107919925Y-83363952D01*
X107859570Y-83476869D01*
X107778344Y-83575844D01*
X107679369Y-83657070D01*
X107566452Y-83717425D01*
X107566448Y-83717427D01*
X107443922Y-83754595D01*
X107348432Y-83764000D01*
X106584568Y-83764000D01*
X106489078Y-83754595D01*
X106366552Y-83717427D01*
X106366548Y-83717425D01*
X106253631Y-83657070D01*
X106154656Y-83575844D01*
X106073430Y-83476869D01*
X106013075Y-83363952D01*
X106013075Y-83363951D01*
X106013073Y-83363948D01*
X105975905Y-83241422D01*
X105963355Y-83114000D01*
X105975905Y-82986578D01*
X106013073Y-82864052D01*
X106013075Y-82864048D01*
X106073430Y-82751131D01*
X106154656Y-82652156D01*
X106253631Y-82570930D01*
X106366548Y-82510575D01*
X106366549Y-82510575D01*
X106366552Y-82510573D01*
X106489078Y-82473405D01*
X106584568Y-82464000D01*
X107348432Y-82464000D01*
X107443922Y-82473405D01*
G37*
G36*
X135644520Y-69238586D02*
G01*
X135808310Y-69306430D01*
X135955717Y-69404924D01*
X136081076Y-69530283D01*
X136179570Y-69677690D01*
X136247414Y-69841480D01*
X136282000Y-70015358D01*
X136282000Y-70192642D01*
X136247414Y-70366520D01*
X136179570Y-70530310D01*
X136081076Y-70677717D01*
X135955717Y-70803076D01*
X135808310Y-70901570D01*
X135644520Y-70969414D01*
X135470642Y-71004000D01*
X135293358Y-71004000D01*
X135119480Y-70969414D01*
X134955690Y-70901570D01*
X134808283Y-70803076D01*
X134682924Y-70677717D01*
X134584430Y-70530310D01*
X134516586Y-70366520D01*
X134482000Y-70192642D01*
X134482000Y-70015358D01*
X134516586Y-69841480D01*
X134584430Y-69677690D01*
X134682924Y-69530283D01*
X134808283Y-69404924D01*
X134955690Y-69306430D01*
X135119480Y-69238586D01*
X135293358Y-69204000D01*
X135470642Y-69204000D01*
X135644520Y-69238586D01*
G37*
G36*
X140724520Y-69238586D02*
G01*
X140888310Y-69306430D01*
X141035717Y-69404924D01*
X141161076Y-69530283D01*
X141259570Y-69677690D01*
X141327414Y-69841480D01*
X141362000Y-70015358D01*
X141362000Y-70192642D01*
X141327414Y-70366520D01*
X141259570Y-70530310D01*
X141161076Y-70677717D01*
X141035717Y-70803076D01*
X140888310Y-70901570D01*
X140724520Y-70969414D01*
X140550642Y-71004000D01*
X140373358Y-71004000D01*
X140199480Y-70969414D01*
X140035690Y-70901570D01*
X139888283Y-70803076D01*
X139762924Y-70677717D01*
X139664430Y-70530310D01*
X139596586Y-70366520D01*
X139562000Y-70192642D01*
X139562000Y-70015358D01*
X139596586Y-69841480D01*
X139664430Y-69677690D01*
X139762924Y-69530283D01*
X139888283Y-69404924D01*
X140035690Y-69306430D01*
X140199480Y-69238586D01*
X140373358Y-69204000D01*
X140550642Y-69204000D01*
X140724520Y-69238586D01*
G37*
G36*
X131003116Y-69208867D02*
G01*
X131049442Y-69222919D01*
X131092131Y-69245737D01*
X131129552Y-69276448D01*
X131160263Y-69313869D01*
X131183081Y-69356558D01*
X131197133Y-69402884D01*
X131202000Y-69452292D01*
X131202000Y-70755708D01*
X131197133Y-70805116D01*
X131183081Y-70851442D01*
X131160263Y-70894131D01*
X131129552Y-70931552D01*
X131092131Y-70962263D01*
X131049442Y-70985081D01*
X131003116Y-70999133D01*
X130953708Y-71004000D01*
X129650292Y-71004000D01*
X129600884Y-70999133D01*
X129554558Y-70985081D01*
X129511869Y-70962263D01*
X129474448Y-70931552D01*
X129443737Y-70894131D01*
X129420919Y-70851442D01*
X129406867Y-70805116D01*
X129402000Y-70755708D01*
X129402000Y-69452292D01*
X129406867Y-69402884D01*
X129420919Y-69356558D01*
X129443737Y-69313869D01*
X129474448Y-69276448D01*
X129511869Y-69245737D01*
X129554558Y-69222919D01*
X129600884Y-69208867D01*
X129650292Y-69204000D01*
X130953708Y-69204000D01*
X131003116Y-69208867D01*
G37*
G36*
X133104520Y-69238586D02*
G01*
X133268310Y-69306430D01*
X133415717Y-69404924D01*
X133541076Y-69530283D01*
X133639570Y-69677690D01*
X133707414Y-69841480D01*
X133742000Y-70015358D01*
X133742000Y-70192642D01*
X133707414Y-70366520D01*
X133639570Y-70530310D01*
X133541076Y-70677717D01*
X133415717Y-70803076D01*
X133268310Y-70901570D01*
X133104520Y-70969414D01*
X132930642Y-71004000D01*
X132753358Y-71004000D01*
X132579480Y-70969414D01*
X132415690Y-70901570D01*
X132268283Y-70803076D01*
X132142924Y-70677717D01*
X132044430Y-70530310D01*
X131976586Y-70366520D01*
X131942000Y-70192642D01*
X131942000Y-70015358D01*
X131976586Y-69841480D01*
X132044430Y-69677690D01*
X132142924Y-69530283D01*
X132268283Y-69404924D01*
X132415690Y-69306430D01*
X132579480Y-69238586D01*
X132753358Y-69204000D01*
X132930642Y-69204000D01*
X133104520Y-69238586D01*
G37*
G36*
X138184520Y-69238586D02*
G01*
X138348310Y-69306430D01*
X138495717Y-69404924D01*
X138621076Y-69530283D01*
X138719570Y-69677690D01*
X138787414Y-69841480D01*
X138822000Y-70015358D01*
X138822000Y-70192642D01*
X138787414Y-70366520D01*
X138719570Y-70530310D01*
X138621076Y-70677717D01*
X138495717Y-70803076D01*
X138348310Y-70901570D01*
X138184520Y-70969414D01*
X138010642Y-71004000D01*
X137833358Y-71004000D01*
X137659480Y-70969414D01*
X137495690Y-70901570D01*
X137348283Y-70803076D01*
X137222924Y-70677717D01*
X137124430Y-70530310D01*
X137056586Y-70366520D01*
X137022000Y-70192642D01*
X137022000Y-70015358D01*
X137056586Y-69841480D01*
X137124430Y-69677690D01*
X137222924Y-69530283D01*
X137348283Y-69404924D01*
X137495690Y-69306430D01*
X137659480Y-69238586D01*
X137833358Y-69204000D01*
X138010642Y-69204000D01*
X138184520Y-69238586D01*
G37*
G36*
X138184520Y-66698586D02*
G01*
X138348310Y-66766430D01*
X138495717Y-66864924D01*
X138621076Y-66990283D01*
X138719570Y-67137690D01*
X138787414Y-67301480D01*
X138822000Y-67475358D01*
X138822000Y-67652642D01*
X138787414Y-67826520D01*
X138719570Y-67990310D01*
X138621076Y-68137717D01*
X138495717Y-68263076D01*
X138348310Y-68361570D01*
X138184520Y-68429414D01*
X138010642Y-68464000D01*
X137833358Y-68464000D01*
X137659480Y-68429414D01*
X137495690Y-68361570D01*
X137348283Y-68263076D01*
X137222924Y-68137717D01*
X137124430Y-67990310D01*
X137056586Y-67826520D01*
X137022000Y-67652642D01*
X137022000Y-67475358D01*
X137056586Y-67301480D01*
X137124430Y-67137690D01*
X137222924Y-66990283D01*
X137348283Y-66864924D01*
X137495690Y-66766430D01*
X137659480Y-66698586D01*
X137833358Y-66664000D01*
X138010642Y-66664000D01*
X138184520Y-66698586D01*
G37*
G36*
X135644520Y-66698586D02*
G01*
X135808310Y-66766430D01*
X135955717Y-66864924D01*
X136081076Y-66990283D01*
X136179570Y-67137690D01*
X136247414Y-67301480D01*
X136282000Y-67475358D01*
X136282000Y-67652642D01*
X136247414Y-67826520D01*
X136179570Y-67990310D01*
X136081076Y-68137717D01*
X135955717Y-68263076D01*
X135808310Y-68361570D01*
X135644520Y-68429414D01*
X135470642Y-68464000D01*
X135293358Y-68464000D01*
X135119480Y-68429414D01*
X134955690Y-68361570D01*
X134808283Y-68263076D01*
X134682924Y-68137717D01*
X134584430Y-67990310D01*
X134516586Y-67826520D01*
X134482000Y-67652642D01*
X134482000Y-67475358D01*
X134516586Y-67301480D01*
X134584430Y-67137690D01*
X134682924Y-66990283D01*
X134808283Y-66864924D01*
X134955690Y-66766430D01*
X135119480Y-66698586D01*
X135293358Y-66664000D01*
X135470642Y-66664000D01*
X135644520Y-66698586D01*
G37*
G36*
X133104520Y-66698586D02*
G01*
X133268310Y-66766430D01*
X133415717Y-66864924D01*
X133541076Y-66990283D01*
X133639570Y-67137690D01*
X133707414Y-67301480D01*
X133742000Y-67475358D01*
X133742000Y-67652642D01*
X133707414Y-67826520D01*
X133639570Y-67990310D01*
X133541076Y-68137717D01*
X133415717Y-68263076D01*
X133268310Y-68361570D01*
X133104520Y-68429414D01*
X132930642Y-68464000D01*
X132753358Y-68464000D01*
X132579480Y-68429414D01*
X132415690Y-68361570D01*
X132268283Y-68263076D01*
X132142924Y-68137717D01*
X132044430Y-67990310D01*
X131976586Y-67826520D01*
X131942000Y-67652642D01*
X131942000Y-67475358D01*
X131976586Y-67301480D01*
X132044430Y-67137690D01*
X132142924Y-66990283D01*
X132268283Y-66864924D01*
X132415690Y-66766430D01*
X132579480Y-66698586D01*
X132753358Y-66664000D01*
X132930642Y-66664000D01*
X133104520Y-66698586D01*
G37*
G36*
X130564520Y-66698586D02*
G01*
X130728310Y-66766430D01*
X130875717Y-66864924D01*
X131001076Y-66990283D01*
X131099570Y-67137690D01*
X131167414Y-67301480D01*
X131202000Y-67475358D01*
X131202000Y-67652642D01*
X131167414Y-67826520D01*
X131099570Y-67990310D01*
X131001076Y-68137717D01*
X130875717Y-68263076D01*
X130728310Y-68361570D01*
X130564520Y-68429414D01*
X130390642Y-68464000D01*
X130213358Y-68464000D01*
X130039480Y-68429414D01*
X129875690Y-68361570D01*
X129728283Y-68263076D01*
X129602924Y-68137717D01*
X129504430Y-67990310D01*
X129436586Y-67826520D01*
X129402000Y-67652642D01*
X129402000Y-67475358D01*
X129436586Y-67301480D01*
X129504430Y-67137690D01*
X129602924Y-66990283D01*
X129728283Y-66864924D01*
X129875690Y-66766430D01*
X130039480Y-66698586D01*
X130213358Y-66664000D01*
X130390642Y-66664000D01*
X130564520Y-66698586D01*
G37*
G36*
X140724520Y-66698586D02*
G01*
X140888310Y-66766430D01*
X141035717Y-66864924D01*
X141161076Y-66990283D01*
X141259570Y-67137690D01*
X141327414Y-67301480D01*
X141362000Y-67475358D01*
X141362000Y-67652642D01*
X141327414Y-67826520D01*
X141259570Y-67990310D01*
X141161076Y-68137717D01*
X141035717Y-68263076D01*
X140888310Y-68361570D01*
X140724520Y-68429414D01*
X140550642Y-68464000D01*
X140373358Y-68464000D01*
X140199480Y-68429414D01*
X140035690Y-68361570D01*
X139888283Y-68263076D01*
X139762924Y-68137717D01*
X139664430Y-67990310D01*
X139596586Y-67826520D01*
X139562000Y-67652642D01*
X139562000Y-67475358D01*
X139596586Y-67301480D01*
X139664430Y-67137690D01*
X139762924Y-66990283D01*
X139888283Y-66864924D01*
X140035690Y-66766430D01*
X140199480Y-66698586D01*
X140373358Y-66664000D01*
X140550642Y-66664000D01*
X140724520Y-66698586D01*
G37*
M02*
