G04 #@! TF.GenerationSoftware,KiCad,Pcbnew,5.1.6*
G04 #@! TF.CreationDate,2020-06-28T22:02:06+02:00*
G04 #@! TF.ProjectId,lora_node,6c6f7261-5f6e-46f6-9465-2e6b69636164,rev?*
G04 #@! TF.SameCoordinates,Original*
G04 #@! TF.FileFunction,Copper,L4,Bot*
G04 #@! TF.FilePolarity,Positive*
%FSLAX46Y46*%
G04 Gerber Fmt 4.6, Leading zero omitted, Abs format (unit mm)*
G04 Created by KiCad (PCBNEW 5.1.6) date 2020-06-28 22:02:06*
%MOMM*%
%LPD*%
G01*
G04 APERTURE LIST*
G04 #@! TA.AperFunction,ComponentPad*
%ADD10C,1.700000*%
G04 #@! TD*
G04 #@! TA.AperFunction,ComponentPad*
%ADD11O,1.900000X1.200000*%
G04 #@! TD*
G04 #@! TA.AperFunction,ComponentPad*
%ADD12C,1.450000*%
G04 #@! TD*
G04 #@! TA.AperFunction,ViaPad*
%ADD13C,0.800000*%
G04 #@! TD*
G04 #@! TA.AperFunction,Conductor*
%ADD14C,0.300000*%
G04 #@! TD*
G04 #@! TA.AperFunction,Conductor*
%ADD15C,0.254000*%
G04 #@! TD*
G04 APERTURE END LIST*
D10*
X140462000Y-67564000D03*
X137922000Y-67564000D03*
X135382000Y-67564000D03*
X132842000Y-67564000D03*
X130302000Y-67564000D03*
X140462000Y-70104000D03*
X137922000Y-70104000D03*
X135382000Y-70104000D03*
X132842000Y-70104000D03*
G04 #@! TA.AperFunction,ComponentPad*
G36*
G01*
X130902000Y-70954000D02*
X129702000Y-70954000D01*
G75*
G02*
X129452000Y-70704000I0J250000D01*
G01*
X129452000Y-69504000D01*
G75*
G02*
X129702000Y-69254000I250000J0D01*
G01*
X130902000Y-69254000D01*
G75*
G02*
X131152000Y-69504000I0J-250000D01*
G01*
X131152000Y-70704000D01*
G75*
G02*
X130902000Y-70954000I-250000J0D01*
G01*
G37*
G04 #@! TD.AperFunction*
D11*
X106966500Y-90114000D03*
X106966500Y-83114000D03*
D12*
X109666500Y-89114000D03*
X109666500Y-84114000D03*
D13*
X115316000Y-91186000D03*
X114300000Y-91186000D03*
X116332000Y-91186000D03*
X117348000Y-91186000D03*
X118364000Y-91186000D03*
X111089000Y-90678000D03*
X110236000Y-91440000D03*
X111089000Y-91440000D03*
X117602000Y-94742000D03*
X127508000Y-92202000D03*
X131318000Y-89662000D03*
X121666000Y-82296000D03*
X113792000Y-86360000D03*
X114046000Y-84836000D03*
X122174000Y-80772000D03*
X126492000Y-80772000D03*
X128524000Y-77978000D03*
X133096000Y-65532000D03*
X134874000Y-65532000D03*
X137160000Y-65532000D03*
X139192000Y-65532000D03*
X136398000Y-76454000D03*
X133604000Y-82550000D03*
X149606000Y-87122000D03*
X150114000Y-72898000D03*
X160274000Y-90932000D03*
X165354000Y-93472000D03*
X161036000Y-85090000D03*
X144272000Y-90932000D03*
X142748000Y-83820000D03*
X134366000Y-87376000D03*
X133604000Y-90932000D03*
X133096000Y-89154000D03*
X108000000Y-66000000D03*
X111000000Y-66000000D03*
X114000000Y-66000000D03*
X117000000Y-66000000D03*
X120000000Y-66000000D03*
X108000000Y-69000000D03*
X111000000Y-69000000D03*
X114000000Y-69000000D03*
X117000000Y-69000000D03*
X120000000Y-69000000D03*
X108000000Y-72000000D03*
X111000000Y-72000000D03*
X114000000Y-72000000D03*
X117000000Y-72000000D03*
X148000000Y-66000000D03*
X151000000Y-66000000D03*
X154000000Y-66000000D03*
X157000000Y-66000000D03*
X160000000Y-66000000D03*
X163000000Y-66000000D03*
X163000000Y-69000000D03*
X160000000Y-69000000D03*
X157000000Y-69000000D03*
X154000000Y-69000000D03*
X151000000Y-69000000D03*
X148000000Y-69000000D03*
X148000000Y-93000000D03*
X151000000Y-93000000D03*
X154000000Y-93000000D03*
X157000000Y-93000000D03*
X160000000Y-93000000D03*
X160000000Y-96000000D03*
X157000000Y-96000000D03*
X154000000Y-96000000D03*
X151000000Y-96000000D03*
X148000000Y-96000000D03*
X145000000Y-96000000D03*
X142000000Y-96000000D03*
X125476000Y-76708000D03*
X129540000Y-78994000D03*
X133604000Y-76708000D03*
X142240000Y-81268000D03*
X136398000Y-87376000D03*
X135382000Y-89408000D03*
X127508000Y-87122000D03*
X124460000Y-88646000D03*
X161290000Y-80264000D03*
X129794000Y-94742000D03*
X132080000Y-76962000D03*
X134874000Y-82804000D03*
X130901179Y-79166590D03*
X114300000Y-93980000D03*
X135128000Y-91694000D03*
X116586000Y-94730000D03*
X136144000Y-91694000D03*
X150368000Y-81026000D03*
X132588000Y-86614000D03*
X121939075Y-92983075D03*
X120831000Y-91186000D03*
X112522000Y-81788000D03*
D14*
X130302000Y-75184000D02*
X132080000Y-76962000D01*
X130302000Y-70104000D02*
X130302000Y-75184000D01*
X131802275Y-79166590D02*
X130901179Y-79166590D01*
X134874000Y-82238315D02*
X131802275Y-79166590D01*
X134874000Y-82804000D02*
X134874000Y-82238315D01*
X132842000Y-93980000D02*
X135128000Y-91694000D01*
X114300000Y-93980000D02*
X132842000Y-93980000D01*
X136144000Y-91788002D02*
X136144000Y-91694000D01*
X132440001Y-95492001D02*
X136144000Y-91788002D01*
X116782316Y-95492001D02*
X132440001Y-95492001D01*
X116586000Y-95295685D02*
X116782316Y-95492001D01*
X116586000Y-94730000D02*
X116586000Y-95295685D01*
X138684000Y-80518000D02*
X132588000Y-86614000D01*
X149860000Y-80518000D02*
X138684000Y-80518000D01*
X150368000Y-81026000D02*
X149860000Y-80518000D01*
X121939075Y-92294075D02*
X120831000Y-91186000D01*
X121939075Y-92983075D02*
X121939075Y-92294075D01*
X120831000Y-90097000D02*
X112522000Y-81788000D01*
X120831000Y-91186000D02*
X120831000Y-90097000D01*
D15*
G36*
X145709397Y-79733000D02*
G01*
X138722556Y-79733000D01*
X138684000Y-79729203D01*
X138645444Y-79733000D01*
X138645439Y-79733000D01*
X138605026Y-79736980D01*
X138530113Y-79744358D01*
X138382140Y-79789246D01*
X138245767Y-79862138D01*
X138126236Y-79960236D01*
X138101653Y-79990190D01*
X135785955Y-82305888D01*
X135677937Y-82144226D01*
X135650864Y-82117153D01*
X135647641Y-82084428D01*
X135602754Y-81936455D01*
X135529862Y-81800082D01*
X135431764Y-81680551D01*
X135401816Y-81655973D01*
X132384622Y-78638780D01*
X132360039Y-78608826D01*
X132240508Y-78510728D01*
X132104135Y-78437836D01*
X131956162Y-78392949D01*
X131840836Y-78381590D01*
X131840828Y-78381590D01*
X131802275Y-78377793D01*
X131763722Y-78381590D01*
X131579890Y-78381590D01*
X131560953Y-78362653D01*
X131391435Y-78249385D01*
X131203077Y-78171364D01*
X131003118Y-78131590D01*
X130799240Y-78131590D01*
X130599281Y-78171364D01*
X130410923Y-78249385D01*
X130319909Y-78310198D01*
X130199774Y-78190063D01*
X130030256Y-78076795D01*
X129841898Y-77998774D01*
X129641939Y-77959000D01*
X129438061Y-77959000D01*
X129238102Y-77998774D01*
X129049744Y-78076795D01*
X128880226Y-78190063D01*
X128736063Y-78334226D01*
X128622795Y-78503744D01*
X128544774Y-78692102D01*
X128505000Y-78892061D01*
X128505000Y-79095939D01*
X128544774Y-79295898D01*
X128622795Y-79484256D01*
X128736063Y-79653774D01*
X128880226Y-79797937D01*
X129049744Y-79911205D01*
X129238102Y-79989226D01*
X129438061Y-80029000D01*
X129641939Y-80029000D01*
X129841898Y-79989226D01*
X130030256Y-79911205D01*
X130121270Y-79850392D01*
X130241405Y-79970527D01*
X130410923Y-80083795D01*
X130599281Y-80161816D01*
X130799240Y-80201590D01*
X131003118Y-80201590D01*
X131203077Y-80161816D01*
X131391435Y-80083795D01*
X131522049Y-79996521D01*
X133922373Y-82396846D01*
X133878774Y-82502102D01*
X133839000Y-82702061D01*
X133839000Y-82905939D01*
X133878774Y-83105898D01*
X133956795Y-83294256D01*
X134070063Y-83463774D01*
X134214226Y-83607937D01*
X134375888Y-83715955D01*
X132512843Y-85579000D01*
X132486061Y-85579000D01*
X132286102Y-85618774D01*
X132097744Y-85696795D01*
X131928226Y-85810063D01*
X131784063Y-85954226D01*
X131670795Y-86123744D01*
X131592774Y-86312102D01*
X131553000Y-86512061D01*
X131553000Y-86715939D01*
X131592774Y-86915898D01*
X131670795Y-87104256D01*
X131784063Y-87273774D01*
X131928226Y-87417937D01*
X132097744Y-87531205D01*
X132286102Y-87609226D01*
X132486061Y-87649000D01*
X132689939Y-87649000D01*
X132889898Y-87609226D01*
X133078256Y-87531205D01*
X133247774Y-87417937D01*
X133391937Y-87273774D01*
X133505205Y-87104256D01*
X133583226Y-86915898D01*
X133623000Y-86715939D01*
X133623000Y-86689157D01*
X139009157Y-81303000D01*
X141205000Y-81303000D01*
X141205000Y-81369939D01*
X141244774Y-81569898D01*
X141322795Y-81758256D01*
X141436063Y-81927774D01*
X141580226Y-82071937D01*
X141749744Y-82185205D01*
X141938102Y-82263226D01*
X142138061Y-82303000D01*
X142341939Y-82303000D01*
X142541898Y-82263226D01*
X142730256Y-82185205D01*
X142899774Y-82071937D01*
X143043937Y-81927774D01*
X143157205Y-81758256D01*
X143235226Y-81569898D01*
X143275000Y-81369939D01*
X143275000Y-81303000D01*
X145688739Y-81303000D01*
X145670660Y-82677000D01*
X138938000Y-82677000D01*
X138913224Y-82679440D01*
X138889399Y-82686667D01*
X138867443Y-82698403D01*
X138848197Y-82714197D01*
X138832403Y-82733443D01*
X138820667Y-82755399D01*
X138813440Y-82779224D01*
X138811000Y-82804000D01*
X138811000Y-85725000D01*
X137160000Y-85725000D01*
X137135224Y-85727440D01*
X137111399Y-85734667D01*
X137089443Y-85746403D01*
X137070197Y-85762197D01*
X137054403Y-85781443D01*
X137042667Y-85803399D01*
X137035440Y-85827224D01*
X137033000Y-85852000D01*
X137033000Y-86555510D01*
X136888256Y-86458795D01*
X136699898Y-86380774D01*
X136499939Y-86341000D01*
X136296061Y-86341000D01*
X136096102Y-86380774D01*
X135907744Y-86458795D01*
X135738226Y-86572063D01*
X135594063Y-86716226D01*
X135480795Y-86885744D01*
X135402774Y-87074102D01*
X135363000Y-87274061D01*
X135363000Y-87477939D01*
X135402774Y-87677898D01*
X135480795Y-87866256D01*
X135594063Y-88035774D01*
X135738226Y-88179937D01*
X135907744Y-88293205D01*
X136096102Y-88371226D01*
X136296061Y-88411000D01*
X136499939Y-88411000D01*
X136699898Y-88371226D01*
X136888256Y-88293205D01*
X137057774Y-88179937D01*
X137201937Y-88035774D01*
X137315205Y-87866256D01*
X137360461Y-87757000D01*
X138811000Y-87757000D01*
X138811000Y-92202000D01*
X138813440Y-92226776D01*
X138820667Y-92250601D01*
X138832403Y-92272557D01*
X138848197Y-92291803D01*
X138867443Y-92307597D01*
X138889399Y-92319333D01*
X138913224Y-92326560D01*
X138938000Y-92329000D01*
X145796000Y-92329000D01*
X145820776Y-92326560D01*
X145844601Y-92319333D01*
X145866557Y-92307597D01*
X145885803Y-92291803D01*
X145901597Y-92272557D01*
X145913333Y-92250601D01*
X145920560Y-92226776D01*
X145923000Y-92202000D01*
X145923000Y-82804835D01*
X145942761Y-81303000D01*
X149367822Y-81303000D01*
X149372774Y-81327898D01*
X149450795Y-81516256D01*
X149564063Y-81685774D01*
X149708226Y-81829937D01*
X149877744Y-81943205D01*
X150066102Y-82021226D01*
X150266061Y-82061000D01*
X150469939Y-82061000D01*
X150669898Y-82021226D01*
X150858256Y-81943205D01*
X151027774Y-81829937D01*
X151171937Y-81685774D01*
X151285205Y-81516256D01*
X151363226Y-81327898D01*
X151403000Y-81127939D01*
X151403000Y-80924061D01*
X151363226Y-80724102D01*
X151285205Y-80535744D01*
X151171937Y-80366226D01*
X151027774Y-80222063D01*
X150937975Y-80162061D01*
X160255000Y-80162061D01*
X160255000Y-80365939D01*
X160294774Y-80565898D01*
X160372795Y-80754256D01*
X160486063Y-80923774D01*
X160630226Y-81067937D01*
X160799744Y-81181205D01*
X160988102Y-81259226D01*
X161188061Y-81299000D01*
X161391939Y-81299000D01*
X161591898Y-81259226D01*
X161780256Y-81181205D01*
X161949774Y-81067937D01*
X162093937Y-80923774D01*
X162207205Y-80754256D01*
X162285226Y-80565898D01*
X162325000Y-80365939D01*
X162325000Y-80162061D01*
X162285226Y-79962102D01*
X162207205Y-79773744D01*
X162093937Y-79604226D01*
X161949774Y-79460063D01*
X161780256Y-79346795D01*
X161591898Y-79268774D01*
X161391939Y-79229000D01*
X161188061Y-79229000D01*
X160988102Y-79268774D01*
X160799744Y-79346795D01*
X160630226Y-79460063D01*
X160486063Y-79604226D01*
X160372795Y-79773744D01*
X160294774Y-79962102D01*
X160255000Y-80162061D01*
X150937975Y-80162061D01*
X150858256Y-80108795D01*
X150669898Y-80030774D01*
X150469939Y-79991000D01*
X150443157Y-79991000D01*
X150442347Y-79990190D01*
X150417764Y-79960236D01*
X150298233Y-79862138D01*
X150161860Y-79789246D01*
X150013887Y-79744359D01*
X149898561Y-79733000D01*
X149898553Y-79733000D01*
X149860000Y-79729203D01*
X149821447Y-79733000D01*
X145963419Y-79733000D01*
X146168327Y-64160000D01*
X161768608Y-64160000D01*
X162580249Y-64232437D01*
X163337774Y-64439672D01*
X164046625Y-64777777D01*
X164684404Y-65236067D01*
X165230946Y-65800055D01*
X165668977Y-66451913D01*
X165984651Y-67171038D01*
X166169206Y-67939768D01*
X166218000Y-68604207D01*
X166218001Y-93696597D01*
X166145563Y-94508249D01*
X165938328Y-95265774D01*
X165600221Y-95974627D01*
X165141928Y-96612410D01*
X164577945Y-97158946D01*
X163926085Y-97596978D01*
X163206963Y-97912651D01*
X162438232Y-98097206D01*
X161773792Y-98146000D01*
X110519392Y-98146000D01*
X109707751Y-98073563D01*
X108950226Y-97866328D01*
X108241373Y-97528221D01*
X107603590Y-97069928D01*
X107057054Y-96505945D01*
X106619022Y-95854085D01*
X106303349Y-95134963D01*
X106118794Y-94366232D01*
X106070000Y-93701792D01*
X106070000Y-91222241D01*
X106141599Y-91260511D01*
X106374398Y-91331130D01*
X106555835Y-91349000D01*
X107377165Y-91349000D01*
X107558602Y-91331130D01*
X107791401Y-91260511D01*
X108005949Y-91145833D01*
X108194002Y-90991502D01*
X108348333Y-90803449D01*
X108463011Y-90588901D01*
X108533630Y-90356102D01*
X108557475Y-90114000D01*
X108533630Y-89871898D01*
X108530617Y-89861965D01*
X108610119Y-89980949D01*
X108799551Y-90170381D01*
X109022299Y-90319216D01*
X109269803Y-90421736D01*
X109532552Y-90474000D01*
X109800448Y-90474000D01*
X110063197Y-90421736D01*
X110310701Y-90319216D01*
X110533449Y-90170381D01*
X110722881Y-89980949D01*
X110871716Y-89758201D01*
X110974236Y-89510697D01*
X111026500Y-89247948D01*
X111026500Y-88980052D01*
X110974236Y-88717303D01*
X110871716Y-88469799D01*
X110722881Y-88247051D01*
X110533449Y-88057619D01*
X110310701Y-87908784D01*
X110063197Y-87806264D01*
X109800448Y-87754000D01*
X109532552Y-87754000D01*
X109269803Y-87806264D01*
X109022299Y-87908784D01*
X108799551Y-88057619D01*
X108610119Y-88247051D01*
X108461284Y-88469799D01*
X108358764Y-88717303D01*
X108306500Y-88980052D01*
X108306500Y-89247948D01*
X108339484Y-89413768D01*
X108194002Y-89236498D01*
X108005949Y-89082167D01*
X107791401Y-88967489D01*
X107558602Y-88896870D01*
X107377165Y-88879000D01*
X106555835Y-88879000D01*
X106374398Y-88896870D01*
X106141599Y-88967489D01*
X106070000Y-89005759D01*
X106070000Y-84222241D01*
X106141599Y-84260511D01*
X106374398Y-84331130D01*
X106555835Y-84349000D01*
X107377165Y-84349000D01*
X107558602Y-84331130D01*
X107791401Y-84260511D01*
X108005949Y-84145833D01*
X108194002Y-83991502D01*
X108339484Y-83814232D01*
X108306500Y-83980052D01*
X108306500Y-84247948D01*
X108358764Y-84510697D01*
X108461284Y-84758201D01*
X108610119Y-84980949D01*
X108799551Y-85170381D01*
X109022299Y-85319216D01*
X109269803Y-85421736D01*
X109532552Y-85474000D01*
X109800448Y-85474000D01*
X110063197Y-85421736D01*
X110310701Y-85319216D01*
X110533449Y-85170381D01*
X110722881Y-84980949D01*
X110871716Y-84758201D01*
X110974236Y-84510697D01*
X111026500Y-84247948D01*
X111026500Y-83980052D01*
X110974236Y-83717303D01*
X110871716Y-83469799D01*
X110722881Y-83247051D01*
X110533449Y-83057619D01*
X110310701Y-82908784D01*
X110063197Y-82806264D01*
X109800448Y-82754000D01*
X109532552Y-82754000D01*
X109269803Y-82806264D01*
X109022299Y-82908784D01*
X108799551Y-83057619D01*
X108610119Y-83247051D01*
X108530617Y-83366035D01*
X108533630Y-83356102D01*
X108557475Y-83114000D01*
X108533630Y-82871898D01*
X108463011Y-82639099D01*
X108348333Y-82424551D01*
X108194002Y-82236498D01*
X108005949Y-82082167D01*
X107791401Y-81967489D01*
X107558602Y-81896870D01*
X107377165Y-81879000D01*
X106555835Y-81879000D01*
X106374398Y-81896870D01*
X106141599Y-81967489D01*
X106070000Y-82005759D01*
X106070000Y-81686061D01*
X111487000Y-81686061D01*
X111487000Y-81889939D01*
X111526774Y-82089898D01*
X111604795Y-82278256D01*
X111718063Y-82447774D01*
X111862226Y-82591937D01*
X112031744Y-82705205D01*
X112220102Y-82783226D01*
X112420061Y-82823000D01*
X112446843Y-82823000D01*
X120046001Y-90422159D01*
X120046001Y-90507288D01*
X120027063Y-90526226D01*
X119913795Y-90695744D01*
X119835774Y-90884102D01*
X119796000Y-91084061D01*
X119796000Y-91287939D01*
X119835774Y-91487898D01*
X119913795Y-91676256D01*
X120027063Y-91845774D01*
X120171226Y-91989937D01*
X120340744Y-92103205D01*
X120529102Y-92181226D01*
X120729061Y-92221000D01*
X120755843Y-92221000D01*
X121024190Y-92489347D01*
X121021870Y-92492819D01*
X120943849Y-92681177D01*
X120904075Y-92881136D01*
X120904075Y-93085014D01*
X120925952Y-93195000D01*
X114978711Y-93195000D01*
X114959774Y-93176063D01*
X114790256Y-93062795D01*
X114601898Y-92984774D01*
X114401939Y-92945000D01*
X114198061Y-92945000D01*
X113998102Y-92984774D01*
X113809744Y-93062795D01*
X113640226Y-93176063D01*
X113496063Y-93320226D01*
X113382795Y-93489744D01*
X113304774Y-93678102D01*
X113265000Y-93878061D01*
X113265000Y-94081939D01*
X113304774Y-94281898D01*
X113382795Y-94470256D01*
X113496063Y-94639774D01*
X113640226Y-94783937D01*
X113809744Y-94897205D01*
X113998102Y-94975226D01*
X114198061Y-95015000D01*
X114401939Y-95015000D01*
X114601898Y-94975226D01*
X114790256Y-94897205D01*
X114959774Y-94783937D01*
X114978711Y-94765000D01*
X115551000Y-94765000D01*
X115551000Y-94831939D01*
X115590774Y-95031898D01*
X115668795Y-95220256D01*
X115782063Y-95389774D01*
X115809136Y-95416847D01*
X115812359Y-95449572D01*
X115857246Y-95597545D01*
X115930139Y-95733918D01*
X115954927Y-95764122D01*
X116003655Y-95823497D01*
X116003659Y-95823501D01*
X116028237Y-95853449D01*
X116058186Y-95878028D01*
X116199966Y-96019807D01*
X116224552Y-96049765D01*
X116344083Y-96147863D01*
X116480456Y-96220755D01*
X116514897Y-96231202D01*
X116628429Y-96265643D01*
X116703342Y-96273021D01*
X116743755Y-96277001D01*
X116743760Y-96277001D01*
X116782316Y-96280798D01*
X116820872Y-96277001D01*
X132401448Y-96277001D01*
X132440001Y-96280798D01*
X132478554Y-96277001D01*
X132478562Y-96277001D01*
X132593888Y-96265642D01*
X132741861Y-96220755D01*
X132878234Y-96147863D01*
X132997765Y-96049765D01*
X133022348Y-96019811D01*
X136329850Y-92712309D01*
X136445898Y-92689226D01*
X136634256Y-92611205D01*
X136803774Y-92497937D01*
X136947937Y-92353774D01*
X137061205Y-92184256D01*
X137139226Y-91995898D01*
X137179000Y-91795939D01*
X137179000Y-91592061D01*
X137139226Y-91392102D01*
X137061205Y-91203744D01*
X136947937Y-91034226D01*
X136803774Y-90890063D01*
X136634256Y-90776795D01*
X136445898Y-90698774D01*
X136245939Y-90659000D01*
X136042061Y-90659000D01*
X135842102Y-90698774D01*
X135653744Y-90776795D01*
X135636000Y-90788651D01*
X135618256Y-90776795D01*
X135429898Y-90698774D01*
X135229939Y-90659000D01*
X135026061Y-90659000D01*
X134826102Y-90698774D01*
X134637744Y-90776795D01*
X134468226Y-90890063D01*
X134324063Y-91034226D01*
X134210795Y-91203744D01*
X134132774Y-91392102D01*
X134093000Y-91592061D01*
X134093000Y-91618842D01*
X132516843Y-93195000D01*
X122952198Y-93195000D01*
X122974075Y-93085014D01*
X122974075Y-92881136D01*
X122934301Y-92681177D01*
X122856280Y-92492819D01*
X122743012Y-92323301D01*
X122726609Y-92306898D01*
X122727872Y-92294075D01*
X122724075Y-92255519D01*
X122724075Y-92255514D01*
X122720095Y-92215101D01*
X122712717Y-92140188D01*
X122667829Y-91992215D01*
X122665495Y-91987849D01*
X122594937Y-91855842D01*
X122496839Y-91736311D01*
X122466885Y-91711728D01*
X121866000Y-91110843D01*
X121866000Y-91084061D01*
X121826226Y-90884102D01*
X121748205Y-90695744D01*
X121634937Y-90526226D01*
X121616000Y-90507289D01*
X121616000Y-90135552D01*
X121619797Y-90096999D01*
X121616000Y-90058446D01*
X121616000Y-90058439D01*
X121604641Y-89943113D01*
X121559754Y-89795140D01*
X121486862Y-89658767D01*
X121388764Y-89539236D01*
X121358816Y-89514658D01*
X120388219Y-88544061D01*
X123425000Y-88544061D01*
X123425000Y-88747939D01*
X123464774Y-88947898D01*
X123542795Y-89136256D01*
X123656063Y-89305774D01*
X123800226Y-89449937D01*
X123969744Y-89563205D01*
X124158102Y-89641226D01*
X124358061Y-89681000D01*
X124561939Y-89681000D01*
X124761898Y-89641226D01*
X124950256Y-89563205D01*
X125119774Y-89449937D01*
X125263650Y-89306061D01*
X134347000Y-89306061D01*
X134347000Y-89509939D01*
X134386774Y-89709898D01*
X134464795Y-89898256D01*
X134578063Y-90067774D01*
X134722226Y-90211937D01*
X134891744Y-90325205D01*
X135080102Y-90403226D01*
X135280061Y-90443000D01*
X135483939Y-90443000D01*
X135683898Y-90403226D01*
X135872256Y-90325205D01*
X136041774Y-90211937D01*
X136185937Y-90067774D01*
X136299205Y-89898256D01*
X136377226Y-89709898D01*
X136417000Y-89509939D01*
X136417000Y-89306061D01*
X136377226Y-89106102D01*
X136299205Y-88917744D01*
X136185937Y-88748226D01*
X136041774Y-88604063D01*
X135872256Y-88490795D01*
X135683898Y-88412774D01*
X135483939Y-88373000D01*
X135280061Y-88373000D01*
X135080102Y-88412774D01*
X134891744Y-88490795D01*
X134722226Y-88604063D01*
X134578063Y-88748226D01*
X134464795Y-88917744D01*
X134386774Y-89106102D01*
X134347000Y-89306061D01*
X125263650Y-89306061D01*
X125263937Y-89305774D01*
X125377205Y-89136256D01*
X125455226Y-88947898D01*
X125495000Y-88747939D01*
X125495000Y-88544061D01*
X125455226Y-88344102D01*
X125377205Y-88155744D01*
X125263937Y-87986226D01*
X125119774Y-87842063D01*
X124950256Y-87728795D01*
X124761898Y-87650774D01*
X124561939Y-87611000D01*
X124358061Y-87611000D01*
X124158102Y-87650774D01*
X123969744Y-87728795D01*
X123800226Y-87842063D01*
X123656063Y-87986226D01*
X123542795Y-88155744D01*
X123464774Y-88344102D01*
X123425000Y-88544061D01*
X120388219Y-88544061D01*
X118864219Y-87020061D01*
X126473000Y-87020061D01*
X126473000Y-87223939D01*
X126512774Y-87423898D01*
X126590795Y-87612256D01*
X126704063Y-87781774D01*
X126848226Y-87925937D01*
X127017744Y-88039205D01*
X127206102Y-88117226D01*
X127406061Y-88157000D01*
X127609939Y-88157000D01*
X127809898Y-88117226D01*
X127998256Y-88039205D01*
X128167774Y-87925937D01*
X128311937Y-87781774D01*
X128425205Y-87612256D01*
X128503226Y-87423898D01*
X128543000Y-87223939D01*
X128543000Y-87020061D01*
X128503226Y-86820102D01*
X128425205Y-86631744D01*
X128311937Y-86462226D01*
X128167774Y-86318063D01*
X127998256Y-86204795D01*
X127809898Y-86126774D01*
X127609939Y-86087000D01*
X127406061Y-86087000D01*
X127206102Y-86126774D01*
X127017744Y-86204795D01*
X126848226Y-86318063D01*
X126704063Y-86462226D01*
X126590795Y-86631744D01*
X126512774Y-86820102D01*
X126473000Y-87020061D01*
X118864219Y-87020061D01*
X113557000Y-81712843D01*
X113557000Y-81686061D01*
X113517226Y-81486102D01*
X113439205Y-81297744D01*
X113325937Y-81128226D01*
X113181774Y-80984063D01*
X113012256Y-80870795D01*
X112823898Y-80792774D01*
X112623939Y-80753000D01*
X112420061Y-80753000D01*
X112220102Y-80792774D01*
X112031744Y-80870795D01*
X111862226Y-80984063D01*
X111718063Y-81128226D01*
X111604795Y-81297744D01*
X111526774Y-81486102D01*
X111487000Y-81686061D01*
X106070000Y-81686061D01*
X106070000Y-76606061D01*
X124441000Y-76606061D01*
X124441000Y-76809939D01*
X124480774Y-77009898D01*
X124558795Y-77198256D01*
X124672063Y-77367774D01*
X124816226Y-77511937D01*
X124985744Y-77625205D01*
X125174102Y-77703226D01*
X125374061Y-77743000D01*
X125577939Y-77743000D01*
X125777898Y-77703226D01*
X125966256Y-77625205D01*
X126135774Y-77511937D01*
X126279937Y-77367774D01*
X126393205Y-77198256D01*
X126471226Y-77009898D01*
X126511000Y-76809939D01*
X126511000Y-76606061D01*
X126471226Y-76406102D01*
X126393205Y-76217744D01*
X126279937Y-76048226D01*
X126135774Y-75904063D01*
X125966256Y-75790795D01*
X125777898Y-75712774D01*
X125577939Y-75673000D01*
X125374061Y-75673000D01*
X125174102Y-75712774D01*
X124985744Y-75790795D01*
X124816226Y-75904063D01*
X124672063Y-76048226D01*
X124558795Y-76217744D01*
X124480774Y-76406102D01*
X124441000Y-76606061D01*
X106070000Y-76606061D01*
X106070000Y-69504000D01*
X128813928Y-69504000D01*
X128813928Y-70704000D01*
X128830992Y-70877254D01*
X128881528Y-71043850D01*
X128963595Y-71197386D01*
X129074038Y-71331962D01*
X129208614Y-71442405D01*
X129362150Y-71524472D01*
X129517000Y-71571445D01*
X129517001Y-75145437D01*
X129513203Y-75184000D01*
X129528359Y-75337886D01*
X129573246Y-75485859D01*
X129573247Y-75485860D01*
X129646139Y-75622233D01*
X129686690Y-75671644D01*
X129719655Y-75711812D01*
X129719659Y-75711816D01*
X129744237Y-75741764D01*
X129774185Y-75766342D01*
X131045000Y-77037157D01*
X131045000Y-77063939D01*
X131084774Y-77263898D01*
X131162795Y-77452256D01*
X131276063Y-77621774D01*
X131420226Y-77765937D01*
X131589744Y-77879205D01*
X131778102Y-77957226D01*
X131978061Y-77997000D01*
X132181939Y-77997000D01*
X132381898Y-77957226D01*
X132570256Y-77879205D01*
X132739774Y-77765937D01*
X132883937Y-77621774D01*
X132953284Y-77517989D01*
X133113744Y-77625205D01*
X133302102Y-77703226D01*
X133502061Y-77743000D01*
X133705939Y-77743000D01*
X133905898Y-77703226D01*
X134094256Y-77625205D01*
X134263774Y-77511937D01*
X134407937Y-77367774D01*
X134521205Y-77198256D01*
X134599226Y-77009898D01*
X134639000Y-76809939D01*
X134639000Y-76606061D01*
X134599226Y-76406102D01*
X134521205Y-76217744D01*
X134407937Y-76048226D01*
X134263774Y-75904063D01*
X134094256Y-75790795D01*
X133905898Y-75712774D01*
X133705939Y-75673000D01*
X133502061Y-75673000D01*
X133302102Y-75712774D01*
X133113744Y-75790795D01*
X132944226Y-75904063D01*
X132800063Y-76048226D01*
X132730716Y-76152011D01*
X132570256Y-76044795D01*
X132381898Y-75966774D01*
X132181939Y-75927000D01*
X132155157Y-75927000D01*
X131087000Y-74858843D01*
X131087000Y-71571445D01*
X131241850Y-71524472D01*
X131395386Y-71442405D01*
X131529962Y-71331962D01*
X131640405Y-71197386D01*
X131708285Y-71070392D01*
X131895368Y-71257475D01*
X132138589Y-71419990D01*
X132408842Y-71531932D01*
X132695740Y-71589000D01*
X132988260Y-71589000D01*
X133275158Y-71531932D01*
X133545411Y-71419990D01*
X133788632Y-71257475D01*
X133995475Y-71050632D01*
X134112000Y-70876240D01*
X134228525Y-71050632D01*
X134435368Y-71257475D01*
X134678589Y-71419990D01*
X134948842Y-71531932D01*
X135235740Y-71589000D01*
X135528260Y-71589000D01*
X135815158Y-71531932D01*
X136085411Y-71419990D01*
X136328632Y-71257475D01*
X136535475Y-71050632D01*
X136652000Y-70876240D01*
X136768525Y-71050632D01*
X136975368Y-71257475D01*
X137218589Y-71419990D01*
X137488842Y-71531932D01*
X137775740Y-71589000D01*
X138068260Y-71589000D01*
X138355158Y-71531932D01*
X138625411Y-71419990D01*
X138868632Y-71257475D01*
X139075475Y-71050632D01*
X139192000Y-70876240D01*
X139308525Y-71050632D01*
X139515368Y-71257475D01*
X139758589Y-71419990D01*
X140028842Y-71531932D01*
X140315740Y-71589000D01*
X140608260Y-71589000D01*
X140895158Y-71531932D01*
X141165411Y-71419990D01*
X141408632Y-71257475D01*
X141615475Y-71050632D01*
X141777990Y-70807411D01*
X141889932Y-70537158D01*
X141947000Y-70250260D01*
X141947000Y-69957740D01*
X141889932Y-69670842D01*
X141777990Y-69400589D01*
X141615475Y-69157368D01*
X141408632Y-68950525D01*
X141235271Y-68834689D01*
X141310792Y-68592397D01*
X140462000Y-67743605D01*
X139613208Y-68592397D01*
X139688729Y-68834689D01*
X139515368Y-68950525D01*
X139308525Y-69157368D01*
X139192000Y-69331760D01*
X139075475Y-69157368D01*
X138868632Y-68950525D01*
X138695271Y-68834689D01*
X138770792Y-68592397D01*
X137922000Y-67743605D01*
X137073208Y-68592397D01*
X137148729Y-68834689D01*
X136975368Y-68950525D01*
X136768525Y-69157368D01*
X136652000Y-69331760D01*
X136535475Y-69157368D01*
X136328632Y-68950525D01*
X136155271Y-68834689D01*
X136230792Y-68592397D01*
X135382000Y-67743605D01*
X134533208Y-68592397D01*
X134608729Y-68834689D01*
X134435368Y-68950525D01*
X134228525Y-69157368D01*
X134112000Y-69331760D01*
X133995475Y-69157368D01*
X133788632Y-68950525D01*
X133615271Y-68834689D01*
X133690792Y-68592397D01*
X132842000Y-67743605D01*
X131993208Y-68592397D01*
X132068729Y-68834689D01*
X131895368Y-68950525D01*
X131708285Y-69137608D01*
X131640405Y-69010614D01*
X131529962Y-68876038D01*
X131395386Y-68765595D01*
X131268392Y-68697715D01*
X131455475Y-68510632D01*
X131571311Y-68337271D01*
X131813603Y-68412792D01*
X132662395Y-67564000D01*
X133021605Y-67564000D01*
X133870397Y-68412792D01*
X134112000Y-68337486D01*
X134353603Y-68412792D01*
X135202395Y-67564000D01*
X135561605Y-67564000D01*
X136410397Y-68412792D01*
X136652000Y-68337486D01*
X136893603Y-68412792D01*
X137742395Y-67564000D01*
X138101605Y-67564000D01*
X138950397Y-68412792D01*
X139192000Y-68337486D01*
X139433603Y-68412792D01*
X140282395Y-67564000D01*
X140641605Y-67564000D01*
X141490397Y-68412792D01*
X141739472Y-68335157D01*
X141865371Y-68071117D01*
X141937339Y-67787589D01*
X141952611Y-67495469D01*
X141910599Y-67205981D01*
X141812919Y-66930253D01*
X141739472Y-66792843D01*
X141490397Y-66715208D01*
X140641605Y-67564000D01*
X140282395Y-67564000D01*
X139433603Y-66715208D01*
X139192000Y-66790514D01*
X138950397Y-66715208D01*
X138101605Y-67564000D01*
X137742395Y-67564000D01*
X136893603Y-66715208D01*
X136652000Y-66790514D01*
X136410397Y-66715208D01*
X135561605Y-67564000D01*
X135202395Y-67564000D01*
X134353603Y-66715208D01*
X134112000Y-66790514D01*
X133870397Y-66715208D01*
X133021605Y-67564000D01*
X132662395Y-67564000D01*
X131813603Y-66715208D01*
X131571311Y-66790729D01*
X131455475Y-66617368D01*
X131373710Y-66535603D01*
X131993208Y-66535603D01*
X132842000Y-67384395D01*
X133690792Y-66535603D01*
X134533208Y-66535603D01*
X135382000Y-67384395D01*
X136230792Y-66535603D01*
X137073208Y-66535603D01*
X137922000Y-67384395D01*
X138770792Y-66535603D01*
X139613208Y-66535603D01*
X140462000Y-67384395D01*
X141310792Y-66535603D01*
X141233157Y-66286528D01*
X140969117Y-66160629D01*
X140685589Y-66088661D01*
X140393469Y-66073389D01*
X140103981Y-66115401D01*
X139828253Y-66213081D01*
X139690843Y-66286528D01*
X139613208Y-66535603D01*
X138770792Y-66535603D01*
X138693157Y-66286528D01*
X138429117Y-66160629D01*
X138145589Y-66088661D01*
X137853469Y-66073389D01*
X137563981Y-66115401D01*
X137288253Y-66213081D01*
X137150843Y-66286528D01*
X137073208Y-66535603D01*
X136230792Y-66535603D01*
X136153157Y-66286528D01*
X135889117Y-66160629D01*
X135605589Y-66088661D01*
X135313469Y-66073389D01*
X135023981Y-66115401D01*
X134748253Y-66213081D01*
X134610843Y-66286528D01*
X134533208Y-66535603D01*
X133690792Y-66535603D01*
X133613157Y-66286528D01*
X133349117Y-66160629D01*
X133065589Y-66088661D01*
X132773469Y-66073389D01*
X132483981Y-66115401D01*
X132208253Y-66213081D01*
X132070843Y-66286528D01*
X131993208Y-66535603D01*
X131373710Y-66535603D01*
X131248632Y-66410525D01*
X131005411Y-66248010D01*
X130735158Y-66136068D01*
X130448260Y-66079000D01*
X130155740Y-66079000D01*
X129868842Y-66136068D01*
X129598589Y-66248010D01*
X129355368Y-66410525D01*
X129148525Y-66617368D01*
X128986010Y-66860589D01*
X128874068Y-67130842D01*
X128817000Y-67417740D01*
X128817000Y-67710260D01*
X128874068Y-67997158D01*
X128986010Y-68267411D01*
X129148525Y-68510632D01*
X129335608Y-68697715D01*
X129208614Y-68765595D01*
X129074038Y-68876038D01*
X128963595Y-69010614D01*
X128881528Y-69164150D01*
X128830992Y-69330746D01*
X128813928Y-69504000D01*
X106070000Y-69504000D01*
X106070000Y-68609392D01*
X106142437Y-67797751D01*
X106349672Y-67040226D01*
X106687777Y-66331375D01*
X107146067Y-65693596D01*
X107710055Y-65147054D01*
X108361913Y-64709023D01*
X109081038Y-64393349D01*
X109849768Y-64208794D01*
X110514207Y-64160000D01*
X145914305Y-64160000D01*
X145709397Y-79733000D01*
G37*
X145709397Y-79733000D02*
X138722556Y-79733000D01*
X138684000Y-79729203D01*
X138645444Y-79733000D01*
X138645439Y-79733000D01*
X138605026Y-79736980D01*
X138530113Y-79744358D01*
X138382140Y-79789246D01*
X138245767Y-79862138D01*
X138126236Y-79960236D01*
X138101653Y-79990190D01*
X135785955Y-82305888D01*
X135677937Y-82144226D01*
X135650864Y-82117153D01*
X135647641Y-82084428D01*
X135602754Y-81936455D01*
X135529862Y-81800082D01*
X135431764Y-81680551D01*
X135401816Y-81655973D01*
X132384622Y-78638780D01*
X132360039Y-78608826D01*
X132240508Y-78510728D01*
X132104135Y-78437836D01*
X131956162Y-78392949D01*
X131840836Y-78381590D01*
X131840828Y-78381590D01*
X131802275Y-78377793D01*
X131763722Y-78381590D01*
X131579890Y-78381590D01*
X131560953Y-78362653D01*
X131391435Y-78249385D01*
X131203077Y-78171364D01*
X131003118Y-78131590D01*
X130799240Y-78131590D01*
X130599281Y-78171364D01*
X130410923Y-78249385D01*
X130319909Y-78310198D01*
X130199774Y-78190063D01*
X130030256Y-78076795D01*
X129841898Y-77998774D01*
X129641939Y-77959000D01*
X129438061Y-77959000D01*
X129238102Y-77998774D01*
X129049744Y-78076795D01*
X128880226Y-78190063D01*
X128736063Y-78334226D01*
X128622795Y-78503744D01*
X128544774Y-78692102D01*
X128505000Y-78892061D01*
X128505000Y-79095939D01*
X128544774Y-79295898D01*
X128622795Y-79484256D01*
X128736063Y-79653774D01*
X128880226Y-79797937D01*
X129049744Y-79911205D01*
X129238102Y-79989226D01*
X129438061Y-80029000D01*
X129641939Y-80029000D01*
X129841898Y-79989226D01*
X130030256Y-79911205D01*
X130121270Y-79850392D01*
X130241405Y-79970527D01*
X130410923Y-80083795D01*
X130599281Y-80161816D01*
X130799240Y-80201590D01*
X131003118Y-80201590D01*
X131203077Y-80161816D01*
X131391435Y-80083795D01*
X131522049Y-79996521D01*
X133922373Y-82396846D01*
X133878774Y-82502102D01*
X133839000Y-82702061D01*
X133839000Y-82905939D01*
X133878774Y-83105898D01*
X133956795Y-83294256D01*
X134070063Y-83463774D01*
X134214226Y-83607937D01*
X134375888Y-83715955D01*
X132512843Y-85579000D01*
X132486061Y-85579000D01*
X132286102Y-85618774D01*
X132097744Y-85696795D01*
X131928226Y-85810063D01*
X131784063Y-85954226D01*
X131670795Y-86123744D01*
X131592774Y-86312102D01*
X131553000Y-86512061D01*
X131553000Y-86715939D01*
X131592774Y-86915898D01*
X131670795Y-87104256D01*
X131784063Y-87273774D01*
X131928226Y-87417937D01*
X132097744Y-87531205D01*
X132286102Y-87609226D01*
X132486061Y-87649000D01*
X132689939Y-87649000D01*
X132889898Y-87609226D01*
X133078256Y-87531205D01*
X133247774Y-87417937D01*
X133391937Y-87273774D01*
X133505205Y-87104256D01*
X133583226Y-86915898D01*
X133623000Y-86715939D01*
X133623000Y-86689157D01*
X139009157Y-81303000D01*
X141205000Y-81303000D01*
X141205000Y-81369939D01*
X141244774Y-81569898D01*
X141322795Y-81758256D01*
X141436063Y-81927774D01*
X141580226Y-82071937D01*
X141749744Y-82185205D01*
X141938102Y-82263226D01*
X142138061Y-82303000D01*
X142341939Y-82303000D01*
X142541898Y-82263226D01*
X142730256Y-82185205D01*
X142899774Y-82071937D01*
X143043937Y-81927774D01*
X143157205Y-81758256D01*
X143235226Y-81569898D01*
X143275000Y-81369939D01*
X143275000Y-81303000D01*
X145688739Y-81303000D01*
X145670660Y-82677000D01*
X138938000Y-82677000D01*
X138913224Y-82679440D01*
X138889399Y-82686667D01*
X138867443Y-82698403D01*
X138848197Y-82714197D01*
X138832403Y-82733443D01*
X138820667Y-82755399D01*
X138813440Y-82779224D01*
X138811000Y-82804000D01*
X138811000Y-85725000D01*
X137160000Y-85725000D01*
X137135224Y-85727440D01*
X137111399Y-85734667D01*
X137089443Y-85746403D01*
X137070197Y-85762197D01*
X137054403Y-85781443D01*
X137042667Y-85803399D01*
X137035440Y-85827224D01*
X137033000Y-85852000D01*
X137033000Y-86555510D01*
X136888256Y-86458795D01*
X136699898Y-86380774D01*
X136499939Y-86341000D01*
X136296061Y-86341000D01*
X136096102Y-86380774D01*
X135907744Y-86458795D01*
X135738226Y-86572063D01*
X135594063Y-86716226D01*
X135480795Y-86885744D01*
X135402774Y-87074102D01*
X135363000Y-87274061D01*
X135363000Y-87477939D01*
X135402774Y-87677898D01*
X135480795Y-87866256D01*
X135594063Y-88035774D01*
X135738226Y-88179937D01*
X135907744Y-88293205D01*
X136096102Y-88371226D01*
X136296061Y-88411000D01*
X136499939Y-88411000D01*
X136699898Y-88371226D01*
X136888256Y-88293205D01*
X137057774Y-88179937D01*
X137201937Y-88035774D01*
X137315205Y-87866256D01*
X137360461Y-87757000D01*
X138811000Y-87757000D01*
X138811000Y-92202000D01*
X138813440Y-92226776D01*
X138820667Y-92250601D01*
X138832403Y-92272557D01*
X138848197Y-92291803D01*
X138867443Y-92307597D01*
X138889399Y-92319333D01*
X138913224Y-92326560D01*
X138938000Y-92329000D01*
X145796000Y-92329000D01*
X145820776Y-92326560D01*
X145844601Y-92319333D01*
X145866557Y-92307597D01*
X145885803Y-92291803D01*
X145901597Y-92272557D01*
X145913333Y-92250601D01*
X145920560Y-92226776D01*
X145923000Y-92202000D01*
X145923000Y-82804835D01*
X145942761Y-81303000D01*
X149367822Y-81303000D01*
X149372774Y-81327898D01*
X149450795Y-81516256D01*
X149564063Y-81685774D01*
X149708226Y-81829937D01*
X149877744Y-81943205D01*
X150066102Y-82021226D01*
X150266061Y-82061000D01*
X150469939Y-82061000D01*
X150669898Y-82021226D01*
X150858256Y-81943205D01*
X151027774Y-81829937D01*
X151171937Y-81685774D01*
X151285205Y-81516256D01*
X151363226Y-81327898D01*
X151403000Y-81127939D01*
X151403000Y-80924061D01*
X151363226Y-80724102D01*
X151285205Y-80535744D01*
X151171937Y-80366226D01*
X151027774Y-80222063D01*
X150937975Y-80162061D01*
X160255000Y-80162061D01*
X160255000Y-80365939D01*
X160294774Y-80565898D01*
X160372795Y-80754256D01*
X160486063Y-80923774D01*
X160630226Y-81067937D01*
X160799744Y-81181205D01*
X160988102Y-81259226D01*
X161188061Y-81299000D01*
X161391939Y-81299000D01*
X161591898Y-81259226D01*
X161780256Y-81181205D01*
X161949774Y-81067937D01*
X162093937Y-80923774D01*
X162207205Y-80754256D01*
X162285226Y-80565898D01*
X162325000Y-80365939D01*
X162325000Y-80162061D01*
X162285226Y-79962102D01*
X162207205Y-79773744D01*
X162093937Y-79604226D01*
X161949774Y-79460063D01*
X161780256Y-79346795D01*
X161591898Y-79268774D01*
X161391939Y-79229000D01*
X161188061Y-79229000D01*
X160988102Y-79268774D01*
X160799744Y-79346795D01*
X160630226Y-79460063D01*
X160486063Y-79604226D01*
X160372795Y-79773744D01*
X160294774Y-79962102D01*
X160255000Y-80162061D01*
X150937975Y-80162061D01*
X150858256Y-80108795D01*
X150669898Y-80030774D01*
X150469939Y-79991000D01*
X150443157Y-79991000D01*
X150442347Y-79990190D01*
X150417764Y-79960236D01*
X150298233Y-79862138D01*
X150161860Y-79789246D01*
X150013887Y-79744359D01*
X149898561Y-79733000D01*
X149898553Y-79733000D01*
X149860000Y-79729203D01*
X149821447Y-79733000D01*
X145963419Y-79733000D01*
X146168327Y-64160000D01*
X161768608Y-64160000D01*
X162580249Y-64232437D01*
X163337774Y-64439672D01*
X164046625Y-64777777D01*
X164684404Y-65236067D01*
X165230946Y-65800055D01*
X165668977Y-66451913D01*
X165984651Y-67171038D01*
X166169206Y-67939768D01*
X166218000Y-68604207D01*
X166218001Y-93696597D01*
X166145563Y-94508249D01*
X165938328Y-95265774D01*
X165600221Y-95974627D01*
X165141928Y-96612410D01*
X164577945Y-97158946D01*
X163926085Y-97596978D01*
X163206963Y-97912651D01*
X162438232Y-98097206D01*
X161773792Y-98146000D01*
X110519392Y-98146000D01*
X109707751Y-98073563D01*
X108950226Y-97866328D01*
X108241373Y-97528221D01*
X107603590Y-97069928D01*
X107057054Y-96505945D01*
X106619022Y-95854085D01*
X106303349Y-95134963D01*
X106118794Y-94366232D01*
X106070000Y-93701792D01*
X106070000Y-91222241D01*
X106141599Y-91260511D01*
X106374398Y-91331130D01*
X106555835Y-91349000D01*
X107377165Y-91349000D01*
X107558602Y-91331130D01*
X107791401Y-91260511D01*
X108005949Y-91145833D01*
X108194002Y-90991502D01*
X108348333Y-90803449D01*
X108463011Y-90588901D01*
X108533630Y-90356102D01*
X108557475Y-90114000D01*
X108533630Y-89871898D01*
X108530617Y-89861965D01*
X108610119Y-89980949D01*
X108799551Y-90170381D01*
X109022299Y-90319216D01*
X109269803Y-90421736D01*
X109532552Y-90474000D01*
X109800448Y-90474000D01*
X110063197Y-90421736D01*
X110310701Y-90319216D01*
X110533449Y-90170381D01*
X110722881Y-89980949D01*
X110871716Y-89758201D01*
X110974236Y-89510697D01*
X111026500Y-89247948D01*
X111026500Y-88980052D01*
X110974236Y-88717303D01*
X110871716Y-88469799D01*
X110722881Y-88247051D01*
X110533449Y-88057619D01*
X110310701Y-87908784D01*
X110063197Y-87806264D01*
X109800448Y-87754000D01*
X109532552Y-87754000D01*
X109269803Y-87806264D01*
X109022299Y-87908784D01*
X108799551Y-88057619D01*
X108610119Y-88247051D01*
X108461284Y-88469799D01*
X108358764Y-88717303D01*
X108306500Y-88980052D01*
X108306500Y-89247948D01*
X108339484Y-89413768D01*
X108194002Y-89236498D01*
X108005949Y-89082167D01*
X107791401Y-88967489D01*
X107558602Y-88896870D01*
X107377165Y-88879000D01*
X106555835Y-88879000D01*
X106374398Y-88896870D01*
X106141599Y-88967489D01*
X106070000Y-89005759D01*
X106070000Y-84222241D01*
X106141599Y-84260511D01*
X106374398Y-84331130D01*
X106555835Y-84349000D01*
X107377165Y-84349000D01*
X107558602Y-84331130D01*
X107791401Y-84260511D01*
X108005949Y-84145833D01*
X108194002Y-83991502D01*
X108339484Y-83814232D01*
X108306500Y-83980052D01*
X108306500Y-84247948D01*
X108358764Y-84510697D01*
X108461284Y-84758201D01*
X108610119Y-84980949D01*
X108799551Y-85170381D01*
X109022299Y-85319216D01*
X109269803Y-85421736D01*
X109532552Y-85474000D01*
X109800448Y-85474000D01*
X110063197Y-85421736D01*
X110310701Y-85319216D01*
X110533449Y-85170381D01*
X110722881Y-84980949D01*
X110871716Y-84758201D01*
X110974236Y-84510697D01*
X111026500Y-84247948D01*
X111026500Y-83980052D01*
X110974236Y-83717303D01*
X110871716Y-83469799D01*
X110722881Y-83247051D01*
X110533449Y-83057619D01*
X110310701Y-82908784D01*
X110063197Y-82806264D01*
X109800448Y-82754000D01*
X109532552Y-82754000D01*
X109269803Y-82806264D01*
X109022299Y-82908784D01*
X108799551Y-83057619D01*
X108610119Y-83247051D01*
X108530617Y-83366035D01*
X108533630Y-83356102D01*
X108557475Y-83114000D01*
X108533630Y-82871898D01*
X108463011Y-82639099D01*
X108348333Y-82424551D01*
X108194002Y-82236498D01*
X108005949Y-82082167D01*
X107791401Y-81967489D01*
X107558602Y-81896870D01*
X107377165Y-81879000D01*
X106555835Y-81879000D01*
X106374398Y-81896870D01*
X106141599Y-81967489D01*
X106070000Y-82005759D01*
X106070000Y-81686061D01*
X111487000Y-81686061D01*
X111487000Y-81889939D01*
X111526774Y-82089898D01*
X111604795Y-82278256D01*
X111718063Y-82447774D01*
X111862226Y-82591937D01*
X112031744Y-82705205D01*
X112220102Y-82783226D01*
X112420061Y-82823000D01*
X112446843Y-82823000D01*
X120046001Y-90422159D01*
X120046001Y-90507288D01*
X120027063Y-90526226D01*
X119913795Y-90695744D01*
X119835774Y-90884102D01*
X119796000Y-91084061D01*
X119796000Y-91287939D01*
X119835774Y-91487898D01*
X119913795Y-91676256D01*
X120027063Y-91845774D01*
X120171226Y-91989937D01*
X120340744Y-92103205D01*
X120529102Y-92181226D01*
X120729061Y-92221000D01*
X120755843Y-92221000D01*
X121024190Y-92489347D01*
X121021870Y-92492819D01*
X120943849Y-92681177D01*
X120904075Y-92881136D01*
X120904075Y-93085014D01*
X120925952Y-93195000D01*
X114978711Y-93195000D01*
X114959774Y-93176063D01*
X114790256Y-93062795D01*
X114601898Y-92984774D01*
X114401939Y-92945000D01*
X114198061Y-92945000D01*
X113998102Y-92984774D01*
X113809744Y-93062795D01*
X113640226Y-93176063D01*
X113496063Y-93320226D01*
X113382795Y-93489744D01*
X113304774Y-93678102D01*
X113265000Y-93878061D01*
X113265000Y-94081939D01*
X113304774Y-94281898D01*
X113382795Y-94470256D01*
X113496063Y-94639774D01*
X113640226Y-94783937D01*
X113809744Y-94897205D01*
X113998102Y-94975226D01*
X114198061Y-95015000D01*
X114401939Y-95015000D01*
X114601898Y-94975226D01*
X114790256Y-94897205D01*
X114959774Y-94783937D01*
X114978711Y-94765000D01*
X115551000Y-94765000D01*
X115551000Y-94831939D01*
X115590774Y-95031898D01*
X115668795Y-95220256D01*
X115782063Y-95389774D01*
X115809136Y-95416847D01*
X115812359Y-95449572D01*
X115857246Y-95597545D01*
X115930139Y-95733918D01*
X115954927Y-95764122D01*
X116003655Y-95823497D01*
X116003659Y-95823501D01*
X116028237Y-95853449D01*
X116058186Y-95878028D01*
X116199966Y-96019807D01*
X116224552Y-96049765D01*
X116344083Y-96147863D01*
X116480456Y-96220755D01*
X116514897Y-96231202D01*
X116628429Y-96265643D01*
X116703342Y-96273021D01*
X116743755Y-96277001D01*
X116743760Y-96277001D01*
X116782316Y-96280798D01*
X116820872Y-96277001D01*
X132401448Y-96277001D01*
X132440001Y-96280798D01*
X132478554Y-96277001D01*
X132478562Y-96277001D01*
X132593888Y-96265642D01*
X132741861Y-96220755D01*
X132878234Y-96147863D01*
X132997765Y-96049765D01*
X133022348Y-96019811D01*
X136329850Y-92712309D01*
X136445898Y-92689226D01*
X136634256Y-92611205D01*
X136803774Y-92497937D01*
X136947937Y-92353774D01*
X137061205Y-92184256D01*
X137139226Y-91995898D01*
X137179000Y-91795939D01*
X137179000Y-91592061D01*
X137139226Y-91392102D01*
X137061205Y-91203744D01*
X136947937Y-91034226D01*
X136803774Y-90890063D01*
X136634256Y-90776795D01*
X136445898Y-90698774D01*
X136245939Y-90659000D01*
X136042061Y-90659000D01*
X135842102Y-90698774D01*
X135653744Y-90776795D01*
X135636000Y-90788651D01*
X135618256Y-90776795D01*
X135429898Y-90698774D01*
X135229939Y-90659000D01*
X135026061Y-90659000D01*
X134826102Y-90698774D01*
X134637744Y-90776795D01*
X134468226Y-90890063D01*
X134324063Y-91034226D01*
X134210795Y-91203744D01*
X134132774Y-91392102D01*
X134093000Y-91592061D01*
X134093000Y-91618842D01*
X132516843Y-93195000D01*
X122952198Y-93195000D01*
X122974075Y-93085014D01*
X122974075Y-92881136D01*
X122934301Y-92681177D01*
X122856280Y-92492819D01*
X122743012Y-92323301D01*
X122726609Y-92306898D01*
X122727872Y-92294075D01*
X122724075Y-92255519D01*
X122724075Y-92255514D01*
X122720095Y-92215101D01*
X122712717Y-92140188D01*
X122667829Y-91992215D01*
X122665495Y-91987849D01*
X122594937Y-91855842D01*
X122496839Y-91736311D01*
X122466885Y-91711728D01*
X121866000Y-91110843D01*
X121866000Y-91084061D01*
X121826226Y-90884102D01*
X121748205Y-90695744D01*
X121634937Y-90526226D01*
X121616000Y-90507289D01*
X121616000Y-90135552D01*
X121619797Y-90096999D01*
X121616000Y-90058446D01*
X121616000Y-90058439D01*
X121604641Y-89943113D01*
X121559754Y-89795140D01*
X121486862Y-89658767D01*
X121388764Y-89539236D01*
X121358816Y-89514658D01*
X120388219Y-88544061D01*
X123425000Y-88544061D01*
X123425000Y-88747939D01*
X123464774Y-88947898D01*
X123542795Y-89136256D01*
X123656063Y-89305774D01*
X123800226Y-89449937D01*
X123969744Y-89563205D01*
X124158102Y-89641226D01*
X124358061Y-89681000D01*
X124561939Y-89681000D01*
X124761898Y-89641226D01*
X124950256Y-89563205D01*
X125119774Y-89449937D01*
X125263650Y-89306061D01*
X134347000Y-89306061D01*
X134347000Y-89509939D01*
X134386774Y-89709898D01*
X134464795Y-89898256D01*
X134578063Y-90067774D01*
X134722226Y-90211937D01*
X134891744Y-90325205D01*
X135080102Y-90403226D01*
X135280061Y-90443000D01*
X135483939Y-90443000D01*
X135683898Y-90403226D01*
X135872256Y-90325205D01*
X136041774Y-90211937D01*
X136185937Y-90067774D01*
X136299205Y-89898256D01*
X136377226Y-89709898D01*
X136417000Y-89509939D01*
X136417000Y-89306061D01*
X136377226Y-89106102D01*
X136299205Y-88917744D01*
X136185937Y-88748226D01*
X136041774Y-88604063D01*
X135872256Y-88490795D01*
X135683898Y-88412774D01*
X135483939Y-88373000D01*
X135280061Y-88373000D01*
X135080102Y-88412774D01*
X134891744Y-88490795D01*
X134722226Y-88604063D01*
X134578063Y-88748226D01*
X134464795Y-88917744D01*
X134386774Y-89106102D01*
X134347000Y-89306061D01*
X125263650Y-89306061D01*
X125263937Y-89305774D01*
X125377205Y-89136256D01*
X125455226Y-88947898D01*
X125495000Y-88747939D01*
X125495000Y-88544061D01*
X125455226Y-88344102D01*
X125377205Y-88155744D01*
X125263937Y-87986226D01*
X125119774Y-87842063D01*
X124950256Y-87728795D01*
X124761898Y-87650774D01*
X124561939Y-87611000D01*
X124358061Y-87611000D01*
X124158102Y-87650774D01*
X123969744Y-87728795D01*
X123800226Y-87842063D01*
X123656063Y-87986226D01*
X123542795Y-88155744D01*
X123464774Y-88344102D01*
X123425000Y-88544061D01*
X120388219Y-88544061D01*
X118864219Y-87020061D01*
X126473000Y-87020061D01*
X126473000Y-87223939D01*
X126512774Y-87423898D01*
X126590795Y-87612256D01*
X126704063Y-87781774D01*
X126848226Y-87925937D01*
X127017744Y-88039205D01*
X127206102Y-88117226D01*
X127406061Y-88157000D01*
X127609939Y-88157000D01*
X127809898Y-88117226D01*
X127998256Y-88039205D01*
X128167774Y-87925937D01*
X128311937Y-87781774D01*
X128425205Y-87612256D01*
X128503226Y-87423898D01*
X128543000Y-87223939D01*
X128543000Y-87020061D01*
X128503226Y-86820102D01*
X128425205Y-86631744D01*
X128311937Y-86462226D01*
X128167774Y-86318063D01*
X127998256Y-86204795D01*
X127809898Y-86126774D01*
X127609939Y-86087000D01*
X127406061Y-86087000D01*
X127206102Y-86126774D01*
X127017744Y-86204795D01*
X126848226Y-86318063D01*
X126704063Y-86462226D01*
X126590795Y-86631744D01*
X126512774Y-86820102D01*
X126473000Y-87020061D01*
X118864219Y-87020061D01*
X113557000Y-81712843D01*
X113557000Y-81686061D01*
X113517226Y-81486102D01*
X113439205Y-81297744D01*
X113325937Y-81128226D01*
X113181774Y-80984063D01*
X113012256Y-80870795D01*
X112823898Y-80792774D01*
X112623939Y-80753000D01*
X112420061Y-80753000D01*
X112220102Y-80792774D01*
X112031744Y-80870795D01*
X111862226Y-80984063D01*
X111718063Y-81128226D01*
X111604795Y-81297744D01*
X111526774Y-81486102D01*
X111487000Y-81686061D01*
X106070000Y-81686061D01*
X106070000Y-76606061D01*
X124441000Y-76606061D01*
X124441000Y-76809939D01*
X124480774Y-77009898D01*
X124558795Y-77198256D01*
X124672063Y-77367774D01*
X124816226Y-77511937D01*
X124985744Y-77625205D01*
X125174102Y-77703226D01*
X125374061Y-77743000D01*
X125577939Y-77743000D01*
X125777898Y-77703226D01*
X125966256Y-77625205D01*
X126135774Y-77511937D01*
X126279937Y-77367774D01*
X126393205Y-77198256D01*
X126471226Y-77009898D01*
X126511000Y-76809939D01*
X126511000Y-76606061D01*
X126471226Y-76406102D01*
X126393205Y-76217744D01*
X126279937Y-76048226D01*
X126135774Y-75904063D01*
X125966256Y-75790795D01*
X125777898Y-75712774D01*
X125577939Y-75673000D01*
X125374061Y-75673000D01*
X125174102Y-75712774D01*
X124985744Y-75790795D01*
X124816226Y-75904063D01*
X124672063Y-76048226D01*
X124558795Y-76217744D01*
X124480774Y-76406102D01*
X124441000Y-76606061D01*
X106070000Y-76606061D01*
X106070000Y-69504000D01*
X128813928Y-69504000D01*
X128813928Y-70704000D01*
X128830992Y-70877254D01*
X128881528Y-71043850D01*
X128963595Y-71197386D01*
X129074038Y-71331962D01*
X129208614Y-71442405D01*
X129362150Y-71524472D01*
X129517000Y-71571445D01*
X129517001Y-75145437D01*
X129513203Y-75184000D01*
X129528359Y-75337886D01*
X129573246Y-75485859D01*
X129573247Y-75485860D01*
X129646139Y-75622233D01*
X129686690Y-75671644D01*
X129719655Y-75711812D01*
X129719659Y-75711816D01*
X129744237Y-75741764D01*
X129774185Y-75766342D01*
X131045000Y-77037157D01*
X131045000Y-77063939D01*
X131084774Y-77263898D01*
X131162795Y-77452256D01*
X131276063Y-77621774D01*
X131420226Y-77765937D01*
X131589744Y-77879205D01*
X131778102Y-77957226D01*
X131978061Y-77997000D01*
X132181939Y-77997000D01*
X132381898Y-77957226D01*
X132570256Y-77879205D01*
X132739774Y-77765937D01*
X132883937Y-77621774D01*
X132953284Y-77517989D01*
X133113744Y-77625205D01*
X133302102Y-77703226D01*
X133502061Y-77743000D01*
X133705939Y-77743000D01*
X133905898Y-77703226D01*
X134094256Y-77625205D01*
X134263774Y-77511937D01*
X134407937Y-77367774D01*
X134521205Y-77198256D01*
X134599226Y-77009898D01*
X134639000Y-76809939D01*
X134639000Y-76606061D01*
X134599226Y-76406102D01*
X134521205Y-76217744D01*
X134407937Y-76048226D01*
X134263774Y-75904063D01*
X134094256Y-75790795D01*
X133905898Y-75712774D01*
X133705939Y-75673000D01*
X133502061Y-75673000D01*
X133302102Y-75712774D01*
X133113744Y-75790795D01*
X132944226Y-75904063D01*
X132800063Y-76048226D01*
X132730716Y-76152011D01*
X132570256Y-76044795D01*
X132381898Y-75966774D01*
X132181939Y-75927000D01*
X132155157Y-75927000D01*
X131087000Y-74858843D01*
X131087000Y-71571445D01*
X131241850Y-71524472D01*
X131395386Y-71442405D01*
X131529962Y-71331962D01*
X131640405Y-71197386D01*
X131708285Y-71070392D01*
X131895368Y-71257475D01*
X132138589Y-71419990D01*
X132408842Y-71531932D01*
X132695740Y-71589000D01*
X132988260Y-71589000D01*
X133275158Y-71531932D01*
X133545411Y-71419990D01*
X133788632Y-71257475D01*
X133995475Y-71050632D01*
X134112000Y-70876240D01*
X134228525Y-71050632D01*
X134435368Y-71257475D01*
X134678589Y-71419990D01*
X134948842Y-71531932D01*
X135235740Y-71589000D01*
X135528260Y-71589000D01*
X135815158Y-71531932D01*
X136085411Y-71419990D01*
X136328632Y-71257475D01*
X136535475Y-71050632D01*
X136652000Y-70876240D01*
X136768525Y-71050632D01*
X136975368Y-71257475D01*
X137218589Y-71419990D01*
X137488842Y-71531932D01*
X137775740Y-71589000D01*
X138068260Y-71589000D01*
X138355158Y-71531932D01*
X138625411Y-71419990D01*
X138868632Y-71257475D01*
X139075475Y-71050632D01*
X139192000Y-70876240D01*
X139308525Y-71050632D01*
X139515368Y-71257475D01*
X139758589Y-71419990D01*
X140028842Y-71531932D01*
X140315740Y-71589000D01*
X140608260Y-71589000D01*
X140895158Y-71531932D01*
X141165411Y-71419990D01*
X141408632Y-71257475D01*
X141615475Y-71050632D01*
X141777990Y-70807411D01*
X141889932Y-70537158D01*
X141947000Y-70250260D01*
X141947000Y-69957740D01*
X141889932Y-69670842D01*
X141777990Y-69400589D01*
X141615475Y-69157368D01*
X141408632Y-68950525D01*
X141235271Y-68834689D01*
X141310792Y-68592397D01*
X140462000Y-67743605D01*
X139613208Y-68592397D01*
X139688729Y-68834689D01*
X139515368Y-68950525D01*
X139308525Y-69157368D01*
X139192000Y-69331760D01*
X139075475Y-69157368D01*
X138868632Y-68950525D01*
X138695271Y-68834689D01*
X138770792Y-68592397D01*
X137922000Y-67743605D01*
X137073208Y-68592397D01*
X137148729Y-68834689D01*
X136975368Y-68950525D01*
X136768525Y-69157368D01*
X136652000Y-69331760D01*
X136535475Y-69157368D01*
X136328632Y-68950525D01*
X136155271Y-68834689D01*
X136230792Y-68592397D01*
X135382000Y-67743605D01*
X134533208Y-68592397D01*
X134608729Y-68834689D01*
X134435368Y-68950525D01*
X134228525Y-69157368D01*
X134112000Y-69331760D01*
X133995475Y-69157368D01*
X133788632Y-68950525D01*
X133615271Y-68834689D01*
X133690792Y-68592397D01*
X132842000Y-67743605D01*
X131993208Y-68592397D01*
X132068729Y-68834689D01*
X131895368Y-68950525D01*
X131708285Y-69137608D01*
X131640405Y-69010614D01*
X131529962Y-68876038D01*
X131395386Y-68765595D01*
X131268392Y-68697715D01*
X131455475Y-68510632D01*
X131571311Y-68337271D01*
X131813603Y-68412792D01*
X132662395Y-67564000D01*
X133021605Y-67564000D01*
X133870397Y-68412792D01*
X134112000Y-68337486D01*
X134353603Y-68412792D01*
X135202395Y-67564000D01*
X135561605Y-67564000D01*
X136410397Y-68412792D01*
X136652000Y-68337486D01*
X136893603Y-68412792D01*
X137742395Y-67564000D01*
X138101605Y-67564000D01*
X138950397Y-68412792D01*
X139192000Y-68337486D01*
X139433603Y-68412792D01*
X140282395Y-67564000D01*
X140641605Y-67564000D01*
X141490397Y-68412792D01*
X141739472Y-68335157D01*
X141865371Y-68071117D01*
X141937339Y-67787589D01*
X141952611Y-67495469D01*
X141910599Y-67205981D01*
X141812919Y-66930253D01*
X141739472Y-66792843D01*
X141490397Y-66715208D01*
X140641605Y-67564000D01*
X140282395Y-67564000D01*
X139433603Y-66715208D01*
X139192000Y-66790514D01*
X138950397Y-66715208D01*
X138101605Y-67564000D01*
X137742395Y-67564000D01*
X136893603Y-66715208D01*
X136652000Y-66790514D01*
X136410397Y-66715208D01*
X135561605Y-67564000D01*
X135202395Y-67564000D01*
X134353603Y-66715208D01*
X134112000Y-66790514D01*
X133870397Y-66715208D01*
X133021605Y-67564000D01*
X132662395Y-67564000D01*
X131813603Y-66715208D01*
X131571311Y-66790729D01*
X131455475Y-66617368D01*
X131373710Y-66535603D01*
X131993208Y-66535603D01*
X132842000Y-67384395D01*
X133690792Y-66535603D01*
X134533208Y-66535603D01*
X135382000Y-67384395D01*
X136230792Y-66535603D01*
X137073208Y-66535603D01*
X137922000Y-67384395D01*
X138770792Y-66535603D01*
X139613208Y-66535603D01*
X140462000Y-67384395D01*
X141310792Y-66535603D01*
X141233157Y-66286528D01*
X140969117Y-66160629D01*
X140685589Y-66088661D01*
X140393469Y-66073389D01*
X140103981Y-66115401D01*
X139828253Y-66213081D01*
X139690843Y-66286528D01*
X139613208Y-66535603D01*
X138770792Y-66535603D01*
X138693157Y-66286528D01*
X138429117Y-66160629D01*
X138145589Y-66088661D01*
X137853469Y-66073389D01*
X137563981Y-66115401D01*
X137288253Y-66213081D01*
X137150843Y-66286528D01*
X137073208Y-66535603D01*
X136230792Y-66535603D01*
X136153157Y-66286528D01*
X135889117Y-66160629D01*
X135605589Y-66088661D01*
X135313469Y-66073389D01*
X135023981Y-66115401D01*
X134748253Y-66213081D01*
X134610843Y-66286528D01*
X134533208Y-66535603D01*
X133690792Y-66535603D01*
X133613157Y-66286528D01*
X133349117Y-66160629D01*
X133065589Y-66088661D01*
X132773469Y-66073389D01*
X132483981Y-66115401D01*
X132208253Y-66213081D01*
X132070843Y-66286528D01*
X131993208Y-66535603D01*
X131373710Y-66535603D01*
X131248632Y-66410525D01*
X131005411Y-66248010D01*
X130735158Y-66136068D01*
X130448260Y-66079000D01*
X130155740Y-66079000D01*
X129868842Y-66136068D01*
X129598589Y-66248010D01*
X129355368Y-66410525D01*
X129148525Y-66617368D01*
X128986010Y-66860589D01*
X128874068Y-67130842D01*
X128817000Y-67417740D01*
X128817000Y-67710260D01*
X128874068Y-67997158D01*
X128986010Y-68267411D01*
X129148525Y-68510632D01*
X129335608Y-68697715D01*
X129208614Y-68765595D01*
X129074038Y-68876038D01*
X128963595Y-69010614D01*
X128881528Y-69164150D01*
X128830992Y-69330746D01*
X128813928Y-69504000D01*
X106070000Y-69504000D01*
X106070000Y-68609392D01*
X106142437Y-67797751D01*
X106349672Y-67040226D01*
X106687777Y-66331375D01*
X107146067Y-65693596D01*
X107710055Y-65147054D01*
X108361913Y-64709023D01*
X109081038Y-64393349D01*
X109849768Y-64208794D01*
X110514207Y-64160000D01*
X145914305Y-64160000D01*
X145709397Y-79733000D01*
M02*
