G04 #@! TF.GenerationSoftware,KiCad,Pcbnew,5.1.6*
G04 #@! TF.CreationDate,2020-06-28T22:26:33+02:00*
G04 #@! TF.ProjectId,xbee_transciever,78626565-5f74-4726-916e-736369657665,rev?*
G04 #@! TF.SameCoordinates,Original*
G04 #@! TF.FileFunction,Legend,Top*
G04 #@! TF.FilePolarity,Positive*
%FSLAX46Y46*%
G04 Gerber Fmt 4.6, Leading zero omitted, Abs format (unit mm)*
G04 Created by KiCad (PCBNEW 5.1.6) date 2020-06-28 22:26:33*
%MOMM*%
%LPD*%
G01*
G04 APERTURE LIST*
%ADD10C,0.125000*%
%ADD11C,0.050000*%
%ADD12C,0.120000*%
%ADD13C,0.150000*%
%ADD14C,0.100000*%
%ADD15C,0.203200*%
G04 APERTURE END LIST*
D10*
X42983333Y-70100000D02*
X42983333Y-69861904D01*
X43126190Y-70147619D02*
X42626190Y-69980952D01*
X43126190Y-69814285D01*
X42626190Y-69719047D02*
X42626190Y-69433333D01*
X43126190Y-69576190D02*
X42626190Y-69576190D01*
X42626190Y-69338095D02*
X42626190Y-69052380D01*
X43126190Y-69195238D02*
X42626190Y-69195238D01*
D11*
X26167047Y-51796190D02*
X26500380Y-51796190D01*
X26167047Y-52296190D01*
X26500380Y-52296190D01*
X26690857Y-52296190D02*
X26690857Y-51962857D01*
X26690857Y-51796190D02*
X26667047Y-51820000D01*
X26690857Y-51843809D01*
X26714666Y-51820000D01*
X26690857Y-51796190D01*
X26690857Y-51843809D01*
X27143238Y-51962857D02*
X27143238Y-52367619D01*
X27119428Y-52415238D01*
X27095619Y-52439047D01*
X27047999Y-52462857D01*
X26976571Y-52462857D01*
X26928952Y-52439047D01*
X27143238Y-52272380D02*
X27095619Y-52296190D01*
X27000380Y-52296190D01*
X26952761Y-52272380D01*
X26928952Y-52248571D01*
X26905142Y-52200952D01*
X26905142Y-52058095D01*
X26928952Y-52010476D01*
X26952761Y-51986666D01*
X27000380Y-51962857D01*
X27095619Y-51962857D01*
X27143238Y-51986666D01*
X27547999Y-52034285D02*
X27619428Y-52058095D01*
X27643238Y-52081904D01*
X27667047Y-52129523D01*
X27667047Y-52200952D01*
X27643238Y-52248571D01*
X27619428Y-52272380D01*
X27571809Y-52296190D01*
X27381333Y-52296190D01*
X27381333Y-51796190D01*
X27547999Y-51796190D01*
X27595619Y-51820000D01*
X27619428Y-51843809D01*
X27643238Y-51891428D01*
X27643238Y-51939047D01*
X27619428Y-51986666D01*
X27595619Y-52010476D01*
X27547999Y-52034285D01*
X27381333Y-52034285D01*
X28071809Y-52272380D02*
X28024190Y-52296190D01*
X27928952Y-52296190D01*
X27881333Y-52272380D01*
X27857523Y-52224761D01*
X27857523Y-52034285D01*
X27881333Y-51986666D01*
X27928952Y-51962857D01*
X28024190Y-51962857D01*
X28071809Y-51986666D01*
X28095619Y-52034285D01*
X28095619Y-52081904D01*
X27857523Y-52129523D01*
X28500380Y-52272380D02*
X28452761Y-52296190D01*
X28357523Y-52296190D01*
X28309904Y-52272380D01*
X28286095Y-52224761D01*
X28286095Y-52034285D01*
X28309904Y-51986666D01*
X28357523Y-51962857D01*
X28452761Y-51962857D01*
X28500380Y-51986666D01*
X28524190Y-52034285D01*
X28524190Y-52081904D01*
X28286095Y-52129523D01*
X29047999Y-51796190D02*
X29333714Y-51796190D01*
X29190857Y-52296190D02*
X29190857Y-51796190D01*
X29500380Y-52296190D02*
X29500380Y-51962857D01*
X29500380Y-52058095D02*
X29524190Y-52010476D01*
X29547999Y-51986666D01*
X29595619Y-51962857D01*
X29643238Y-51962857D01*
X30024190Y-52296190D02*
X30024190Y-52034285D01*
X30000380Y-51986666D01*
X29952761Y-51962857D01*
X29857523Y-51962857D01*
X29809904Y-51986666D01*
X30024190Y-52272380D02*
X29976571Y-52296190D01*
X29857523Y-52296190D01*
X29809904Y-52272380D01*
X29786095Y-52224761D01*
X29786095Y-52177142D01*
X29809904Y-52129523D01*
X29857523Y-52105714D01*
X29976571Y-52105714D01*
X30024190Y-52081904D01*
X30262285Y-51962857D02*
X30262285Y-52296190D01*
X30262285Y-52010476D02*
X30286095Y-51986666D01*
X30333714Y-51962857D01*
X30405142Y-51962857D01*
X30452761Y-51986666D01*
X30476571Y-52034285D01*
X30476571Y-52296190D01*
X30690857Y-52272380D02*
X30738476Y-52296190D01*
X30833714Y-52296190D01*
X30881333Y-52272380D01*
X30905142Y-52224761D01*
X30905142Y-52200952D01*
X30881333Y-52153333D01*
X30833714Y-52129523D01*
X30762285Y-52129523D01*
X30714666Y-52105714D01*
X30690857Y-52058095D01*
X30690857Y-52034285D01*
X30714666Y-51986666D01*
X30762285Y-51962857D01*
X30833714Y-51962857D01*
X30881333Y-51986666D01*
X31333714Y-52272380D02*
X31286095Y-52296190D01*
X31190857Y-52296190D01*
X31143238Y-52272380D01*
X31119428Y-52248571D01*
X31095619Y-52200952D01*
X31095619Y-52058095D01*
X31119428Y-52010476D01*
X31143238Y-51986666D01*
X31190857Y-51962857D01*
X31286095Y-51962857D01*
X31333714Y-51986666D01*
X31547999Y-52296190D02*
X31547999Y-51962857D01*
X31547999Y-51796190D02*
X31524190Y-51820000D01*
X31547999Y-51843809D01*
X31571809Y-51820000D01*
X31547999Y-51796190D01*
X31547999Y-51843809D01*
X31976571Y-52272380D02*
X31928952Y-52296190D01*
X31833714Y-52296190D01*
X31786095Y-52272380D01*
X31762285Y-52224761D01*
X31762285Y-52034285D01*
X31786095Y-51986666D01*
X31833714Y-51962857D01*
X31928952Y-51962857D01*
X31976571Y-51986666D01*
X32000380Y-52034285D01*
X32000380Y-52081904D01*
X31762285Y-52129523D01*
X32167047Y-51962857D02*
X32286095Y-52296190D01*
X32405142Y-51962857D01*
X32786095Y-52272380D02*
X32738476Y-52296190D01*
X32643238Y-52296190D01*
X32595619Y-52272380D01*
X32571809Y-52224761D01*
X32571809Y-52034285D01*
X32595619Y-51986666D01*
X32643238Y-51962857D01*
X32738476Y-51962857D01*
X32786095Y-51986666D01*
X32809904Y-52034285D01*
X32809904Y-52081904D01*
X32571809Y-52129523D01*
X33024190Y-52296190D02*
X33024190Y-51962857D01*
X33024190Y-52058095D02*
X33047999Y-52010476D01*
X33071809Y-51986666D01*
X33119428Y-51962857D01*
X33167047Y-51962857D01*
X33714666Y-52105714D02*
X34095619Y-52105714D01*
X34976571Y-52296190D02*
X34690857Y-52296190D01*
X34833714Y-52296190D02*
X34833714Y-51796190D01*
X34786095Y-51867619D01*
X34738476Y-51915238D01*
X34690857Y-51939047D01*
X35262285Y-52010476D02*
X35214666Y-51986666D01*
X35190857Y-51962857D01*
X35167047Y-51915238D01*
X35167047Y-51891428D01*
X35190857Y-51843809D01*
X35214666Y-51820000D01*
X35262285Y-51796190D01*
X35357523Y-51796190D01*
X35405142Y-51820000D01*
X35428952Y-51843809D01*
X35452761Y-51891428D01*
X35452761Y-51915238D01*
X35428952Y-51962857D01*
X35405142Y-51986666D01*
X35357523Y-52010476D01*
X35262285Y-52010476D01*
X35214666Y-52034285D01*
X35190857Y-52058095D01*
X35167047Y-52105714D01*
X35167047Y-52200952D01*
X35190857Y-52248571D01*
X35214666Y-52272380D01*
X35262285Y-52296190D01*
X35357523Y-52296190D01*
X35405142Y-52272380D01*
X35428952Y-52248571D01*
X35452761Y-52200952D01*
X35452761Y-52105714D01*
X35428952Y-52058095D01*
X35405142Y-52034285D01*
X35357523Y-52010476D01*
X35881333Y-51962857D02*
X35881333Y-52296190D01*
X35762285Y-51772380D02*
X35643238Y-52129523D01*
X35952761Y-52129523D01*
X36238476Y-51796190D02*
X36286095Y-51796190D01*
X36333714Y-51820000D01*
X36357523Y-51843809D01*
X36381333Y-51891428D01*
X36405142Y-51986666D01*
X36405142Y-52105714D01*
X36381333Y-52200952D01*
X36357523Y-52248571D01*
X36333714Y-52272380D01*
X36286095Y-52296190D01*
X36238476Y-52296190D01*
X36190857Y-52272380D01*
X36167047Y-52248571D01*
X36143238Y-52200952D01*
X36119428Y-52105714D01*
X36119428Y-51986666D01*
X36143238Y-51891428D01*
X36167047Y-51843809D01*
X36190857Y-51820000D01*
X36238476Y-51796190D01*
X36833714Y-51796190D02*
X36738476Y-51796190D01*
X36690857Y-51820000D01*
X36667047Y-51843809D01*
X36619428Y-51915238D01*
X36595619Y-52010476D01*
X36595619Y-52200952D01*
X36619428Y-52248571D01*
X36643238Y-52272380D01*
X36690857Y-52296190D01*
X36786095Y-52296190D01*
X36833714Y-52272380D01*
X36857523Y-52248571D01*
X36881333Y-52200952D01*
X36881333Y-52081904D01*
X36857523Y-52034285D01*
X36833714Y-52010476D01*
X36786095Y-51986666D01*
X36690857Y-51986666D01*
X36643238Y-52010476D01*
X36619428Y-52034285D01*
X36595619Y-52081904D01*
X37119428Y-52296190D02*
X37214666Y-52296190D01*
X37262285Y-52272380D01*
X37286095Y-52248571D01*
X37333714Y-52177142D01*
X37357523Y-52081904D01*
X37357523Y-51891428D01*
X37333714Y-51843809D01*
X37309904Y-51820000D01*
X37262285Y-51796190D01*
X37167047Y-51796190D01*
X37119428Y-51820000D01*
X37095619Y-51843809D01*
X37071809Y-51891428D01*
X37071809Y-52010476D01*
X37095619Y-52058095D01*
X37119428Y-52081904D01*
X37167047Y-52105714D01*
X37262285Y-52105714D01*
X37309904Y-52081904D01*
X37333714Y-52058095D01*
X37357523Y-52010476D01*
X38047999Y-51796190D02*
X38143238Y-51796190D01*
X38190857Y-51820000D01*
X38238476Y-51867619D01*
X38262285Y-51962857D01*
X38262285Y-52129523D01*
X38238476Y-52224761D01*
X38190857Y-52272380D01*
X38143238Y-52296190D01*
X38047999Y-52296190D01*
X38000380Y-52272380D01*
X37952761Y-52224761D01*
X37928952Y-52129523D01*
X37928952Y-51962857D01*
X37952761Y-51867619D01*
X38000380Y-51820000D01*
X38047999Y-51796190D01*
X38476571Y-51962857D02*
X38476571Y-52296190D01*
X38476571Y-52010476D02*
X38500380Y-51986666D01*
X38547999Y-51962857D01*
X38619428Y-51962857D01*
X38667047Y-51986666D01*
X38690857Y-52034285D01*
X38690857Y-52296190D01*
X39143238Y-52296190D02*
X39143238Y-51796190D01*
X39143238Y-52272380D02*
X39095619Y-52296190D01*
X39000380Y-52296190D01*
X38952761Y-52272380D01*
X38928952Y-52248571D01*
X38905142Y-52200952D01*
X38905142Y-52058095D01*
X38928952Y-52010476D01*
X38952761Y-51986666D01*
X39000380Y-51962857D01*
X39095619Y-51962857D01*
X39143238Y-51986666D01*
X39381333Y-52296190D02*
X39381333Y-51962857D01*
X39381333Y-52058095D02*
X39405142Y-52010476D01*
X39428952Y-51986666D01*
X39476571Y-51962857D01*
X39524190Y-51962857D01*
X39333714Y-51772380D02*
X39428952Y-51843809D01*
X39524190Y-51772380D01*
X39881333Y-52272380D02*
X39833714Y-52296190D01*
X39738476Y-52296190D01*
X39690857Y-52272380D01*
X39667047Y-52224761D01*
X39667047Y-52034285D01*
X39690857Y-51986666D01*
X39738476Y-51962857D01*
X39833714Y-51962857D01*
X39881333Y-51986666D01*
X39905142Y-52034285D01*
X39905142Y-52081904D01*
X39667047Y-52129523D01*
X40119428Y-51962857D02*
X40119428Y-52391428D01*
X40095619Y-52439047D01*
X40047999Y-52462857D01*
X40024190Y-52462857D01*
X40119428Y-51796190D02*
X40095619Y-51820000D01*
X40119428Y-51843809D01*
X40143238Y-51820000D01*
X40119428Y-51796190D01*
X40119428Y-51843809D01*
X40738476Y-52296190D02*
X40738476Y-51796190D01*
X40928952Y-51796190D01*
X40976571Y-51820000D01*
X41000380Y-51843809D01*
X41024190Y-51891428D01*
X41024190Y-51962857D01*
X41000380Y-52010476D01*
X40976571Y-52034285D01*
X40928952Y-52058095D01*
X40738476Y-52058095D01*
X41309904Y-52296190D02*
X41262285Y-52272380D01*
X41238476Y-52248571D01*
X41214666Y-52200952D01*
X41214666Y-52058095D01*
X41238476Y-52010476D01*
X41262285Y-51986666D01*
X41309904Y-51962857D01*
X41381333Y-51962857D01*
X41428952Y-51986666D01*
X41452761Y-52010476D01*
X41476571Y-52058095D01*
X41476571Y-52200952D01*
X41452761Y-52248571D01*
X41428952Y-52272380D01*
X41381333Y-52296190D01*
X41309904Y-52296190D01*
X41643238Y-51962857D02*
X41762285Y-52296190D01*
X41881333Y-51962857D01*
X42143238Y-52296190D02*
X42095619Y-52272380D01*
X42071809Y-52248571D01*
X42047999Y-52200952D01*
X42047999Y-52058095D01*
X42071809Y-52010476D01*
X42095619Y-51986666D01*
X42143238Y-51962857D01*
X42214666Y-51962857D01*
X42262285Y-51986666D01*
X42286095Y-52010476D01*
X42309904Y-52058095D01*
X42309904Y-52200952D01*
X42286095Y-52248571D01*
X42262285Y-52272380D01*
X42214666Y-52296190D01*
X42143238Y-52296190D01*
X42595619Y-52296190D02*
X42547999Y-52272380D01*
X42524190Y-52224761D01*
X42524190Y-51796190D01*
X42786095Y-51962857D02*
X42786095Y-52296190D01*
X42786095Y-52010476D02*
X42809904Y-51986666D01*
X42857523Y-51962857D01*
X42928952Y-51962857D01*
X42976571Y-51986666D01*
X43000380Y-52034285D01*
X43000380Y-52296190D01*
X43190857Y-51962857D02*
X43309904Y-52296190D01*
X43428952Y-51962857D02*
X43309904Y-52296190D01*
X43262285Y-52415238D01*
X43238476Y-52439047D01*
X43190857Y-52462857D01*
X43357523Y-51772380D02*
X43286095Y-51843809D01*
D12*
X28686500Y-58584000D02*
X28686500Y-59034000D01*
X26836500Y-58584000D02*
X28686500Y-58584000D01*
X24286500Y-66384000D02*
X24536500Y-66384000D01*
X24286500Y-58584000D02*
X24536500Y-58584000D01*
X26836500Y-66384000D02*
X28686500Y-66384000D01*
X28686500Y-66384000D02*
X28686500Y-65934000D01*
X29236500Y-60784000D02*
X29236500Y-61234000D01*
X29236500Y-60784000D02*
X28786500Y-60784000D01*
D13*
X30810000Y-69931000D02*
X30810000Y-71531000D01*
X40885000Y-69931000D02*
X40885000Y-64181000D01*
X30235000Y-69931000D02*
X30235000Y-64181000D01*
X40885000Y-69931000D02*
X40235000Y-69931000D01*
X40885000Y-64181000D02*
X40235000Y-64181000D01*
X30235000Y-64181000D02*
X30885000Y-64181000D01*
X30235000Y-69931000D02*
X30810000Y-69931000D01*
D12*
X34371000Y-57582000D02*
X34371000Y-61492000D01*
X34371000Y-61492000D02*
X36241000Y-61492000D01*
X36241000Y-61492000D02*
X36241000Y-57582000D01*
D13*
X41402000Y-54356000D02*
X43942000Y-54356000D01*
X44958000Y-59436000D02*
X41402000Y-59436000D01*
D12*
X37336000Y-55183721D02*
X37336000Y-55509279D01*
X38356000Y-55183721D02*
X38356000Y-55509279D01*
X48765000Y-52950000D02*
X48765000Y-56860000D01*
X48765000Y-56860000D02*
X50635000Y-56860000D01*
X50635000Y-56860000D02*
X50635000Y-52950000D01*
X48008000Y-55509279D02*
X48008000Y-55183721D01*
X46988000Y-55509279D02*
X46988000Y-55183721D01*
X65174000Y-54783000D02*
X69084000Y-54783000D01*
X65174000Y-52913000D02*
X65174000Y-54783000D01*
X69084000Y-52913000D02*
X65174000Y-52913000D01*
X66639221Y-55370000D02*
X66964779Y-55370000D01*
X66639221Y-56390000D02*
X66964779Y-56390000D01*
X64772000Y-55306279D02*
X64772000Y-54980721D01*
X63752000Y-55306279D02*
X63752000Y-54980721D01*
X42928000Y-70982721D02*
X42928000Y-71308279D01*
X41908000Y-70982721D02*
X41908000Y-71308279D01*
X37082000Y-60843279D02*
X37082000Y-60517721D01*
X38102000Y-60843279D02*
X38102000Y-60517721D01*
X46847500Y-62240000D02*
X44162500Y-62240000D01*
X46847500Y-64160000D02*
X46847500Y-62240000D01*
X44162500Y-64160000D02*
X46847500Y-64160000D01*
X44100000Y-70560000D02*
X46785000Y-70560000D01*
X46785000Y-70560000D02*
X46785000Y-68640000D01*
X46785000Y-68640000D02*
X44100000Y-68640000D01*
X44162500Y-66260000D02*
X46847500Y-66260000D01*
X46847500Y-66260000D02*
X46847500Y-64340000D01*
X46847500Y-64340000D02*
X44162500Y-64340000D01*
X46822500Y-66540000D02*
X44137500Y-66540000D01*
X46822500Y-68460000D02*
X46822500Y-66540000D01*
X44137500Y-68460000D02*
X46822500Y-68460000D01*
X30255936Y-53954000D02*
X31460064Y-53954000D01*
X30255936Y-55774000D02*
X31460064Y-55774000D01*
X34871922Y-55574000D02*
X35389078Y-55574000D01*
X34871922Y-54154000D02*
X35389078Y-54154000D01*
X45003922Y-61810000D02*
X45521078Y-61810000D01*
X45003922Y-60390000D02*
X45521078Y-60390000D01*
X44841422Y-70990000D02*
X45358578Y-70990000D01*
X44841422Y-72410000D02*
X45358578Y-72410000D01*
X61726578Y-55170000D02*
X61209422Y-55170000D01*
X61726578Y-56590000D02*
X61209422Y-56590000D01*
X47390000Y-64596078D02*
X47390000Y-64078922D01*
X48810000Y-64596078D02*
X48810000Y-64078922D01*
X48810000Y-67637922D02*
X48810000Y-68155078D01*
X47390000Y-67637922D02*
X47390000Y-68155078D01*
D13*
X58295000Y-56276000D02*
X58295000Y-51776000D01*
X58045000Y-51526000D02*
X53545000Y-51526000D01*
X53295000Y-51776000D02*
X53295000Y-56276000D01*
X58045000Y-56526000D02*
X53545000Y-56526000D01*
D14*
G36*
X68072000Y-57658000D02*
G01*
X67818000Y-57404000D01*
X67564000Y-57658000D01*
X67818000Y-57912000D01*
X68072000Y-57658000D01*
G37*
X68072000Y-57658000D02*
X67818000Y-57404000D01*
X67564000Y-57658000D01*
X67818000Y-57912000D01*
X68072000Y-57658000D01*
D15*
X68072000Y-57658000D02*
G75*
G03*
X68072000Y-57658000I-254000J0D01*
G01*
X51054000Y-58420000D02*
X51054000Y-60452000D01*
X51054000Y-70612000D02*
X51054000Y-72644000D01*
X52324000Y-72644000D02*
X51054000Y-72644000D01*
X52324000Y-58420000D02*
X51054000Y-58420000D01*
X70866000Y-72644000D02*
X70104000Y-72644000D01*
X70866000Y-72136000D02*
X70866000Y-72644000D01*
X70866000Y-58420000D02*
X67564000Y-58420000D01*
X70866000Y-58420000D02*
X70866000Y-72136000D01*
D11*
X25326190Y-57666666D02*
X25683333Y-57666666D01*
X25754761Y-57690476D01*
X25802380Y-57738095D01*
X25826190Y-57809523D01*
X25826190Y-57857142D01*
X25826190Y-57166666D02*
X25826190Y-57452380D01*
X25826190Y-57309523D02*
X25326190Y-57309523D01*
X25397619Y-57357142D01*
X25445238Y-57404761D01*
X25469047Y-57452380D01*
X29036190Y-67436952D02*
X29440952Y-67436952D01*
X29488571Y-67413142D01*
X29512380Y-67389333D01*
X29536190Y-67341714D01*
X29536190Y-67246476D01*
X29512380Y-67198857D01*
X29488571Y-67175047D01*
X29440952Y-67151238D01*
X29036190Y-67151238D01*
X29536190Y-66651238D02*
X29536190Y-66936952D01*
X29536190Y-66794095D02*
X29036190Y-66794095D01*
X29107619Y-66841714D01*
X29155238Y-66889333D01*
X29179047Y-66936952D01*
X33734571Y-59265333D02*
X33758380Y-59289142D01*
X33782190Y-59360571D01*
X33782190Y-59408190D01*
X33758380Y-59479619D01*
X33710761Y-59527238D01*
X33663142Y-59551047D01*
X33567904Y-59574857D01*
X33496476Y-59574857D01*
X33401238Y-59551047D01*
X33353619Y-59527238D01*
X33306000Y-59479619D01*
X33282190Y-59408190D01*
X33282190Y-59360571D01*
X33306000Y-59289142D01*
X33329809Y-59265333D01*
X33282190Y-59098666D02*
X33282190Y-58789142D01*
X33472666Y-58955809D01*
X33472666Y-58884380D01*
X33496476Y-58836761D01*
X33520285Y-58812952D01*
X33567904Y-58789142D01*
X33686952Y-58789142D01*
X33734571Y-58812952D01*
X33758380Y-58836761D01*
X33782190Y-58884380D01*
X33782190Y-59027238D01*
X33758380Y-59074857D01*
X33734571Y-59098666D01*
X39719047Y-59526190D02*
X39719047Y-59930952D01*
X39742857Y-59978571D01*
X39766666Y-60002380D01*
X39814285Y-60026190D01*
X39909523Y-60026190D01*
X39957142Y-60002380D01*
X39980952Y-59978571D01*
X40004761Y-59930952D01*
X40004761Y-59526190D01*
X40219047Y-59573809D02*
X40242857Y-59550000D01*
X40290476Y-59526190D01*
X40409523Y-59526190D01*
X40457142Y-59550000D01*
X40480952Y-59573809D01*
X40504761Y-59621428D01*
X40504761Y-59669047D01*
X40480952Y-59740476D01*
X40195238Y-60026190D01*
X40504761Y-60026190D01*
X37762666Y-53678571D02*
X37738857Y-53702380D01*
X37667428Y-53726190D01*
X37619809Y-53726190D01*
X37548380Y-53702380D01*
X37500761Y-53654761D01*
X37476952Y-53607142D01*
X37453142Y-53511904D01*
X37453142Y-53440476D01*
X37476952Y-53345238D01*
X37500761Y-53297619D01*
X37548380Y-53250000D01*
X37619809Y-53226190D01*
X37667428Y-53226190D01*
X37738857Y-53250000D01*
X37762666Y-53273809D01*
X38191238Y-53392857D02*
X38191238Y-53726190D01*
X38072190Y-53202380D02*
X37953142Y-53559523D01*
X38262666Y-53559523D01*
X49616666Y-52078571D02*
X49592857Y-52102380D01*
X49521428Y-52126190D01*
X49473809Y-52126190D01*
X49402380Y-52102380D01*
X49354761Y-52054761D01*
X49330952Y-52007142D01*
X49307142Y-51911904D01*
X49307142Y-51840476D01*
X49330952Y-51745238D01*
X49354761Y-51697619D01*
X49402380Y-51650000D01*
X49473809Y-51626190D01*
X49521428Y-51626190D01*
X49592857Y-51650000D01*
X49616666Y-51673809D01*
X50045238Y-51626190D02*
X49950000Y-51626190D01*
X49902380Y-51650000D01*
X49878571Y-51673809D01*
X49830952Y-51745238D01*
X49807142Y-51840476D01*
X49807142Y-52030952D01*
X49830952Y-52078571D01*
X49854761Y-52102380D01*
X49902380Y-52126190D01*
X49997619Y-52126190D01*
X50045238Y-52102380D01*
X50069047Y-52078571D01*
X50092857Y-52030952D01*
X50092857Y-51911904D01*
X50069047Y-51864285D01*
X50045238Y-51840476D01*
X49997619Y-51816666D01*
X49902380Y-51816666D01*
X49854761Y-51840476D01*
X49830952Y-51864285D01*
X49807142Y-51911904D01*
X47416666Y-53678571D02*
X47392857Y-53702380D01*
X47321428Y-53726190D01*
X47273809Y-53726190D01*
X47202380Y-53702380D01*
X47154761Y-53654761D01*
X47130952Y-53607142D01*
X47107142Y-53511904D01*
X47107142Y-53440476D01*
X47130952Y-53345238D01*
X47154761Y-53297619D01*
X47202380Y-53250000D01*
X47273809Y-53226190D01*
X47321428Y-53226190D01*
X47392857Y-53250000D01*
X47416666Y-53273809D01*
X47869047Y-53226190D02*
X47630952Y-53226190D01*
X47607142Y-53464285D01*
X47630952Y-53440476D01*
X47678571Y-53416666D01*
X47797619Y-53416666D01*
X47845238Y-53440476D01*
X47869047Y-53464285D01*
X47892857Y-53511904D01*
X47892857Y-53630952D01*
X47869047Y-53678571D01*
X47845238Y-53702380D01*
X47797619Y-53726190D01*
X47678571Y-53726190D01*
X47630952Y-53702380D01*
X47607142Y-53678571D01*
X67400666Y-52578571D02*
X67376857Y-52602380D01*
X67305428Y-52626190D01*
X67257809Y-52626190D01*
X67186380Y-52602380D01*
X67138761Y-52554761D01*
X67114952Y-52507142D01*
X67091142Y-52411904D01*
X67091142Y-52340476D01*
X67114952Y-52245238D01*
X67138761Y-52197619D01*
X67186380Y-52150000D01*
X67257809Y-52126190D01*
X67305428Y-52126190D01*
X67376857Y-52150000D01*
X67400666Y-52173809D01*
X67567333Y-52126190D02*
X67900666Y-52126190D01*
X67686380Y-52626190D01*
X68716666Y-56058571D02*
X68692857Y-56082380D01*
X68621428Y-56106190D01*
X68573809Y-56106190D01*
X68502380Y-56082380D01*
X68454761Y-56034761D01*
X68430952Y-55987142D01*
X68407142Y-55891904D01*
X68407142Y-55820476D01*
X68430952Y-55725238D01*
X68454761Y-55677619D01*
X68502380Y-55630000D01*
X68573809Y-55606190D01*
X68621428Y-55606190D01*
X68692857Y-55630000D01*
X68716666Y-55653809D01*
X69002380Y-55820476D02*
X68954761Y-55796666D01*
X68930952Y-55772857D01*
X68907142Y-55725238D01*
X68907142Y-55701428D01*
X68930952Y-55653809D01*
X68954761Y-55630000D01*
X69002380Y-55606190D01*
X69097619Y-55606190D01*
X69145238Y-55630000D01*
X69169047Y-55653809D01*
X69192857Y-55701428D01*
X69192857Y-55725238D01*
X69169047Y-55772857D01*
X69145238Y-55796666D01*
X69097619Y-55820476D01*
X69002380Y-55820476D01*
X68954761Y-55844285D01*
X68930952Y-55868095D01*
X68907142Y-55915714D01*
X68907142Y-56010952D01*
X68930952Y-56058571D01*
X68954761Y-56082380D01*
X69002380Y-56106190D01*
X69097619Y-56106190D01*
X69145238Y-56082380D01*
X69169047Y-56058571D01*
X69192857Y-56010952D01*
X69192857Y-55915714D01*
X69169047Y-55868095D01*
X69145238Y-55844285D01*
X69097619Y-55820476D01*
X64178666Y-53478571D02*
X64154857Y-53502380D01*
X64083428Y-53526190D01*
X64035809Y-53526190D01*
X63964380Y-53502380D01*
X63916761Y-53454761D01*
X63892952Y-53407142D01*
X63869142Y-53311904D01*
X63869142Y-53240476D01*
X63892952Y-53145238D01*
X63916761Y-53097619D01*
X63964380Y-53050000D01*
X64035809Y-53026190D01*
X64083428Y-53026190D01*
X64154857Y-53050000D01*
X64178666Y-53073809D01*
X64416761Y-53526190D02*
X64512000Y-53526190D01*
X64559619Y-53502380D01*
X64583428Y-53478571D01*
X64631047Y-53407142D01*
X64654857Y-53311904D01*
X64654857Y-53121428D01*
X64631047Y-53073809D01*
X64607238Y-53050000D01*
X64559619Y-53026190D01*
X64464380Y-53026190D01*
X64416761Y-53050000D01*
X64392952Y-53073809D01*
X64369142Y-53121428D01*
X64369142Y-53240476D01*
X64392952Y-53288095D01*
X64416761Y-53311904D01*
X64464380Y-53335714D01*
X64559619Y-53335714D01*
X64607238Y-53311904D01*
X64631047Y-53288095D01*
X64654857Y-53240476D01*
X42308666Y-69432571D02*
X42284857Y-69456380D01*
X42213428Y-69480190D01*
X42165809Y-69480190D01*
X42094380Y-69456380D01*
X42046761Y-69408761D01*
X42022952Y-69361142D01*
X41999142Y-69265904D01*
X41999142Y-69194476D01*
X42022952Y-69099238D01*
X42046761Y-69051619D01*
X42094380Y-69004000D01*
X42165809Y-68980190D01*
X42213428Y-68980190D01*
X42284857Y-69004000D01*
X42308666Y-69027809D01*
X42499142Y-69027809D02*
X42522952Y-69004000D01*
X42570571Y-68980190D01*
X42689619Y-68980190D01*
X42737238Y-69004000D01*
X42761047Y-69027809D01*
X42784857Y-69075428D01*
X42784857Y-69123047D01*
X42761047Y-69194476D01*
X42475333Y-69480190D01*
X42784857Y-69480190D01*
X38940571Y-60775333D02*
X38964380Y-60799142D01*
X38988190Y-60870571D01*
X38988190Y-60918190D01*
X38964380Y-60989619D01*
X38916761Y-61037238D01*
X38869142Y-61061047D01*
X38773904Y-61084857D01*
X38702476Y-61084857D01*
X38607238Y-61061047D01*
X38559619Y-61037238D01*
X38512000Y-60989619D01*
X38488190Y-60918190D01*
X38488190Y-60870571D01*
X38512000Y-60799142D01*
X38535809Y-60775333D01*
X38988190Y-60299142D02*
X38988190Y-60584857D01*
X38988190Y-60442000D02*
X38488190Y-60442000D01*
X38559619Y-60489619D01*
X38607238Y-60537238D01*
X38631047Y-60584857D01*
X42530952Y-64626190D02*
X42530952Y-64126190D01*
X42650000Y-64126190D01*
X42721428Y-64150000D01*
X42769047Y-64197619D01*
X42792857Y-64245238D01*
X42816666Y-64340476D01*
X42816666Y-64411904D01*
X42792857Y-64507142D01*
X42769047Y-64554761D01*
X42721428Y-64602380D01*
X42650000Y-64626190D01*
X42530952Y-64626190D01*
X42983333Y-64126190D02*
X43292857Y-64126190D01*
X43126190Y-64316666D01*
X43197619Y-64316666D01*
X43245238Y-64340476D01*
X43269047Y-64364285D01*
X43292857Y-64411904D01*
X43292857Y-64530952D01*
X43269047Y-64578571D01*
X43245238Y-64602380D01*
X43197619Y-64626190D01*
X43054761Y-64626190D01*
X43007142Y-64602380D01*
X42983333Y-64578571D01*
D10*
X42626190Y-63819047D02*
X42626190Y-63509523D01*
X42816666Y-63676190D01*
X42816666Y-63604761D01*
X42840476Y-63557142D01*
X42864285Y-63533333D01*
X42911904Y-63509523D01*
X43030952Y-63509523D01*
X43078571Y-63533333D01*
X43102380Y-63557142D01*
X43126190Y-63604761D01*
X43126190Y-63747619D01*
X43102380Y-63795238D01*
X43078571Y-63819047D01*
X42626190Y-63366666D02*
X43126190Y-63200000D01*
X42626190Y-63033333D01*
X42626190Y-62914285D02*
X42626190Y-62604761D01*
X42816666Y-62771428D01*
X42816666Y-62700000D01*
X42840476Y-62652380D01*
X42864285Y-62628571D01*
X42911904Y-62604761D01*
X43030952Y-62604761D01*
X43078571Y-62628571D01*
X43102380Y-62652380D01*
X43126190Y-62700000D01*
X43126190Y-62842857D01*
X43102380Y-62890476D01*
X43078571Y-62914285D01*
D11*
X42530952Y-70826190D02*
X42530952Y-70326190D01*
X42650000Y-70326190D01*
X42721428Y-70350000D01*
X42769047Y-70397619D01*
X42792857Y-70445238D01*
X42816666Y-70540476D01*
X42816666Y-70611904D01*
X42792857Y-70707142D01*
X42769047Y-70754761D01*
X42721428Y-70802380D01*
X42650000Y-70826190D01*
X42530952Y-70826190D01*
X43245238Y-70492857D02*
X43245238Y-70826190D01*
X43126190Y-70302380D02*
X43007142Y-70659523D01*
X43316666Y-70659523D01*
X42630952Y-66526190D02*
X42630952Y-66026190D01*
X42750000Y-66026190D01*
X42821428Y-66050000D01*
X42869047Y-66097619D01*
X42892857Y-66145238D01*
X42916666Y-66240476D01*
X42916666Y-66311904D01*
X42892857Y-66407142D01*
X42869047Y-66454761D01*
X42821428Y-66502380D01*
X42750000Y-66526190D01*
X42630952Y-66526190D01*
X43107142Y-66073809D02*
X43130952Y-66050000D01*
X43178571Y-66026190D01*
X43297619Y-66026190D01*
X43345238Y-66050000D01*
X43369047Y-66073809D01*
X43392857Y-66121428D01*
X43392857Y-66169047D01*
X43369047Y-66240476D01*
X43083333Y-66526190D01*
X43392857Y-66526190D01*
D10*
X42726190Y-65680952D02*
X42726190Y-65395238D01*
X43226190Y-65538095D02*
X42726190Y-65538095D01*
X42726190Y-65276190D02*
X43226190Y-64942857D01*
X42726190Y-64942857D02*
X43226190Y-65276190D01*
D11*
X42530952Y-68626190D02*
X42530952Y-68126190D01*
X42650000Y-68126190D01*
X42721428Y-68150000D01*
X42769047Y-68197619D01*
X42792857Y-68245238D01*
X42816666Y-68340476D01*
X42816666Y-68411904D01*
X42792857Y-68507142D01*
X42769047Y-68554761D01*
X42721428Y-68602380D01*
X42650000Y-68626190D01*
X42530952Y-68626190D01*
X43292857Y-68626190D02*
X43007142Y-68626190D01*
X43150000Y-68626190D02*
X43150000Y-68126190D01*
X43102380Y-68197619D01*
X43054761Y-68245238D01*
X43007142Y-68269047D01*
D10*
X43126190Y-67583333D02*
X42888095Y-67750000D01*
X43126190Y-67869047D02*
X42626190Y-67869047D01*
X42626190Y-67678571D01*
X42650000Y-67630952D01*
X42673809Y-67607142D01*
X42721428Y-67583333D01*
X42792857Y-67583333D01*
X42840476Y-67607142D01*
X42864285Y-67630952D01*
X42888095Y-67678571D01*
X42888095Y-67869047D01*
X42626190Y-67416666D02*
X43126190Y-67083333D01*
X42626190Y-67083333D02*
X43126190Y-67416666D01*
D11*
X30633333Y-53364285D02*
X30466666Y-53364285D01*
X30466666Y-53626190D02*
X30466666Y-53126190D01*
X30704761Y-53126190D01*
X31157142Y-53626190D02*
X30871428Y-53626190D01*
X31014285Y-53626190D02*
X31014285Y-53126190D01*
X30966666Y-53197619D01*
X30919047Y-53245238D01*
X30871428Y-53269047D01*
X34683333Y-53464285D02*
X34516666Y-53464285D01*
X34516666Y-53726190D02*
X34516666Y-53226190D01*
X34754761Y-53226190D01*
X35111904Y-53464285D02*
X35183333Y-53488095D01*
X35207142Y-53511904D01*
X35230952Y-53559523D01*
X35230952Y-53630952D01*
X35207142Y-53678571D01*
X35183333Y-53702380D01*
X35135714Y-53726190D01*
X34945238Y-53726190D01*
X34945238Y-53226190D01*
X35111904Y-53226190D01*
X35159523Y-53250000D01*
X35183333Y-53273809D01*
X35207142Y-53321428D01*
X35207142Y-53369047D01*
X35183333Y-53416666D01*
X35159523Y-53440476D01*
X35111904Y-53464285D01*
X34945238Y-53464285D01*
X35707142Y-53726190D02*
X35421428Y-53726190D01*
X35564285Y-53726190D02*
X35564285Y-53226190D01*
X35516666Y-53297619D01*
X35469047Y-53345238D01*
X35421428Y-53369047D01*
X42916666Y-61326190D02*
X42750000Y-61088095D01*
X42630952Y-61326190D02*
X42630952Y-60826190D01*
X42821428Y-60826190D01*
X42869047Y-60850000D01*
X42892857Y-60873809D01*
X42916666Y-60921428D01*
X42916666Y-60992857D01*
X42892857Y-61040476D01*
X42869047Y-61064285D01*
X42821428Y-61088095D01*
X42630952Y-61088095D01*
X43083333Y-60826190D02*
X43392857Y-60826190D01*
X43226190Y-61016666D01*
X43297619Y-61016666D01*
X43345238Y-61040476D01*
X43369047Y-61064285D01*
X43392857Y-61111904D01*
X43392857Y-61230952D01*
X43369047Y-61278571D01*
X43345238Y-61302380D01*
X43297619Y-61326190D01*
X43154761Y-61326190D01*
X43107142Y-61302380D01*
X43083333Y-61278571D01*
X45016666Y-73226190D02*
X44850000Y-72988095D01*
X44730952Y-73226190D02*
X44730952Y-72726190D01*
X44921428Y-72726190D01*
X44969047Y-72750000D01*
X44992857Y-72773809D01*
X45016666Y-72821428D01*
X45016666Y-72892857D01*
X44992857Y-72940476D01*
X44969047Y-72964285D01*
X44921428Y-72988095D01*
X44730952Y-72988095D01*
X45445238Y-72892857D02*
X45445238Y-73226190D01*
X45326190Y-72702380D02*
X45207142Y-73059523D01*
X45516666Y-73059523D01*
X60116666Y-54826190D02*
X59950000Y-54588095D01*
X59830952Y-54826190D02*
X59830952Y-54326190D01*
X60021428Y-54326190D01*
X60069047Y-54350000D01*
X60092857Y-54373809D01*
X60116666Y-54421428D01*
X60116666Y-54492857D01*
X60092857Y-54540476D01*
X60069047Y-54564285D01*
X60021428Y-54588095D01*
X59830952Y-54588095D01*
X60569047Y-54326190D02*
X60330952Y-54326190D01*
X60307142Y-54564285D01*
X60330952Y-54540476D01*
X60378571Y-54516666D01*
X60497619Y-54516666D01*
X60545238Y-54540476D01*
X60569047Y-54564285D01*
X60592857Y-54611904D01*
X60592857Y-54730952D01*
X60569047Y-54778571D01*
X60545238Y-54802380D01*
X60497619Y-54826190D01*
X60378571Y-54826190D01*
X60330952Y-54802380D01*
X60307142Y-54778571D01*
X48016666Y-62526190D02*
X47850000Y-62288095D01*
X47730952Y-62526190D02*
X47730952Y-62026190D01*
X47921428Y-62026190D01*
X47969047Y-62050000D01*
X47992857Y-62073809D01*
X48016666Y-62121428D01*
X48016666Y-62192857D01*
X47992857Y-62240476D01*
X47969047Y-62264285D01*
X47921428Y-62288095D01*
X47730952Y-62288095D01*
X48207142Y-62073809D02*
X48230952Y-62050000D01*
X48278571Y-62026190D01*
X48397619Y-62026190D01*
X48445238Y-62050000D01*
X48469047Y-62073809D01*
X48492857Y-62121428D01*
X48492857Y-62169047D01*
X48469047Y-62240476D01*
X48183333Y-62526190D01*
X48492857Y-62526190D01*
X49626190Y-67317333D02*
X49388095Y-67484000D01*
X49626190Y-67603047D02*
X49126190Y-67603047D01*
X49126190Y-67412571D01*
X49150000Y-67364952D01*
X49173809Y-67341142D01*
X49221428Y-67317333D01*
X49292857Y-67317333D01*
X49340476Y-67341142D01*
X49364285Y-67364952D01*
X49388095Y-67412571D01*
X49388095Y-67603047D01*
X49626190Y-66841142D02*
X49626190Y-67126857D01*
X49626190Y-66984000D02*
X49126190Y-66984000D01*
X49197619Y-67031619D01*
X49245238Y-67079238D01*
X49269047Y-67126857D01*
X59533333Y-51802380D02*
X59604761Y-51826190D01*
X59723809Y-51826190D01*
X59771428Y-51802380D01*
X59795238Y-51778571D01*
X59819047Y-51730952D01*
X59819047Y-51683333D01*
X59795238Y-51635714D01*
X59771428Y-51611904D01*
X59723809Y-51588095D01*
X59628571Y-51564285D01*
X59580952Y-51540476D01*
X59557142Y-51516666D01*
X59533333Y-51469047D01*
X59533333Y-51421428D01*
X59557142Y-51373809D01*
X59580952Y-51350000D01*
X59628571Y-51326190D01*
X59747619Y-51326190D01*
X59819047Y-51350000D01*
X59985714Y-51326190D02*
X60104761Y-51826190D01*
X60200000Y-51469047D01*
X60295238Y-51826190D01*
X60414285Y-51326190D01*
X60866666Y-51826190D02*
X60580952Y-51826190D01*
X60723809Y-51826190D02*
X60723809Y-51326190D01*
X60676190Y-51397619D01*
X60628571Y-51445238D01*
X60580952Y-51469047D01*
X49019047Y-57526190D02*
X49019047Y-57930952D01*
X49042857Y-57978571D01*
X49066666Y-58002380D01*
X49114285Y-58026190D01*
X49209523Y-58026190D01*
X49257142Y-58002380D01*
X49280952Y-57978571D01*
X49304761Y-57930952D01*
X49304761Y-57526190D01*
X49495238Y-57526190D02*
X49804761Y-57526190D01*
X49638095Y-57716666D01*
X49709523Y-57716666D01*
X49757142Y-57740476D01*
X49780952Y-57764285D01*
X49804761Y-57811904D01*
X49804761Y-57930952D01*
X49780952Y-57978571D01*
X49757142Y-58002380D01*
X49709523Y-58026190D01*
X49566666Y-58026190D01*
X49519047Y-58002380D01*
X49495238Y-57978571D01*
M02*
