G04 #@! TF.GenerationSoftware,KiCad,Pcbnew,5.1.6*
G04 #@! TF.CreationDate,2020-06-28T22:26:33+02:00*
G04 #@! TF.ProjectId,xbee_transciever,78626565-5f74-4726-916e-736369657665,rev?*
G04 #@! TF.SameCoordinates,Original*
G04 #@! TF.FileFunction,Paste,Top*
G04 #@! TF.FilePolarity,Positive*
%FSLAX46Y46*%
G04 Gerber Fmt 4.6, Leading zero omitted, Abs format (unit mm)*
G04 Created by KiCad (PCBNEW 5.1.6) date 2020-06-28 22:26:33*
%MOMM*%
%LPD*%
G01*
G04 APERTURE LIST*
%ADD10R,1.900000X1.500000*%
%ADD11R,1.350000X0.400000*%
%ADD12R,0.450000X1.750000*%
%ADD13R,2.159000X0.762000*%
%ADD14R,1.550000X1.000000*%
%ADD15R,1.778000X0.838200*%
%ADD16R,0.838200X1.778000*%
G04 APERTURE END LIST*
D10*
X25686500Y-63484000D03*
D11*
X28386500Y-61834000D03*
X28386500Y-61184000D03*
X28386500Y-63784000D03*
X28386500Y-63134000D03*
X28386500Y-62484000D03*
D10*
X25686500Y-61484000D03*
D12*
X31335000Y-63456000D03*
X31985000Y-63456000D03*
X32635000Y-63456000D03*
X33285000Y-63456000D03*
X33935000Y-63456000D03*
X34585000Y-63456000D03*
X35235000Y-63456000D03*
X35885000Y-63456000D03*
X36535000Y-63456000D03*
X37185000Y-63456000D03*
X37835000Y-63456000D03*
X38485000Y-63456000D03*
X39135000Y-63456000D03*
X39785000Y-63456000D03*
X39785000Y-70656000D03*
X39135000Y-70656000D03*
X38485000Y-70656000D03*
X37835000Y-70656000D03*
X37185000Y-70656000D03*
X36535000Y-70656000D03*
X35885000Y-70656000D03*
X35235000Y-70656000D03*
X34585000Y-70656000D03*
X33935000Y-70656000D03*
X33285000Y-70656000D03*
X32635000Y-70656000D03*
X31985000Y-70656000D03*
X31335000Y-70656000D03*
G36*
G01*
X35731001Y-61232000D02*
X34880999Y-61232000D01*
G75*
G02*
X34631000Y-60982001I0J249999D01*
G01*
X34631000Y-60081999D01*
G75*
G02*
X34880999Y-59832000I249999J0D01*
G01*
X35731001Y-59832000D01*
G75*
G02*
X35981000Y-60081999I0J-249999D01*
G01*
X35981000Y-60982001D01*
G75*
G02*
X35731001Y-61232000I-249999J0D01*
G01*
G37*
G36*
G01*
X35731001Y-58532000D02*
X34880999Y-58532000D01*
G75*
G02*
X34631000Y-58282001I0J249999D01*
G01*
X34631000Y-57381999D01*
G75*
G02*
X34880999Y-57132000I249999J0D01*
G01*
X35731001Y-57132000D01*
G75*
G02*
X35981000Y-57381999I0J-249999D01*
G01*
X35981000Y-58282001D01*
G75*
G02*
X35731001Y-58532000I-249999J0D01*
G01*
G37*
D13*
X40640000Y-58801000D03*
X44704000Y-58801000D03*
X40640000Y-57531000D03*
X44704000Y-57531000D03*
X40640000Y-56261000D03*
X44704000Y-56261000D03*
X40640000Y-54991000D03*
X44704000Y-54991000D03*
G36*
G01*
X37589750Y-55696500D02*
X38102250Y-55696500D01*
G75*
G02*
X38321000Y-55915250I0J-218750D01*
G01*
X38321000Y-56352750D01*
G75*
G02*
X38102250Y-56571500I-218750J0D01*
G01*
X37589750Y-56571500D01*
G75*
G02*
X37371000Y-56352750I0J218750D01*
G01*
X37371000Y-55915250D01*
G75*
G02*
X37589750Y-55696500I218750J0D01*
G01*
G37*
G36*
G01*
X37589750Y-54121500D02*
X38102250Y-54121500D01*
G75*
G02*
X38321000Y-54340250I0J-218750D01*
G01*
X38321000Y-54777750D01*
G75*
G02*
X38102250Y-54996500I-218750J0D01*
G01*
X37589750Y-54996500D01*
G75*
G02*
X37371000Y-54777750I0J218750D01*
G01*
X37371000Y-54340250D01*
G75*
G02*
X37589750Y-54121500I218750J0D01*
G01*
G37*
G36*
G01*
X50125001Y-56600000D02*
X49274999Y-56600000D01*
G75*
G02*
X49025000Y-56350001I0J249999D01*
G01*
X49025000Y-55449999D01*
G75*
G02*
X49274999Y-55200000I249999J0D01*
G01*
X50125001Y-55200000D01*
G75*
G02*
X50375000Y-55449999I0J-249999D01*
G01*
X50375000Y-56350001D01*
G75*
G02*
X50125001Y-56600000I-249999J0D01*
G01*
G37*
G36*
G01*
X50125001Y-53900000D02*
X49274999Y-53900000D01*
G75*
G02*
X49025000Y-53650001I0J249999D01*
G01*
X49025000Y-52749999D01*
G75*
G02*
X49274999Y-52500000I249999J0D01*
G01*
X50125001Y-52500000D01*
G75*
G02*
X50375000Y-52749999I0J-249999D01*
G01*
X50375000Y-53650001D01*
G75*
G02*
X50125001Y-53900000I-249999J0D01*
G01*
G37*
G36*
G01*
X47754250Y-54996500D02*
X47241750Y-54996500D01*
G75*
G02*
X47023000Y-54777750I0J218750D01*
G01*
X47023000Y-54340250D01*
G75*
G02*
X47241750Y-54121500I218750J0D01*
G01*
X47754250Y-54121500D01*
G75*
G02*
X47973000Y-54340250I0J-218750D01*
G01*
X47973000Y-54777750D01*
G75*
G02*
X47754250Y-54996500I-218750J0D01*
G01*
G37*
G36*
G01*
X47754250Y-56571500D02*
X47241750Y-56571500D01*
G75*
G02*
X47023000Y-56352750I0J218750D01*
G01*
X47023000Y-55915250D01*
G75*
G02*
X47241750Y-55696500I218750J0D01*
G01*
X47754250Y-55696500D01*
G75*
G02*
X47973000Y-55915250I0J-218750D01*
G01*
X47973000Y-56352750D01*
G75*
G02*
X47754250Y-56571500I-218750J0D01*
G01*
G37*
G36*
G01*
X68134000Y-54273001D02*
X68134000Y-53422999D01*
G75*
G02*
X68383999Y-53173000I249999J0D01*
G01*
X69284001Y-53173000D01*
G75*
G02*
X69534000Y-53422999I0J-249999D01*
G01*
X69534000Y-54273001D01*
G75*
G02*
X69284001Y-54523000I-249999J0D01*
G01*
X68383999Y-54523000D01*
G75*
G02*
X68134000Y-54273001I0J249999D01*
G01*
G37*
G36*
G01*
X65434000Y-54273001D02*
X65434000Y-53422999D01*
G75*
G02*
X65683999Y-53173000I249999J0D01*
G01*
X66584001Y-53173000D01*
G75*
G02*
X66834000Y-53422999I0J-249999D01*
G01*
X66834000Y-54273001D01*
G75*
G02*
X66584001Y-54523000I-249999J0D01*
G01*
X65683999Y-54523000D01*
G75*
G02*
X65434000Y-54273001I0J249999D01*
G01*
G37*
G36*
G01*
X65577000Y-56136250D02*
X65577000Y-55623750D01*
G75*
G02*
X65795750Y-55405000I218750J0D01*
G01*
X66233250Y-55405000D01*
G75*
G02*
X66452000Y-55623750I0J-218750D01*
G01*
X66452000Y-56136250D01*
G75*
G02*
X66233250Y-56355000I-218750J0D01*
G01*
X65795750Y-56355000D01*
G75*
G02*
X65577000Y-56136250I0J218750D01*
G01*
G37*
G36*
G01*
X67152000Y-56136250D02*
X67152000Y-55623750D01*
G75*
G02*
X67370750Y-55405000I218750J0D01*
G01*
X67808250Y-55405000D01*
G75*
G02*
X68027000Y-55623750I0J-218750D01*
G01*
X68027000Y-56136250D01*
G75*
G02*
X67808250Y-56355000I-218750J0D01*
G01*
X67370750Y-56355000D01*
G75*
G02*
X67152000Y-56136250I0J218750D01*
G01*
G37*
G36*
G01*
X64518250Y-54793500D02*
X64005750Y-54793500D01*
G75*
G02*
X63787000Y-54574750I0J218750D01*
G01*
X63787000Y-54137250D01*
G75*
G02*
X64005750Y-53918500I218750J0D01*
G01*
X64518250Y-53918500D01*
G75*
G02*
X64737000Y-54137250I0J-218750D01*
G01*
X64737000Y-54574750D01*
G75*
G02*
X64518250Y-54793500I-218750J0D01*
G01*
G37*
G36*
G01*
X64518250Y-56368500D02*
X64005750Y-56368500D01*
G75*
G02*
X63787000Y-56149750I0J218750D01*
G01*
X63787000Y-55712250D01*
G75*
G02*
X64005750Y-55493500I218750J0D01*
G01*
X64518250Y-55493500D01*
G75*
G02*
X64737000Y-55712250I0J-218750D01*
G01*
X64737000Y-56149750D01*
G75*
G02*
X64518250Y-56368500I-218750J0D01*
G01*
G37*
G36*
G01*
X42161750Y-69920500D02*
X42674250Y-69920500D01*
G75*
G02*
X42893000Y-70139250I0J-218750D01*
G01*
X42893000Y-70576750D01*
G75*
G02*
X42674250Y-70795500I-218750J0D01*
G01*
X42161750Y-70795500D01*
G75*
G02*
X41943000Y-70576750I0J218750D01*
G01*
X41943000Y-70139250D01*
G75*
G02*
X42161750Y-69920500I218750J0D01*
G01*
G37*
G36*
G01*
X42161750Y-71495500D02*
X42674250Y-71495500D01*
G75*
G02*
X42893000Y-71714250I0J-218750D01*
G01*
X42893000Y-72151750D01*
G75*
G02*
X42674250Y-72370500I-218750J0D01*
G01*
X42161750Y-72370500D01*
G75*
G02*
X41943000Y-72151750I0J218750D01*
G01*
X41943000Y-71714250D01*
G75*
G02*
X42161750Y-71495500I218750J0D01*
G01*
G37*
G36*
G01*
X37848250Y-61905500D02*
X37335750Y-61905500D01*
G75*
G02*
X37117000Y-61686750I0J218750D01*
G01*
X37117000Y-61249250D01*
G75*
G02*
X37335750Y-61030500I218750J0D01*
G01*
X37848250Y-61030500D01*
G75*
G02*
X38067000Y-61249250I0J-218750D01*
G01*
X38067000Y-61686750D01*
G75*
G02*
X37848250Y-61905500I-218750J0D01*
G01*
G37*
G36*
G01*
X37848250Y-60330500D02*
X37335750Y-60330500D01*
G75*
G02*
X37117000Y-60111750I0J218750D01*
G01*
X37117000Y-59674250D01*
G75*
G02*
X37335750Y-59455500I218750J0D01*
G01*
X37848250Y-59455500D01*
G75*
G02*
X38067000Y-59674250I0J-218750D01*
G01*
X38067000Y-60111750D01*
G75*
G02*
X37848250Y-60330500I-218750J0D01*
G01*
G37*
G36*
G01*
X44712500Y-62743750D02*
X44712500Y-63656250D01*
G75*
G02*
X44468750Y-63900000I-243750J0D01*
G01*
X43981250Y-63900000D01*
G75*
G02*
X43737500Y-63656250I0J243750D01*
G01*
X43737500Y-62743750D01*
G75*
G02*
X43981250Y-62500000I243750J0D01*
G01*
X44468750Y-62500000D01*
G75*
G02*
X44712500Y-62743750I0J-243750D01*
G01*
G37*
G36*
G01*
X46587500Y-62743750D02*
X46587500Y-63656250D01*
G75*
G02*
X46343750Y-63900000I-243750J0D01*
G01*
X45856250Y-63900000D01*
G75*
G02*
X45612500Y-63656250I0J243750D01*
G01*
X45612500Y-62743750D01*
G75*
G02*
X45856250Y-62500000I243750J0D01*
G01*
X46343750Y-62500000D01*
G75*
G02*
X46587500Y-62743750I0J-243750D01*
G01*
G37*
G36*
G01*
X46525000Y-69143750D02*
X46525000Y-70056250D01*
G75*
G02*
X46281250Y-70300000I-243750J0D01*
G01*
X45793750Y-70300000D01*
G75*
G02*
X45550000Y-70056250I0J243750D01*
G01*
X45550000Y-69143750D01*
G75*
G02*
X45793750Y-68900000I243750J0D01*
G01*
X46281250Y-68900000D01*
G75*
G02*
X46525000Y-69143750I0J-243750D01*
G01*
G37*
G36*
G01*
X44650000Y-69143750D02*
X44650000Y-70056250D01*
G75*
G02*
X44406250Y-70300000I-243750J0D01*
G01*
X43918750Y-70300000D01*
G75*
G02*
X43675000Y-70056250I0J243750D01*
G01*
X43675000Y-69143750D01*
G75*
G02*
X43918750Y-68900000I243750J0D01*
G01*
X44406250Y-68900000D01*
G75*
G02*
X44650000Y-69143750I0J-243750D01*
G01*
G37*
G36*
G01*
X46587500Y-64843750D02*
X46587500Y-65756250D01*
G75*
G02*
X46343750Y-66000000I-243750J0D01*
G01*
X45856250Y-66000000D01*
G75*
G02*
X45612500Y-65756250I0J243750D01*
G01*
X45612500Y-64843750D01*
G75*
G02*
X45856250Y-64600000I243750J0D01*
G01*
X46343750Y-64600000D01*
G75*
G02*
X46587500Y-64843750I0J-243750D01*
G01*
G37*
G36*
G01*
X44712500Y-64843750D02*
X44712500Y-65756250D01*
G75*
G02*
X44468750Y-66000000I-243750J0D01*
G01*
X43981250Y-66000000D01*
G75*
G02*
X43737500Y-65756250I0J243750D01*
G01*
X43737500Y-64843750D01*
G75*
G02*
X43981250Y-64600000I243750J0D01*
G01*
X44468750Y-64600000D01*
G75*
G02*
X44712500Y-64843750I0J-243750D01*
G01*
G37*
G36*
G01*
X44687500Y-67043750D02*
X44687500Y-67956250D01*
G75*
G02*
X44443750Y-68200000I-243750J0D01*
G01*
X43956250Y-68200000D01*
G75*
G02*
X43712500Y-67956250I0J243750D01*
G01*
X43712500Y-67043750D01*
G75*
G02*
X43956250Y-66800000I243750J0D01*
G01*
X44443750Y-66800000D01*
G75*
G02*
X44687500Y-67043750I0J-243750D01*
G01*
G37*
G36*
G01*
X46562500Y-67043750D02*
X46562500Y-67956250D01*
G75*
G02*
X46318750Y-68200000I-243750J0D01*
G01*
X45831250Y-68200000D01*
G75*
G02*
X45587500Y-67956250I0J243750D01*
G01*
X45587500Y-67043750D01*
G75*
G02*
X45831250Y-66800000I243750J0D01*
G01*
X46318750Y-66800000D01*
G75*
G02*
X46562500Y-67043750I0J-243750D01*
G01*
G37*
G36*
G01*
X28833000Y-55489000D02*
X28833000Y-54239000D01*
G75*
G02*
X29083000Y-53989000I250000J0D01*
G01*
X29833000Y-53989000D01*
G75*
G02*
X30083000Y-54239000I0J-250000D01*
G01*
X30083000Y-55489000D01*
G75*
G02*
X29833000Y-55739000I-250000J0D01*
G01*
X29083000Y-55739000D01*
G75*
G02*
X28833000Y-55489000I0J250000D01*
G01*
G37*
G36*
G01*
X31633000Y-55489000D02*
X31633000Y-54239000D01*
G75*
G02*
X31883000Y-53989000I250000J0D01*
G01*
X32633000Y-53989000D01*
G75*
G02*
X32883000Y-54239000I0J-250000D01*
G01*
X32883000Y-55489000D01*
G75*
G02*
X32633000Y-55739000I-250000J0D01*
G01*
X31883000Y-55739000D01*
G75*
G02*
X31633000Y-55489000I0J250000D01*
G01*
G37*
G36*
G01*
X35580500Y-55320250D02*
X35580500Y-54407750D01*
G75*
G02*
X35824250Y-54164000I243750J0D01*
G01*
X36311750Y-54164000D01*
G75*
G02*
X36555500Y-54407750I0J-243750D01*
G01*
X36555500Y-55320250D01*
G75*
G02*
X36311750Y-55564000I-243750J0D01*
G01*
X35824250Y-55564000D01*
G75*
G02*
X35580500Y-55320250I0J243750D01*
G01*
G37*
G36*
G01*
X33705500Y-55320250D02*
X33705500Y-54407750D01*
G75*
G02*
X33949250Y-54164000I243750J0D01*
G01*
X34436750Y-54164000D01*
G75*
G02*
X34680500Y-54407750I0J-243750D01*
G01*
X34680500Y-55320250D01*
G75*
G02*
X34436750Y-55564000I-243750J0D01*
G01*
X33949250Y-55564000D01*
G75*
G02*
X33705500Y-55320250I0J243750D01*
G01*
G37*
G36*
G01*
X45712500Y-61556250D02*
X45712500Y-60643750D01*
G75*
G02*
X45956250Y-60400000I243750J0D01*
G01*
X46443750Y-60400000D01*
G75*
G02*
X46687500Y-60643750I0J-243750D01*
G01*
X46687500Y-61556250D01*
G75*
G02*
X46443750Y-61800000I-243750J0D01*
G01*
X45956250Y-61800000D01*
G75*
G02*
X45712500Y-61556250I0J243750D01*
G01*
G37*
G36*
G01*
X43837500Y-61556250D02*
X43837500Y-60643750D01*
G75*
G02*
X44081250Y-60400000I243750J0D01*
G01*
X44568750Y-60400000D01*
G75*
G02*
X44812500Y-60643750I0J-243750D01*
G01*
X44812500Y-61556250D01*
G75*
G02*
X44568750Y-61800000I-243750J0D01*
G01*
X44081250Y-61800000D01*
G75*
G02*
X43837500Y-61556250I0J243750D01*
G01*
G37*
G36*
G01*
X43675000Y-72156250D02*
X43675000Y-71243750D01*
G75*
G02*
X43918750Y-71000000I243750J0D01*
G01*
X44406250Y-71000000D01*
G75*
G02*
X44650000Y-71243750I0J-243750D01*
G01*
X44650000Y-72156250D01*
G75*
G02*
X44406250Y-72400000I-243750J0D01*
G01*
X43918750Y-72400000D01*
G75*
G02*
X43675000Y-72156250I0J243750D01*
G01*
G37*
G36*
G01*
X45550000Y-72156250D02*
X45550000Y-71243750D01*
G75*
G02*
X45793750Y-71000000I243750J0D01*
G01*
X46281250Y-71000000D01*
G75*
G02*
X46525000Y-71243750I0J-243750D01*
G01*
X46525000Y-72156250D01*
G75*
G02*
X46281250Y-72400000I-243750J0D01*
G01*
X45793750Y-72400000D01*
G75*
G02*
X45550000Y-72156250I0J243750D01*
G01*
G37*
G36*
G01*
X61018000Y-55423750D02*
X61018000Y-56336250D01*
G75*
G02*
X60774250Y-56580000I-243750J0D01*
G01*
X60286750Y-56580000D01*
G75*
G02*
X60043000Y-56336250I0J243750D01*
G01*
X60043000Y-55423750D01*
G75*
G02*
X60286750Y-55180000I243750J0D01*
G01*
X60774250Y-55180000D01*
G75*
G02*
X61018000Y-55423750I0J-243750D01*
G01*
G37*
G36*
G01*
X62893000Y-55423750D02*
X62893000Y-56336250D01*
G75*
G02*
X62649250Y-56580000I-243750J0D01*
G01*
X62161750Y-56580000D01*
G75*
G02*
X61918000Y-56336250I0J243750D01*
G01*
X61918000Y-55423750D01*
G75*
G02*
X62161750Y-55180000I243750J0D01*
G01*
X62649250Y-55180000D01*
G75*
G02*
X62893000Y-55423750I0J-243750D01*
G01*
G37*
G36*
G01*
X48556250Y-65762500D02*
X47643750Y-65762500D01*
G75*
G02*
X47400000Y-65518750I0J243750D01*
G01*
X47400000Y-65031250D01*
G75*
G02*
X47643750Y-64787500I243750J0D01*
G01*
X48556250Y-64787500D01*
G75*
G02*
X48800000Y-65031250I0J-243750D01*
G01*
X48800000Y-65518750D01*
G75*
G02*
X48556250Y-65762500I-243750J0D01*
G01*
G37*
G36*
G01*
X48556250Y-63887500D02*
X47643750Y-63887500D01*
G75*
G02*
X47400000Y-63643750I0J243750D01*
G01*
X47400000Y-63156250D01*
G75*
G02*
X47643750Y-62912500I243750J0D01*
G01*
X48556250Y-62912500D01*
G75*
G02*
X48800000Y-63156250I0J-243750D01*
G01*
X48800000Y-63643750D01*
G75*
G02*
X48556250Y-63887500I-243750J0D01*
G01*
G37*
G36*
G01*
X47643750Y-66471500D02*
X48556250Y-66471500D01*
G75*
G02*
X48800000Y-66715250I0J-243750D01*
G01*
X48800000Y-67202750D01*
G75*
G02*
X48556250Y-67446500I-243750J0D01*
G01*
X47643750Y-67446500D01*
G75*
G02*
X47400000Y-67202750I0J243750D01*
G01*
X47400000Y-66715250D01*
G75*
G02*
X47643750Y-66471500I243750J0D01*
G01*
G37*
G36*
G01*
X47643750Y-68346500D02*
X48556250Y-68346500D01*
G75*
G02*
X48800000Y-68590250I0J-243750D01*
G01*
X48800000Y-69077750D01*
G75*
G02*
X48556250Y-69321500I-243750J0D01*
G01*
X47643750Y-69321500D01*
G75*
G02*
X47400000Y-69077750I0J243750D01*
G01*
X47400000Y-68590250D01*
G75*
G02*
X47643750Y-68346500I243750J0D01*
G01*
G37*
D14*
X58420000Y-55626000D03*
X53170000Y-55626000D03*
X58420000Y-52426000D03*
X53170000Y-52426000D03*
D15*
X51165760Y-69910960D03*
X51165760Y-68661280D03*
X51165760Y-67411600D03*
X51165760Y-66161920D03*
X51165760Y-64912240D03*
X51165760Y-63662560D03*
X51165760Y-62412880D03*
X51165760Y-61163200D03*
D16*
X53060600Y-58648600D03*
X54310280Y-58648600D03*
X55559960Y-58648600D03*
X56809640Y-58648600D03*
X58059320Y-58648600D03*
X59309000Y-58648600D03*
X60558680Y-58648600D03*
X61808360Y-58648600D03*
X63058040Y-58648600D03*
X64307720Y-58648600D03*
X65557400Y-58648600D03*
X66807080Y-58648600D03*
X69306440Y-72415400D03*
X68056760Y-72415400D03*
X66807080Y-72415400D03*
X65557400Y-72415400D03*
X64307720Y-72415400D03*
X63058040Y-72415400D03*
X61808360Y-72415400D03*
X60558680Y-72415400D03*
X59309000Y-72415400D03*
X58059320Y-72415400D03*
X56809640Y-72415400D03*
X55559960Y-72415400D03*
X54310280Y-72415400D03*
X53060600Y-72415400D03*
M02*
