(module Abracon_ABLS_8MHz (layer F.Cu) (tedit 5E64B157)
  (fp_text reference REF** (at 0 -3.81) (layer F.SilkS)
    (effects (font (size 1 1) (thickness 0.15)))
  )
  (fp_text value Abracon_ABLS_8MHz (at 0 3.81) (layer F.Fab)
    (effects (font (size 1 1) (thickness 0.15)))
  )
  (fp_line (start -5.715 -2.413) (end 5.715 -2.413) (layer F.Fab) (width 0.12))
  (fp_line (start -5.715 2.413) (end -5.715 -2.413) (layer F.Fab) (width 0.12))
  (fp_line (start 5.715 2.413) (end 5.715 -2.413) (layer F.Fab) (width 0.12))
  (fp_line (start -5.715 2.413) (end 5.715 2.413) (layer F.Fab) (width 0.12))
  (fp_arc (start -3.1242 0) (end -5.1562 0) (angle -90) (layer F.Fab) (width 0.12))
  (fp_arc (start -3.1242 0) (end -3.1242 -2.032) (angle -90) (layer F.Fab) (width 0.12))
  (fp_arc (start 3.1242 0) (end 5.1562 0) (angle -90) (layer F.Fab) (width 0.12))
  (fp_arc (start 3.1242 0) (end 3.1242 2.032) (angle -90) (layer F.Fab) (width 0.12))
  (fp_line (start -3.1242 -2.032) (end 3.1242 -2.032) (layer F.Fab) (width 0.12))
  (fp_line (start -3.1242 2.032) (end 3.1242 2.032) (layer F.Fab) (width 0.12))
  (fp_text user %R (at 0 0) (layer F.Fab)
    (effects (font (size 1 1) (thickness 0.15)))
  )
  (fp_line (start 2.54 -2.54) (end -7.62 -2.54) (layer F.SilkS) (width 0.15))
  (fp_line (start -7.62 -2.54) (end -7.62 2.54) (layer F.SilkS) (width 0.15))
  (fp_line (start -7.62 2.54) (end 2.54 2.54) (layer F.SilkS) (width 0.15))
  (fp_line (start -8.128 -3.048) (end 8.128 -3.048) (layer F.CrtYd) (width 0.12))
  (fp_line (start 8.128 -3.048) (end 8.128 3.048) (layer F.CrtYd) (width 0.12))
  (fp_line (start 8.128 3.048) (end -8.128 3.048) (layer F.CrtYd) (width 0.12))
  (fp_line (start -8.128 3.048) (end -8.128 -3.048) (layer F.CrtYd) (width 0.12))
  (pad 1 smd trapezoid (at -4.7498 0) (size 5.588 2.1082) (layers F.Cu F.Paste F.Mask))
  (pad 2 smd trapezoid (at 4.7498 0) (size 5.588 2.1082) (layers F.Cu F.Paste F.Mask))
)
