(module breadboard_adapter_xbee:xbee_digi3_micro_SMT (layer F.Cu) (tedit 5DB72B24)
  (fp_text reference REF** (at 0 -11.43) (layer F.SilkS)
    (effects (font (size 1 1) (thickness 0.15)))
  )
  (fp_text value xbee_digi3_micro_SMT (at 0 11.684) (layer F.Fab)
    (effects (font (size 1 1) (thickness 0.15)))
  )
  (fp_text user keepout (at 2.286 -6.604) (layer Dwgs.User)
    (effects (font (size 0.127 0.1016) (thickness 0.0254)))
  )
  (fp_line (start 3.556 -4.572) (end 1.016 -4.572) (layer F.CrtYd) (width 0.15))
  (fp_line (start 3.556 -8.382) (end 3.556 -4.572) (layer F.CrtYd) (width 0.15))
  (fp_line (start 1.016 -8.382) (end 3.556 -8.382) (layer F.CrtYd) (width 0.15))
  (fp_line (start 3.556 -4.572) (end 3.556 -8.382) (layer F.CrtYd) (width 0.15))
  (fp_line (start 1.016 -4.572) (end 1.016 -8.382) (layer F.CrtYd) (width 0.15))
  (fp_line (start -8.382 -10.668) (end 8.128 -10.668) (layer F.CrtYd) (width 0.12))
  (fp_line (start 8.128 10.922) (end 8.128 -10.668) (layer F.CrtYd) (width 0.12))
  (fp_line (start -8.382 10.922) (end 8.128 10.922) (layer F.CrtYd) (width 0.12))
  (fp_line (start -8.382 -10.668) (end -8.382 10.922) (layer F.CrtYd) (width 0.12))
  (fp_poly (pts (xy -7.874 -7.112) (xy -8.128 -6.858) (xy -7.874 -6.604) (xy -7.62 -6.858)) (layer F.SilkS) (width 0.1))
  (fp_circle (center -7.874 -6.858) (end -7.62 -6.858) (layer F.SilkS) (width 0.2032))
  (fp_line (start -7.112 9.906) (end -5.08 9.906) (layer F.SilkS) (width 0.2032))
  (fp_line (start 5.08 9.906) (end 7.112 9.906) (layer F.SilkS) (width 0.2032))
  (fp_line (start 7.112 8.636) (end 7.112 9.906) (layer F.SilkS) (width 0.2032))
  (fp_line (start -7.112 8.636) (end -7.112 9.906) (layer F.SilkS) (width 0.2032))
  (fp_line (start 7.112 -9.906) (end 7.112 -9.144) (layer F.SilkS) (width 0.2032))
  (fp_line (start 6.604 -9.906) (end 7.112 -9.906) (layer F.SilkS) (width 0.2032))
  (fp_line (start -7.112 -9.906) (end -7.112 -6.604) (layer F.SilkS) (width 0.2032))
  (fp_line (start -7.112 -9.906) (end 6.604 -9.906) (layer F.SilkS) (width 0.2032))
  (fp_line (start -6.7818 -9.652) (end 6.7818 -9.652) (layer F.Fab) (width 0.1524))
  (fp_line (start 6.7818 9.652) (end -6.7818 9.652) (layer F.Fab) (width 0.1524))
  (fp_line (start 6.7818 9.652) (end 6.7818 -9.652) (layer F.Fab) (width 0.1524))
  (fp_line (start -6.7818 -9.652) (end -6.7818 9.652) (layer F.Fab) (width 0.1524))
  (pad 20 smd rect (at 4.37896 9.79424 270) (size 1.778 0.8382) (layers F.Cu F.Paste F.Mask))
  (pad 19 smd rect (at 3.12928 9.79424 270) (size 1.778 0.8382) (layers F.Cu F.Paste F.Mask))
  (pad 18 smd rect (at 1.8796 9.79424 270) (size 1.778 0.8382) (layers F.Cu F.Paste F.Mask))
  (pad 17 smd rect (at 0.62992 9.79424 270) (size 1.778 0.8382) (layers F.Cu F.Paste F.Mask))
  (pad 16 smd rect (at -0.61976 9.79424 270) (size 1.778 0.8382) (layers F.Cu F.Paste F.Mask))
  (pad 15 smd rect (at -1.86944 9.79424 270) (size 1.778 0.8382) (layers F.Cu F.Paste F.Mask))
  (pad 14 smd rect (at -3.11912 9.79424 270) (size 1.778 0.8382) (layers F.Cu F.Paste F.Mask))
  (pad 13 smd rect (at -4.3688 9.79424 270) (size 1.778 0.8382) (layers F.Cu F.Paste F.Mask))
  (pad 12 smd rect (at -6.8834 7.8994 180) (size 1.778 0.8382) (layers F.Cu F.Paste F.Mask))
  (pad 11 smd rect (at -6.8834 6.64972 180) (size 1.778 0.8382) (layers F.Cu F.Paste F.Mask))
  (pad 10 smd rect (at -6.8834 5.40004 180) (size 1.778 0.8382) (layers F.Cu F.Paste F.Mask))
  (pad 9 smd rect (at -6.8834 4.15036 180) (size 1.778 0.8382) (layers F.Cu F.Paste F.Mask))
  (pad 8 smd rect (at -6.8834 2.90068 180) (size 1.778 0.8382) (layers F.Cu F.Paste F.Mask))
  (pad 7 smd rect (at -6.8834 1.651 180) (size 1.778 0.8382) (layers F.Cu F.Paste F.Mask))
  (pad 6 smd rect (at -6.8834 0.40132 180) (size 1.778 0.8382) (layers F.Cu F.Paste F.Mask))
  (pad 5 smd rect (at -6.8834 -0.84836 180) (size 1.778 0.8382) (layers F.Cu F.Paste F.Mask))
  (pad 4 smd rect (at -6.8834 -2.09804 180) (size 1.778 0.8382) (layers F.Cu F.Paste F.Mask))
  (pad 3 smd rect (at -6.8834 -3.34772 180) (size 1.778 0.8382) (layers F.Cu F.Paste F.Mask))
  (pad 2 smd rect (at -6.8834 -4.5974 180) (size 1.778 0.8382) (layers F.Cu F.Paste F.Mask))
  (pad 1 smd rect (at -6.8834 -5.84708 180) (size 1.778 0.8382) (layers F.Cu F.Paste F.Mask))
  (pad 34 smd rect (at 6.8834 -8.34644) (size 1.778 0.8382) (layers F.Cu F.Paste F.Mask))
  (pad 33 smd rect (at 6.8834 -7.09676) (size 1.778 0.8382) (layers F.Cu F.Paste F.Mask))
  (pad 32 smd rect (at 6.8834 -5.84708) (size 1.778 0.8382) (layers F.Cu F.Paste F.Mask))
  (pad 31 smd rect (at 6.8834 -4.5974) (size 1.778 0.8382) (layers F.Cu F.Paste F.Mask))
  (pad 30 smd rect (at 6.8834 -3.34772) (size 1.778 0.8382) (layers F.Cu F.Paste F.Mask))
  (pad 29 smd rect (at 6.8834 -2.09804) (size 1.778 0.8382) (layers F.Cu F.Paste F.Mask))
  (pad 28 smd rect (at 6.8834 -0.84836) (size 1.778 0.8382) (layers F.Cu F.Paste F.Mask))
  (pad 27 smd rect (at 6.8834 0.40132) (size 1.778 0.8382) (layers F.Cu F.Paste F.Mask))
  (pad 26 smd rect (at 6.8834 1.651) (size 1.778 0.8382) (layers F.Cu F.Paste F.Mask))
  (pad 25 smd rect (at 6.8834 2.90068) (size 1.778 0.8382) (layers F.Cu F.Paste F.Mask))
  (pad 24 smd rect (at 6.8834 4.15036) (size 1.778 0.8382) (layers F.Cu F.Paste F.Mask))
  (pad 23 smd rect (at 6.8834 5.40004) (size 1.778 0.8382) (layers F.Cu F.Paste F.Mask))
  (pad 22 smd rect (at 6.8834 6.64972) (size 1.778 0.8382) (layers F.Cu F.Paste F.Mask))
  (pad 21 smd rect (at 6.8834 7.8994) (size 1.778 0.8382) (layers F.Cu F.Paste F.Mask))
)
